<?xml version="1.0" encoding="utf-8"?>
<!-- Generator: Adobe Illustrator 16.0.0, SVG Export Plug-In . SVG Version: 6.00 Build 0)  -->
<!DOCTYPE svg PUBLIC "-//W3C//DTD SVG 1.1//EN" "http://www.w3.org/Graphics/SVG/1.1/DTD/svg11.dtd">
<svg version="1.1" id="Layer_1" xmlns="http://www.w3.org/2000/svg" xmlns:xlink="http://www.w3.org/1999/xlink" x="0px" y="0px"
	 width="1218px" height="364px" viewBox="0 0 1218 364" enable-background="new 0 0 1218 364" xml:space="preserve">
<g>
	<g>
		<path fill="#0099F1" d="M291.03,262.615c-0.995,0.004-1.667,0.451-2.416,0.972c-33.801,23.489-70.103,28.457-108.262,12.884
			c-46.151-18.832-75.022-67.849-66.634-119.381c6.106-37.509,26.663-65.034,60.371-82.415c21.646-11.164,44.793-13.799,68.71-9.867
			c16.946,2.786,32.595,8.827,46.374,19.274c0.799,0.605,1.604,0.689,2.51,0.689c12.57-0.004,25.14-0.002,37.708-0.018
			c0.513,0,1.094,0.208,1.554-0.251c-38.438-44.272-97.112-62.253-154.289-42.278c-57.408,20.055-98.233,77.29-92.826,143.747
			c2.224,27.338,12.7,53.271,29.519,74.606l-21.7,52.434c2.431-0.354,3.947-0.549,5.453-0.806
			c22.299-3.775,44.587-7.617,66.896-11.335c9.017,4.258,18.62,7.655,28.753,10.011c54.976,12.786,115.14-15.477,138.045-48.349
			c-0.416-0.054-0.619-0.103-0.822-0.103C316.991,262.499,304.011,262.58,291.03,262.615z"/>
		<g>
			<path fill="#0099F1" d="M176.769,197.949c-9.251,8.838-18.482,18.078-27.438,26.975L148.056,245h28.685l2.282-48.797
				C178.245,196.742,177.479,197.271,176.769,197.949z"/>
			<path fill="#0099F1" d="M241.931,178.152c0.467-0.313,0.937-0.639,1.405-0.993c4.459-3.387,8.972-6.756,13.492-10.106
				c3.04-10.329,5.956-23.052,8.403-31.052h0.611c0,7,0.104,16.294,0.265,24.206c5.275-3.869,10.54-7.71,15.727-11.491
				c3.944-2.873,7.885-6.117,11.824-8.997L291.882,107H251.4l-14.647,45.932c-2.272,7.746-4.598,16.411-6.839,24.96
				C234.033,177.902,238.062,178.109,241.931,178.152z"/>
			<path fill="#0099F1" d="M170.77,182.371c2.146-2.669,6.455-3.615,9.14-3.793c0.623-13.837,1.112-28.578,1.713-42.578h0.406
				c2.534,14,5.933,28.855,9.424,42.367c8.333-0.13,17.268-0.232,26.365-0.278c-1.995-8.315-4.143-16.971-6.292-24.953L198.1,107
				h-41.296l-6.414,100.883C157.092,199.248,163.907,190.898,170.77,182.371z"/>
			<path fill="#0099F1" d="M247.053,197.631l-0.669-1.627c-2.938-0.309-10.967-1.02-20.759-1.42
				c-0.647,2.602-1.282,3.416-1.894,7.416h-0.608c-0.492-4-1.024-4.945-1.574-7.576c-8.356-0.316-17.584-1.257-25.877-1.377
				L209.085,241h24.208l14.101-44.424L247.053,197.631z"/>
			<path fill="#0099F1" d="M266.751,183.525c0.102,3.031,0.207,6.063,0.313,8.91L269.099,245h30.31l-4.487-81.824
				C285.069,170.386,275.714,177.08,266.751,183.525z"/>
		</g>
	</g>
	<path fill="#263D8C" d="M330.541,130.95c-0.081-1.203-1.787-3.291-2.729-3.282c-9.018,0.093-18.029,0.551-27.042,0.902
		c-0.057,0.579-0.11,1.158-0.166,1.737c1.735,1.375,3.468,2.75,5.535,4.388c-2.062,1.601-3.826,3.043-5.66,4.392
		c-18.227,13.377-36.617,26.542-54.619,40.216c-0.552,0.415-1.1,0.797-1.648,1.161c0.034,0.104,0.076,0.205,0.109,0.31
		c-0.366,0.01-0.714,0.039-1.091,0.035c-20.513-0.229-41.029,0.032-61.54,0.391c-2.719,0.047-6.421,0.979-7.955,2.886
		c-12.836,15.956-25.274,32.236-37.835,48.417c0.625,0.467,1.251,0.937,1.875,1.397c12.722-12.573,25.329-25.269,38.261-37.625
		c2.44-2.33,6.159-4.672,9.309-4.696c21.011-0.164,63.593,1.692,63.876,2.415c1.003-0.717,2.002-1.438,3.007-2.155
		c0.242,0,0.485,0.004,0.729,0.004c-0.079-0.12-0.153-0.241-0.231-0.36c19.962-14.257,39.761-28.75,59.468-43.358
		c5.704-4.23,11.123-7.568,18.483-1.98C330.677,140.424,330.862,135.67,330.541,130.95z"/>
</g>
<g>
	<path fill="#5B5B5B" d="M458.582,218.277l3.32,6.475c-3.211,1.992-7.277,3.626-12.2,4.896c-4.925,1.271-9.213,1.908-12.863,1.908
		c-11.62,0-20.666-3.928-27.141-11.785c-6.474-7.854-9.71-18.201-9.71-31.041c0-8.077,1.521-15.297,4.565-21.662
		c3.042-6.361,7.44-11.342,13.196-14.938c5.753-3.595,12.504-5.396,20.251-5.396c3.429,0,7.636,0.664,12.614,1.992
		c4.979,1.328,9.019,2.988,12.117,4.98l-3.32,6.308c-3.982-1.88-7.415-3.292-10.291-4.233c-2.879-0.938-6.696-1.41-11.453-1.41
		c-5.756,0-10.764,1.521-15.021,4.564c-4.262,3.045-7.527,7.166-9.793,12.366c-2.27,5.203-3.46,10.956-3.569,17.263
		c0,10.293,2.407,18.758,7.222,25.396c4.813,6.641,11.591,9.96,20.334,9.96c3.54,0,6.722-0.274,9.544-0.83
		c2.821-0.553,5.42-1.438,7.801-2.655C456.563,219.219,458.027,218.5,458.582,218.277z"/>
	<path fill="#5B5B5B" d="M529.46,153.957c3.982,4.813,5.976,11.314,5.976,19.503v55.938h-9.13v-54.941
		c0-13.279-5.146-19.919-15.438-19.919c-4.428,0-9.24,1.493-14.44,4.481c-5.203,2.988-9.959,6.917-14.274,11.785v58.594h-9.129
		V113.87l9.129-1.66v48.967c3.429-4.093,7.885-7.524,13.361-10.291c5.479-2.765,10.648-4.15,15.521-4.15
		C519.334,146.736,525.477,149.143,529.46,153.957z"/>
	<path fill="#5B5B5B" d="M555.021,160.015l-3.153-6.308c2.876-1.992,6.973-3.652,12.283-4.98c5.312-1.328,9.793-1.992,13.444-1.992
		c9.071,0,16.155,2.382,21.246,7.139c5.089,4.759,7.636,11.121,7.636,19.089v56.436h-7.304l-1.327-8.631
		c-2.769,3.102-6.392,5.672-10.873,7.719c-4.48,2.048-9.046,3.07-13.693,3.07c-8.742,0-15.438-2.295-20.084-6.889
		c-4.647-4.59-6.973-10.54-6.973-17.844c0-7.523,2.654-13.416,7.968-17.68c5.313-4.259,12.227-6.391,20.748-6.391h22.409v-9.13
		c0-5.864-1.635-10.54-4.896-14.026c-3.266-3.486-8.05-5.229-14.356-5.229c-4.979,0-9.047,0.443-12.2,1.327
		C562.74,156.586,559.114,158.023,555.021,160.015z M555.52,206.824c0,4.76,1.577,8.797,4.73,12.115
		c3.153,3.32,7.553,4.98,13.195,4.98c4.868,0,9.352-1.217,13.444-3.652c4.094-2.434,7.579-5.644,10.458-9.627v-21.412h-22.242
		c-6.309,0-11.148,1.658-14.523,4.979C557.205,197.529,555.52,201.736,555.52,206.824z"/>
	<path fill="#5B5B5B" d="M647.643,151.051l3.485,6.806h-18.094v51.125c0,4.314,0.913,7.857,2.739,10.623
		c1.825,2.769,4.674,4.149,8.548,4.149c2.213,0,4.481-0.498,6.807-1.494l1.991,7.304c-0.332,0-1.825,0.388-4.48,1.162
		c-2.215,0.553-4.373,0.83-6.475,0.83c-5.644,0-10.1-1.854-13.361-5.562c-3.267-3.706-4.896-8.989-4.896-15.853v-52.289h-11.951
		v-6.806h11.951v-21.413l9.129-3.652v25.064h14.606L647.643,151.051L647.643,151.051z"/>
	<path fill="#5B5B5B" d="M794.873,153.874c3.652,4.759,5.479,11.287,5.479,19.586v55.938h-9.129v-54.941
		c0-6.309-0.996-11.204-2.987-14.69s-5.589-5.229-10.789-5.229c-3.765,0-8.023,1.355-12.78,4.066
		c-4.761,2.713-9.241,6.282-13.445,10.707c0.108,0.887,0.166,2.27,0.166,4.149v55.938h-9.13v-54.941
		c0-6.309-0.971-11.204-2.904-14.69c-1.938-3.486-5.507-5.229-10.705-5.229c-3.984,0-8.494,1.493-13.528,4.481
		c-5.037,2.988-9.711,6.917-14.025,11.785v58.594h-9.13v-80.505h7.304l1.66,12.449c3.43-3.984,7.854-7.413,13.278-10.292
		c5.421-2.876,10.291-4.315,14.605-4.315c11.063,0,18.036,4.871,20.915,14.607c3.43-3.984,7.855-7.413,13.279-10.292
		c5.421-2.876,10.292-4.315,14.606-4.315C785.467,146.736,791.223,149.117,794.873,153.874z"/>
	<path fill="#5B5B5B" d="M876.871,189.395h-58.76c0.107,10.404,2.544,18.787,7.303,25.148c4.758,6.365,12.007,9.545,21.745,9.545
		c4.868,0,9.185-0.553,12.947-1.66c3.761-1.104,7.636-2.656,11.618-4.648l3.32,6.809c-3.651,2.104-7.886,3.791-12.698,5.063
		c-4.813,1.272-9.545,1.908-14.191,1.908c-13.171,0-23.02-3.844-29.547-11.535c-6.53-7.689-9.793-18.119-9.793-31.289
		c0-12.504,3.07-22.629,9.213-30.376c6.143-7.745,14.965-11.619,26.476-11.619c10.292,0,18.26,3.93,23.902,11.785
		C874.051,166.38,876.871,176.671,876.871,189.395z M818.444,182.922h48.967c-0.774-8.632-3.045-15.546-6.807-20.749
		c-3.764-5.2-9.406-7.802-16.931-7.802c-7.527,0-13.42,2.655-17.68,7.968C821.735,167.65,819.217,174.514,818.444,182.922z"/>
	<path fill="#5B5B5B" d="M913.722,151.051l3.484,6.806h-18.093v51.125c0,4.314,0.913,7.857,2.738,10.623
		c1.826,2.769,4.675,4.149,8.549,4.149c2.213,0,4.481-0.498,6.806-1.494l1.992,7.304c-0.332,0-1.826,0.388-4.48,1.162
		c-2.216,0.553-4.373,0.83-6.475,0.83c-5.645,0-10.101-1.854-13.361-5.562c-3.267-3.706-4.896-8.989-4.896-15.853v-52.289h-11.951
		v-6.806h11.951v-21.413l9.129-3.652v25.064h14.606L913.722,151.051L913.722,151.051z"/>
	<path fill="#5B5B5B" d="M935.964,229.398h-9.13v-80.505h5.644l2.988,12.781c3.761-3.097,8.158-6.001,13.195-8.714
		c5.034-2.71,9.434-4.067,13.195-4.067l2.821,7.138c-4.76,0-9.876,1.552-15.354,4.647c-5.479,3.1-9.935,6.531-13.362,10.292
		L935.964,229.398L935.964,229.398z"/>
	<path fill="#5B5B5B" d="M973.811,130.469c-2.104,0-3.792-0.664-5.063-1.992c-1.272-1.328-1.907-2.988-1.907-4.979
		c0-1.992,0.635-3.652,1.907-4.979c1.271-1.328,2.96-1.992,5.063-1.992c1.991,0,3.679,0.664,5.063,1.992
		c1.383,1.328,2.074,2.988,2.074,4.979c0,1.99-0.691,3.651-2.074,4.979C977.488,129.805,975.802,130.469,973.811,130.469z
		 M969.327,229.398v-80.505h9.13v80.505H969.327z"/>
	<path fill="#5B5B5B" d="M1046.347,218.277l3.319,6.475c-3.212,1.992-7.277,3.626-12.2,4.896c-4.925,1.271-9.212,1.908-12.864,1.908
		c-11.618,0-20.666-3.928-27.14-11.785c-6.474-7.854-9.71-18.201-9.71-31.041c0-8.077,1.521-15.297,4.563-21.662
		c3.043-6.361,7.44-11.342,13.195-14.938c5.753-3.595,12.504-5.396,20.251-5.396c3.43,0,7.637,0.664,12.615,1.992
		s9.019,2.988,12.116,4.98l-3.318,6.308c-3.983-1.88-7.415-3.292-10.292-4.233c-2.879-0.938-6.696-1.41-11.453-1.41
		c-5.755,0-10.764,1.521-15.021,4.564c-4.261,3.045-7.525,7.166-9.793,12.366c-2.271,5.203-3.46,10.956-3.567,17.263
		c0,10.293,2.405,18.758,7.22,25.396c4.814,6.641,11.592,9.96,20.334,9.96c3.541,0,6.724-0.274,9.546-0.83
		c2.82-0.553,5.42-1.438,7.802-2.655C1044.325,219.219,1045.791,218.5,1046.347,218.277z"/>
	<path fill="#5B5B5B" d="M1054.813,225.249l2.986-7.14c8.188,3.984,15.491,5.979,21.91,5.979c6.641,0,11.896-1.271,15.771-3.818
		c3.871-2.545,5.811-6.084,5.811-10.623c0-6.526-7.194-12.448-21.579-17.762c-16.38-5.863-24.565-13.5-24.565-22.906
		c0-6.749,2.516-12.143,7.553-16.184c5.034-4.038,12.034-6.06,20.997-6.06c3.651,0,7.802,0.639,12.449,1.909
		c4.647,1.273,8.3,2.852,10.955,4.731l-3.319,6.474c-3.763-1.769-7.11-3.154-10.042-4.149c-2.934-0.996-6.557-1.494-10.872-1.494
		c-5.535,0-10.07,1.356-13.61,4.066c-3.543,2.713-5.313,6.06-5.313,10.042c0,3.432,1.771,6.392,5.313,8.881
		c3.54,2.49,8.573,4.953,15.104,7.388c7.636,2.879,13.804,6.28,18.509,10.208c4.701,3.929,7.055,8.66,7.055,14.191
		c0,7.193-2.571,12.754-7.718,16.683c-5.146,3.927-12.757,5.894-22.823,5.894c-3.766,0-8.079-0.58-12.947-1.742
		C1061.561,228.652,1057.688,227.133,1054.813,225.249z"/>
</g>
<rect x="-70.5" y="518.5" fill="#06B6DE" width="1624" height="512"/>
<g>
	<g>
		<path fill="#FFFFFF" d="M326.933,832.615c-0.996,0.004-1.667,0.452-2.416,0.972c-33.801,23.489-70.103,28.457-108.262,12.884
			c-46.152-18.833-75.023-67.849-66.634-119.381c6.105-37.509,26.663-65.034,60.371-82.415c21.646-11.164,44.793-13.799,68.71-9.867
			c16.945,2.786,32.595,8.827,46.373,19.274c0.8,0.604,1.605,0.689,2.511,0.689c12.569-0.005,25.14-0.003,37.708-0.019
			c0.513,0,1.094,0.208,1.554-0.251c-38.438-44.271-97.113-62.253-154.289-42.278c-57.409,20.056-98.233,77.29-92.827,143.746
			c2.225,27.338,12.701,53.271,29.52,74.607l-21.7,52.434c2.43-0.354,3.947-0.549,5.453-0.806
			c22.299-3.776,44.587-7.617,66.896-11.335c9.018,4.258,18.62,7.655,28.753,10.011c54.977,12.786,115.141-15.477,138.045-48.349
			c-0.416-0.055-0.619-0.104-0.821-0.104C352.895,832.499,339.913,832.58,326.933,832.615z"/>
		<g>
			<path fill="#FFFFFF" d="M212.672,767.949c-9.251,8.838-18.483,18.079-27.438,26.975L183.959,815h28.684l2.283-48.797
				C214.148,766.742,213.382,767.271,212.672,767.949z"/>
			<path fill="#FFFFFF" d="M277.834,748.152c0.467-0.313,0.936-0.64,1.404-0.993c4.46-3.388,8.973-6.756,13.492-10.106
				c3.04-10.329,5.956-23.052,8.404-31.052h0.61c0,7,0.104,16.294,0.266,24.206c5.274-3.869,10.54-7.71,15.726-11.491
				c3.945-2.873,7.885-6.117,11.824-8.997L327.784,677h-40.481l-14.648,45.932c-2.271,7.746-4.597,16.411-6.839,24.96
				C269.936,747.902,273.965,748.109,277.834,748.152z"/>
			<path fill="#FFFFFF" d="M206.673,752.371c2.145-2.669,6.455-3.615,9.139-3.793c0.623-13.837,1.113-28.578,1.713-42.578h0.407
				c2.534,14,5.932,28.854,9.423,42.367c8.333-0.13,17.269-0.232,26.366-0.278c-1.995-8.315-4.143-16.971-6.292-24.953L234.003,677
				h-41.296l-6.414,100.883C192.995,769.248,199.81,760.899,206.673,752.371z"/>
			<path fill="#FFFFFF" d="M282.956,767.631l-0.669-1.627c-2.938-0.308-10.968-1.019-20.76-1.42
				c-0.646,2.602-1.281,3.416-1.893,7.416h-0.609c-0.491-4-1.023-4.945-1.573-7.576c-8.356-0.315-17.584-1.257-25.877-1.377
				L244.988,811h24.208l14.102-44.424L282.956,767.631z"/>
			<path fill="#FFFFFF" d="M302.654,753.525c0.103,3.031,0.207,6.063,0.313,8.909L305.002,815h30.31l-4.488-81.824
				C320.972,740.386,311.616,747.08,302.654,753.525z"/>
		</g>
	</g>
	<path fill="#263D8C" d="M366.445,700.95c-0.082-1.203-1.788-3.291-2.729-3.282c-9.019,0.093-18.029,0.551-27.042,0.902
		c-0.058,0.579-0.11,1.158-0.166,1.736c1.734,1.375,3.468,2.75,5.535,4.389c-2.062,1.601-3.826,3.043-5.66,4.392
		c-18.228,13.377-36.617,26.542-54.619,40.216c-0.552,0.415-1.1,0.797-1.648,1.161c0.033,0.104,0.075,0.205,0.109,0.311
		c-0.367,0.01-0.714,0.039-1.091,0.034c-20.513-0.229-41.03,0.032-61.54,0.392c-2.719,0.047-6.421,0.979-7.955,2.886
		c-12.836,15.956-25.274,32.236-37.835,48.417c0.625,0.467,1.251,0.937,1.875,1.397c12.721-12.573,25.329-25.269,38.26-37.625
		c2.441-2.33,6.16-4.672,9.31-4.696c21.011-0.164,63.593,1.692,63.876,2.415c1.003-0.716,2.002-1.438,3.007-2.155
		c0.242,0,0.485,0.004,0.729,0.004c-0.079-0.12-0.152-0.242-0.23-0.36c19.962-14.258,39.761-28.75,59.468-43.358
		c5.704-4.23,11.123-7.568,18.482-1.98C366.579,710.424,366.765,705.67,366.445,700.95z"/>
</g>
<g>
	<path fill="#FFFFFF" d="M494.486,788.277l3.32,6.475c-3.211,1.992-7.278,3.626-12.2,4.896c-4.925,1.271-9.213,1.907-12.864,1.907
		c-11.62,0-20.666-3.927-27.14-11.784c-6.474-7.854-9.71-18.201-9.71-31.04c0-8.077,1.52-15.299,4.564-21.662
		c3.042-6.361,7.441-11.343,13.196-14.938c5.753-3.595,12.504-5.396,20.251-5.396c3.429,0,7.636,0.664,12.615,1.991
		c4.979,1.328,9.018,2.988,12.117,4.98l-3.32,6.308c-3.983-1.88-7.415-3.292-10.291-4.232c-2.879-0.938-6.697-1.41-11.454-1.41
		c-5.755,0-10.763,1.521-15.021,4.564c-4.263,3.045-7.527,7.166-9.793,12.365c-2.271,5.203-3.46,10.956-3.569,17.264
		c0,10.292,2.407,18.757,7.221,25.396c4.813,6.641,11.592,9.96,20.334,9.96c3.54,0,6.723-0.274,9.544-0.83
		c2.822-0.553,5.421-1.438,7.802-2.655C492.465,789.219,493.93,788.5,494.486,788.277z"/>
	<path fill="#FFFFFF" d="M565.363,723.957c3.983,4.813,5.977,11.314,5.977,19.503v55.938h-9.13v-54.941
		c0-13.279-5.146-19.919-15.438-19.919c-4.428,0-9.241,1.493-14.441,4.48c-5.202,2.988-9.959,6.917-14.273,11.785v58.595h-9.129
		V683.87l9.129-1.66v48.967c3.429-4.093,7.885-7.523,13.361-10.291c5.479-2.765,10.648-4.149,15.521-4.149
		C555.237,716.736,561.379,719.143,565.363,723.957z"/>
	<path fill="#FFFFFF" d="M590.924,730.015l-3.153-6.308c2.876-1.992,6.972-3.652,12.283-4.98c5.311-1.327,9.793-1.991,13.444-1.991
		c9.071,0,16.155,2.382,21.245,7.139c5.091,4.759,7.638,11.121,7.638,19.089v56.437h-7.306l-1.325-8.632
		c-2.769,3.102-6.392,5.673-10.873,7.72c-4.48,2.047-9.047,3.069-13.694,3.069c-8.742,0-15.438-2.295-20.084-6.889
		c-4.648-4.59-6.973-10.54-6.973-17.844c0-7.523,2.654-13.416,7.968-17.68c5.313-4.259,12.227-6.391,20.748-6.391h22.41v-9.13
		c0-5.864-1.636-10.54-4.896-14.026c-3.266-3.485-8.051-5.229-14.356-5.229c-4.98,0-9.048,0.443-12.201,1.327
		C598.643,726.586,595.017,728.023,590.924,730.015z M591.422,776.824c0,4.76,1.576,8.797,4.729,12.116
		c3.154,3.319,7.553,4.979,13.196,4.979c4.868,0,9.35-1.217,13.443-3.652c4.095-2.434,7.58-5.644,10.459-9.627v-21.413h-22.24
		c-6.31,0-11.15,1.659-14.525,4.979C593.109,767.529,591.422,771.736,591.422,776.824z"/>
	<path fill="#FFFFFF" d="M683.545,721.051l3.485,6.807h-18.094v51.125c0,4.314,0.914,7.857,2.74,10.623
		c1.823,2.769,4.674,4.149,8.547,4.149c2.213,0,4.481-0.498,6.807-1.494l1.992,7.304c-0.332,0-1.826,0.388-4.481,1.162
		c-2.216,0.553-4.373,0.829-6.474,0.829c-5.645,0-10.1-1.854-13.363-5.561c-3.266-3.706-4.895-8.989-4.895-15.854v-52.288h-11.951
		v-6.806h11.951v-21.413l9.129-3.651v25.063h14.605L683.545,721.051L683.545,721.051z"/>
	<path fill="#FFFFFF" d="M830.777,723.874c3.652,4.759,5.478,11.287,5.478,19.586v55.938h-9.13v-54.941
		c0-6.309-0.995-11.204-2.985-14.69c-1.992-3.485-5.59-5.229-10.789-5.229c-3.767,0-8.025,1.354-12.781,4.065
		c-4.76,2.714-9.242,6.282-13.445,10.707c0.109,0.888,0.166,2.271,0.166,4.149v55.938h-9.131v-54.941
		c0-6.309-0.969-11.204-2.903-14.69c-1.938-3.485-5.507-5.229-10.705-5.229c-3.984,0-8.494,1.493-13.527,4.48
		c-5.037,2.988-9.711,6.917-14.027,11.785v58.595h-9.129v-80.506h7.304l1.659,12.449c3.431-3.984,7.855-7.413,13.279-10.292
		c5.42-2.876,10.291-4.314,14.604-4.314c11.064,0,18.037,4.87,20.916,14.606c3.431-3.984,7.855-7.413,13.279-10.292
		c5.42-2.876,10.291-4.314,14.607-4.314C821.368,716.736,827.125,719.117,830.777,723.874z"/>
	<path fill="#FFFFFF" d="M912.775,759.395h-58.76c0.106,10.404,2.543,18.786,7.303,25.148c4.756,6.365,12.006,9.545,21.744,9.545
		c4.869,0,9.184-0.553,12.947-1.66c3.762-1.104,7.637-2.655,11.619-4.647l3.319,6.808c-3.651,2.104-7.885,3.791-12.698,5.063
		c-4.813,1.271-9.546,1.907-14.191,1.907c-13.17,0-23.021-3.844-29.547-11.535c-6.529-7.689-9.793-18.119-9.793-31.289
		c0-12.504,3.069-22.629,9.213-30.376c6.143-7.745,14.965-11.619,26.475-11.619c10.293,0,18.261,3.93,23.904,11.785
		C909.952,736.38,912.775,746.671,912.775,759.395z M854.348,752.922h48.967c-0.775-8.632-3.045-15.546-6.807-20.749
		c-3.765-5.2-9.406-7.802-16.933-7.802s-13.42,2.655-17.678,7.968C857.639,737.65,855.118,744.514,854.348,752.922z"/>
	<path fill="#FFFFFF" d="M949.625,721.051l3.483,6.807h-18.092v51.125c0,4.314,0.912,7.857,2.738,10.623
		c1.825,2.769,4.674,4.149,8.549,4.149c2.213,0,4.479-0.498,6.805-1.494l1.992,7.304c-0.332,0-1.826,0.388-4.48,1.162
		c-2.215,0.553-4.372,0.829-6.475,0.829c-5.645,0-10.1-1.854-13.361-5.561c-3.266-3.706-4.896-8.989-4.896-15.854v-52.288h-11.951
		v-6.806h11.951v-21.413l9.129-3.651v25.063h14.607V721.051L949.625,721.051z"/>
	<path fill="#FFFFFF" d="M971.866,799.398h-9.131v-80.506h5.646l2.987,12.781c3.761-3.097,8.158-6.001,13.195-8.714
		c5.035-2.71,9.435-4.067,13.195-4.067l2.821,7.139c-4.76,0-9.877,1.552-15.354,4.646c-5.479,3.101-9.936,6.531-13.363,10.292
		v58.429H971.866L971.866,799.398z"/>
	<path fill="#FFFFFF" d="M1009.713,700.469c-2.104,0-3.791-0.664-5.063-1.992c-1.272-1.327-1.908-2.987-1.908-4.979
		c0-1.992,0.636-3.652,1.908-4.979c1.271-1.327,2.961-1.991,5.063-1.991c1.991,0,3.68,0.664,5.063,1.991
		c1.381,1.328,2.074,2.988,2.074,4.979c0,1.99-0.693,3.651-2.074,4.979C1013.391,699.805,1011.704,700.469,1009.713,700.469z
		 M1005.23,799.398v-80.506h9.131v80.506H1005.23z"/>
	<path fill="#FFFFFF" d="M1082.25,788.277l3.317,6.475c-3.211,1.992-7.276,3.626-12.199,4.896
		c-4.926,1.271-9.213,1.907-12.864,1.907c-11.617,0-20.666-3.927-27.14-11.784c-6.473-7.854-9.711-18.201-9.711-31.04
		c0-8.077,1.521-15.299,4.564-21.662c3.043-6.361,7.44-11.343,13.194-14.938c5.754-3.595,12.504-5.396,20.252-5.396
		c3.431,0,7.638,0.664,12.615,1.991c4.979,1.328,9.018,2.988,12.117,4.98l-3.32,6.308c-3.981-1.88-7.414-3.292-10.291-4.232
		c-2.879-0.938-6.697-1.41-11.453-1.41c-5.756,0-10.764,1.521-15.021,4.564c-4.262,3.045-7.527,7.166-9.793,12.365
		c-2.271,5.203-3.461,10.956-3.568,17.264c0,10.292,2.406,18.757,7.22,25.396c4.813,6.641,11.592,9.96,20.334,9.96
		c3.541,0,6.725-0.274,9.547-0.83c2.819-0.553,5.42-1.438,7.801-2.655C1080.229,789.219,1081.695,788.5,1082.25,788.277z"/>
	<path fill="#FFFFFF" d="M1090.715,795.249l2.985-7.139c8.189,3.983,15.492,5.978,21.912,5.978c6.64,0,11.896-1.271,15.771-3.817
		c3.871-2.546,5.811-6.084,5.811-10.623c0-6.527-7.195-12.449-21.58-17.763c-16.379-5.862-24.563-13.5-24.563-22.905
		c0-6.749,2.516-12.144,7.553-16.185c5.033-4.038,12.033-6.06,20.996-6.06c3.651,0,7.803,0.639,12.449,1.909
		c4.647,1.272,8.301,2.852,10.954,4.73l-3.317,6.474c-3.765-1.769-7.111-3.153-10.043-4.148c-2.935-0.996-6.558-1.494-10.871-1.494
		c-5.535,0-10.072,1.356-13.611,4.066c-3.543,2.713-5.313,6.06-5.313,10.042c0,3.432,1.77,6.392,5.313,8.881
		c3.539,2.489,8.574,4.953,15.104,7.388c7.637,2.879,13.805,6.28,18.508,10.208c4.703,3.929,7.055,8.66,7.055,14.191
		c0,7.193-2.569,12.755-7.717,16.683c-5.146,3.927-12.756,5.893-22.824,5.893c-3.764,0-8.077-0.58-12.946-1.741
		C1097.463,798.652,1093.59,797.133,1090.715,795.249z"/>
</g>
</svg>
