,,Woolloomooloo,"New South Wales",Australia,07-01-2019,
,,Sydney,"New South Wales",Australia,07-01-2019,
,,Tuggeranong,"Australian Capital Territory",Australia,07-01-2019,
,,Jannali,"New South Wales",Australia,07-01-2019,
Lynda,lyndakelly61@gmail.com,Blacktown,"New South Wales",Australia,07-01-2019,Pending
,,Kellyville,"New South Wales",Australia,07-01-2019,
,,Capalaba,Queensland,Australia,07-01-2019,
Alex,alex@jasonreadinglandscapes.com.au,Balmain,"New South Wales",Australia,07-01-2019,Pending
,,Gympie,Queensland,Australia,07-01-2019,
John,john@makeitpop.net.au,Wollongong,"New South Wales",Australia,07-01-2019,Pending
,,Sydney,"New South Wales",Australia,07-01-2019,
Ray,cathray@bigpond.net.au,Randwick,"New South Wales",Australia,07-01-2019,Pending
,,,"New South Wales",Australia,07-01-2019,
,,Balgowlah,"New South Wales",Australia,07-01-2019,
,,Fyshwick,"Australian Capital Territory",Australia,07-01-2019,
Wally,chu.wally@gmail.com,Eastwood,"New South Wales",Australia,07-01-2019,Pending
Sarah,Sarah.jones2@pfizer.com,Eastwood,"New South Wales",Australia,07-01-2019,Pending
,,"Dulwich Hill","New South Wales",Australia,07-01-2019,
,,Surat,Gujarat,India,07-01-2019,
,,Ryde,"New South Wales",Australia,07-01-2019,
,,Ryde,"New South Wales",Australia,07-01-2019,
,,,,"United States",13-10-2018,
,,,,"United States",12-10-2018,
,,,,"United States",12-10-2018,
,,Bulimba,Queensland,Australia,07-10-2018,
,,Brisbane,Queensland,Australia,07-10-2018,
,,Ashfield,"New South Wales",Australia,07-10-2018,
,,Chippendale,"New South Wales",Australia,07-10-2018,
Michelle,Michellebowden12@yahoo.co.uk,Cammeray,"New South Wales",Australia,07-10-2018,Pending
,,Sydney,"New South Wales",Australia,07-10-2018,
,,"Windsor Downs","New South Wales",Australia,07-10-2018,
Terri,tezzaann@hotmail.com,Jimboomba,Queensland,Australia,07-10-2018,Pending
,,Leichhardt,"New South Wales",Australia,07-10-2018,
Steve,0420867289@noemail.com,Leichhardt,"New South Wales",Australia,07-10-2018,Pending
,,Ultimo,"New South Wales",Australia,07-10-2018,
,,Balmain,"New South Wales",Australia,07-10-2018,
,,"Palm Beach",Queensland,Australia,07-10-2018,
,,"Palm Beach",Queensland,Australia,07-10-2018,
Stew,lonecanis1@gmail.com,Sydney,"New South Wales",Australia,06-10-2018,Pending
,,Paddington,"New South Wales",Australia,06-10-2018,
,,Rhodes,"New South Wales",Australia,06-10-2018,
,,"Albion Park","New South Wales",Australia,06-10-2018,
,,"Saint Ives","New South Wales",Australia,06-10-2018,
Toni,0419997029@noemail.com,Chippendale,"New South Wales",Australia,06-10-2018,Pending
,,Umina,"New South Wales",Australia,06-10-2018,
,,"Lake Munmorah","New South Wales",Australia,06-10-2018,
Cheryl,rekunow@bigpond.com,"Seven Hills","New South Wales",Australia,06-10-2018,Pending
Anna,Apycka@tpg.com.au,Ashfield,"New South Wales",Australia,06-10-2018,Pending
,,Auburn,"New South Wales",Australia,06-10-2018,
,,Pymble,"New South Wales",Australia,06-10-2018,
,,"Castle Hill","New South Wales",Australia,06-10-2018,
Anna,0401310318@noemail.com,Coogee,"New South Wales",Australia,06-10-2018,Pending
Kate,kateken@gmail.com,Redfern,"New South Wales",Australia,06-10-2018,Pending
,,Blacktown,"New South Wales",Australia,06-10-2018,
,,Brisbane,Queensland,Australia,06-10-2018,
,,Leichhardt,"New South Wales",Australia,06-10-2018,
,,Kogarah,"New South Wales",Australia,06-10-2018,
Catherine,kate2kaddu@yahoo.co.uk,Canberra,"Australian Capital Territory",Australia,06-10-2018,Pending
,,Camperdown,"New South Wales",Australia,06-10-2018,
sha,shathush@yahoo.com,Sydney,"New South Wales",Australia,06-10-2018,Pending
Grant,viney_hooky@hotmail.com,Northbridge,"New South Wales",Australia,06-10-2018,Pending
,,Brisbane,Queensland,Australia,06-10-2018,
,,Wahroonga,"New South Wales",Australia,06-10-2018,
,,"Summer Hill","New South Wales",Australia,06-10-2018,
,,Abbotsford,"New South Wales",Australia,06-10-2018,
,,Eastwood,"New South Wales",Australia,06-10-2018,
,,Petersham,"New South Wales",Australia,06-10-2018,
,,Sydney,"New South Wales",Australia,06-10-2018,
,,Pyrmont,"New South Wales",Australia,06-10-2018,
Bronwyn,bronwebb@hotmail.com,Redbank,Queensland,Australia,06-10-2018,Pending
,,"Beverly Hills","New South Wales",Australia,06-10-2018,
Coralie,coralietm@optusnet.com.au,Narrabeen,"New South Wales",Australia,06-10-2018,Pending
,,Maroubra,"New South Wales",Australia,06-10-2018,
Rachel,0414504545@noemail.com,Greenacre,"New South Wales",Australia,06-10-2018,Pending
Kelvin,kel.watt@yahoo.com.au,"Rose Bay","New South Wales",Australia,06-10-2018,Pending
,,Newtown,"New South Wales",Australia,06-10-2018,
,,Redfern,"New South Wales",Australia,06-10-2018,
,,Brisbane,Queensland,Australia,06-10-2018,
,,Sunbury,Victoria,Australia,06-10-2018,
,,Abbotsford,"New South Wales",Australia,05-10-2018,
,,Athens,Attiki,Greece,05-10-2018,
Susan,susanroserobinson@hotmail.com,,"New South Wales",Australia,05-10-2018,Pending
Parmi,Parmeshwor.giri@hotmail.com,Belfield,"New South Wales",Australia,05-10-2018,Pending
,,Sydney,"New South Wales",Australia,05-10-2018,
,,Kambah,"Australian Capital Territory",Australia,05-10-2018,
,,Parramatta,"New South Wales",Australia,05-10-2018,
,,Rozelle,"New South Wales",Australia,05-10-2018,
,,"Castle Hill","New South Wales",Australia,05-10-2018,
Shaylea,shaylea@tripodina.com,Pyrmont,"New South Wales",Australia,05-10-2018,Pending
,,"Raymond Terrace","New South Wales",Australia,05-10-2018,
,,Homebush,"New South Wales",Australia,05-10-2018,
,,Kingswood,"New South Wales",Australia,05-10-2018,
,,Canberra,"Australian Capital Territory",Australia,05-10-2018,
,,Sydney,"New South Wales",Australia,05-10-2018,
,,"Saint Marys","New South Wales",Australia,05-10-2018,
,,"Darling Point","New South Wales",Australia,05-10-2018,
"Dawn ",Dawn7163@hotmail.com,Dural,"New South Wales",Australia,05-10-2018,Pending
,,Blacktown,"New South Wales",Australia,05-10-2018,
,,"Gymea Bay","New South Wales",Australia,05-10-2018,
,,"Castle Hill","New South Wales",Australia,05-10-2018,
,,"Regents Park","New South Wales",Australia,05-10-2018,
,,Ryde,"New South Wales",Australia,05-10-2018,
,,Coburg,Victoria,Australia,05-10-2018,
,,Wahroonga,"New South Wales",Australia,05-10-2018,
,,Sydney,"New South Wales",Australia,05-10-2018,
,,Sydney,"New South Wales",Australia,05-10-2018,
,,Sydney,"New South Wales",Australia,05-10-2018,
,,Auburn,"New South Wales",Australia,05-10-2018,
Glen,glen@agclandscapes.com.au,Pyrmont,"New South Wales",Australia,05-10-2018,Pending
,,Waterford,Queensland,Australia,05-10-2018,
,,Cammeray,"New South Wales",Australia,05-10-2018,
Michael,gellybelly5@hotmail.com,Glebe,"New South Wales",Australia,05-10-2018,Pending
,,Illawong,"New South Wales",Australia,05-10-2018,
,,Roseville,"New South Wales",Australia,05-10-2018,
,,Lidcombe,"New South Wales",Australia,05-10-2018,
,,Auburn,"New South Wales",Australia,05-10-2018,
,,Greenwich,"New South Wales",Australia,05-10-2018,
Kay,kaygwyther@gmail.com,"Eight Mile Plains",Queensland,Australia,05-10-2018,Pending
Michael,m.cave007@gmail.com,Northmead,"New South Wales",Australia,05-10-2018,Pending
,,Drogheda,Louth,Ireland,05-10-2018,
Ajish,ajishlukose@gmail.com,Kambah,"Australian Capital Territory",Australia,05-10-2018,Pending
Robert,rcrutch47@bigpond.com,Melbourne,Victoria,Australia,05-10-2018,Pending
,,Ryde,"New South Wales",Australia,05-10-2018,
Graeme,graemej50@outlook.com,Sydney,"New South Wales",Australia,05-10-2018,Pending
,,Sydney,"New South Wales",Australia,05-10-2018,
,,Marrickville,"New South Wales",Australia,05-10-2018,
,,"Gymea Bay","New South Wales",Australia,05-10-2018,
,,Cardiff,"New South Wales",Australia,05-10-2018,
Alison,Ashapiera@hotmail.com,Marrickville,"New South Wales",Australia,05-10-2018,Pending
Lyn,lynmpritchard@bigpond.com,Mosman,"New South Wales",Australia,05-10-2018,Pending
Jan,ajjgregory@bigpond.com,Merewether,"New South Wales",Australia,05-10-2018,Pending
,,Brisbane,Queensland,Australia,04-10-2018,
,,Lidcombe,"New South Wales",Australia,04-10-2018,
,,Pyrmont,"New South Wales",Australia,04-10-2018,
,,Concord,"New South Wales",Australia,04-10-2018,
,,Kellyville,"New South Wales",Australia,04-10-2018,
,,Pyrmont,"New South Wales",Australia,04-10-2018,
,,Caringbah,"New South Wales",Australia,04-10-2018,
"Greg ",jones.greg@me.com,Torquay,Victoria,Australia,04-10-2018,Pending
,,"Glenmore Park","New South Wales",Australia,04-10-2018,
Ben,qualitygardening@outlook.com,Coogee,"New South Wales",Australia,04-10-2018,Pending
Mark,monarq@bigpond.com,Newcastle,"New South Wales",Australia,04-10-2018,Pending
,,Seaforth,"New South Wales",Australia,04-10-2018,
,,Sydney,"New South Wales",Australia,04-10-2018,
,,Richmond,Victoria,Australia,04-10-2018,
Wendy,wendy.flint@canberra.edu.au,Canberra,"Australian Capital Territory",Australia,04-10-2018,Pending
,,Glebe,"New South Wales",Australia,04-10-2018,
,,Glebe,"New South Wales",Australia,04-10-2018,
,,Perth,"Western Australia",Australia,04-10-2018,
,,Auburn,"New South Wales",Australia,04-10-2018,
,,Brisbane,Queensland,Australia,04-10-2018,
Cathy,Gccurtis101@hotmail.com,Concord,"New South Wales",Australia,04-10-2018,Pending
,,Cremorne,Victoria,Australia,04-10-2018,
,,Canberra,"Australian Capital Territory",Australia,04-10-2018,
Arnold,avilkins@bigpond.com,Queanbeyan,"New South Wales",Australia,04-10-2018,Pending
,,Tauranga,Gisborne,"New Zealand",04-10-2018,
Celina,celinaanthony@bigpond.com,Bangor,"New South Wales",Australia,04-10-2018,Pending
,,Concord,"New South Wales",Australia,04-10-2018,
Hus,hsk.tiling@gmail.com,Merrylands,"New South Wales",Australia,04-10-2018,Pending
,,Belmore,"New South Wales",Australia,04-10-2018,
,,Redfern,"New South Wales",Australia,04-10-2018,
,,Dapto,"New South Wales",Australia,04-10-2018,
,,"Darling Point","New South Wales",Australia,04-10-2018,
,,Woollahra,"New South Wales",Australia,04-10-2018,
Laurie,contact@terrainprojects.com.au,Canberra,"Australian Capital Territory",Australia,04-10-2018,Pending
,,Sydney,"New South Wales",Australia,04-10-2018,
Michelle,mt.1971@hotmail.com,Leichhardt,"New South Wales",Australia,04-10-2018,Pending
,,Balmain,"New South Wales",Australia,04-10-2018,
,,Concord,"New South Wales",Australia,04-10-2018,
,,Marrickville,"New South Wales",Australia,04-10-2018,
,,Caringbah,"New South Wales",Australia,03-10-2018,
Declan,declan@hiller.com.au,"Sippy Downs",Queensland,Australia,03-10-2018,Pending
"Ros ",harrisra14@gmail.com,"South Yarra",Victoria,Australia,03-10-2018,Pending
,,Petersham,"New South Wales",Australia,03-10-2018,
,,Sydney,"New South Wales",Australia,03-10-2018,
,,Lidcombe,"New South Wales",Australia,03-10-2018,
Carolyn,carolyneves5@hotmail.com,Kellyville,"New South Wales",Australia,03-10-2018,Pending
,,Brisbane,Queensland,Australia,03-10-2018,
,,Ryde,"New South Wales",Australia,03-10-2018,
,,"Surfers Paradise",Queensland,Australia,03-10-2018,
,,Petersham,"New South Wales",Australia,03-10-2018,
Lisa,lisajkevp@hotmail.com,Allawah,"New South Wales",Australia,03-10-2018,Pending
,,Merewether,"New South Wales",Australia,03-10-2018,
,,Auburn,"New South Wales",Australia,03-10-2018,
,,Beecroft,"New South Wales",Australia,03-10-2018,
,,"Castle Hill","New South Wales",Australia,03-10-2018,
luke,lukem@finabode.com,Ryde,"New South Wales",Australia,03-10-2018,Pending
Sha,shathush@yahoo.com,"Seven Hills","New South Wales",Australia,03-10-2018,Pending
"Lena ",lenamagi@banna.com.au,Eastwood,"New South Wales",Australia,03-10-2018,Pending
,,"Quakers Hill","New South Wales",Australia,03-10-2018,
,,Sydney,"New South Wales",Australia,03-10-2018,
,,Canberra,"Australian Capital Territory",Australia,03-10-2018,
,,Kingsgrove,"New South Wales",Australia,03-10-2018,
,,Queanbeyan,"New South Wales",Australia,03-10-2018,
,,Burpengary,Queensland,Australia,03-10-2018,
,,Burpengary,Queensland,Australia,03-10-2018,
,,Burpengary,Queensland,Australia,03-10-2018,
Paul,paul@enviromateplumbing.com.au,Redhead,"New South Wales",Australia,03-10-2018,Pending
Sharon,0410992558@noemail.com,"Wagga Wagga","New South Wales",Australia,03-10-2018,Pending
,,Sydney,"New South Wales",Australia,03-10-2018,
,,Sydney,"New South Wales",Australia,03-10-2018,
,,Sydney,"New South Wales",Australia,03-10-2018,
,,Landsborough,Queensland,Australia,03-10-2018,
,,"North Sydney","New South Wales",Australia,03-10-2018,
Greg,greg_willis@hotmail.com,Sydney,"New South Wales",Australia,03-10-2018,Pending
Anne,annie.kater@icloud.com,Leichhardt,"New South Wales",Australia,03-10-2018,Pending
Monica,monica.rafoo@hotmail.com,Chippendale,"New South Wales",Australia,03-10-2018,Pending
,,"Balgowlah Heights","New South Wales",Australia,03-10-2018,
Alan,blake.351@bigpond.com,Lithgow,"New South Wales",Australia,03-10-2018,Pending
,,Cronulla,"New South Wales",Australia,03-10-2018,
,,Mosman,"New South Wales",Australia,03-10-2018,
,,Haringey,Haringey,"United Kingdom",03-10-2018,
Steve,steven.simpson@sydney.edu.au,Northmead,"New South Wales",Australia,03-10-2018,Pending
,,Sydney,"New South Wales",Australia,03-10-2018,
,,Sydney,"New South Wales",Australia,03-10-2018,
,,Cronulla,"New South Wales",Australia,03-10-2018,
,,Chatswood,"New South Wales",Australia,03-10-2018,
,,Houston,Texas,"United States",03-10-2018,
,,Oraison,"Provence-Alpes-Cote d'Azur",France,03-10-2018,
,,Parramatta,"New South Wales",Australia,03-10-2018,
,,Chippendale,"New South Wales",Australia,03-10-2018,
stacy,stacy@serenity.org.au,Caloundra,Queensland,Australia,03-10-2018,Pending
,,Liverpool,"New South Wales",Australia,03-10-2018,
,,Erskineville,"New South Wales",Australia,03-10-2018,
,,Wanniassa,"Australian Capital Territory",Australia,03-10-2018,
,,Morayfield,Queensland,Australia,03-10-2018,
,,Sydney,"New South Wales",Australia,03-10-2018,
,,,,India,03-10-2018,
Sarah,sarahbarnetson@icloud.com,Richardson,"Australian Capital Territory",Australia,03-10-2018,Pending
Jessica,isj.broughton742@gmail.com,Maclean,"New South Wales",Australia,03-10-2018,Pending
Ivo,iafavotto@gmail.com,Rozelle,"New South Wales",Australia,03-10-2018,Pending
,,Kingston,"Australian Capital Territory",Australia,03-10-2018,
,,"Saint Marys","New South Wales",Australia,03-10-2018,
,,Sydney,"New South Wales",Australia,03-10-2018,
,,Collaroy,"New South Wales",Australia,03-10-2018,
Robyn,0419623031@noemal.com,Balmain,"New South Wales",Australia,03-10-2018,Pending
,,"Byron Bay","New South Wales",Australia,02-10-2018,
Fiona,elfionaw@gapps.cityu.edu.hk,"Central District",,"Hong Kong",02-10-2018,Pending
,,Newtown,"New South Wales",Australia,02-10-2018,
,,Ashfield,"New South Wales",Australia,02-10-2018,
,,Earlwood,"New South Wales",Australia,02-10-2018,
,,Wahroonga,"New South Wales",Australia,02-10-2018,
,,Sydney,"New South Wales",Australia,02-10-2018,
Rimgaile,rimif@evokeprojects.com.au,Sydney,"New South Wales",Australia,02-10-2018,Pending
Matthew,matthew.scarfone@bigpond.com,Eastwood,"New South Wales",Australia,02-10-2018,Pending
,,Ryde,"New South Wales",Australia,02-10-2018,
,,Petersham,"New South Wales",Australia,02-10-2018,
,,Abbotsford,"New South Wales",Australia,02-10-2018,
,,Merrylands,"New South Wales",Australia,02-10-2018,
,,"Wagga Wagga","New South Wales",Australia,02-10-2018,
,,"Fort Bragg",California,"United States",02-10-2018,
,,Sydney,"New South Wales",Australia,02-10-2018,
,,Sydney,"New South Wales",Australia,02-10-2018,
Elias,eliaskottatis@optusnet.com.au,Marrickville,"New South Wales",Australia,02-10-2018,Pending
,,Sydney,"New South Wales",Australia,02-10-2018,
,,Blacktown,"New South Wales",Australia,02-10-2018,
Vish,vishnu_menneni@hotmail.com,Sydney,"New South Wales",Australia,02-10-2018,Pending
Chom,chom@archstallation.com,Sydney,"New South Wales",Australia,02-10-2018,Pending
Ann,pamiller53@hotmail.com,Leichhardt,"New South Wales",Australia,02-10-2018,Pending
Carolyn,carolynbarlow1@bigpond.com,Linden,"New South Wales",Australia,02-10-2018,Pending
,,Pymble,"New South Wales",Australia,02-10-2018,
,,Sydney,"New South Wales",Australia,02-10-2018,
Mat,mathew.balding@gmail.com,Parkes,"New South Wales",Australia,02-10-2018,Pending
,,Riverstone,"New South Wales",Australia,02-10-2018,
"Rod ",rcoan@hotmail.com,Westmead,"New South Wales",Australia,02-10-2018,Pending
,,Sydney,"New South Wales",Australia,02-10-2018,
Bob,bbcollins@optusnet.com.au,Kogarah,"New South Wales",Australia,02-10-2018,Pending
Sofia,Sophia.tsanidis@gmail.com,Auburn,"New South Wales",Australia,02-10-2018,Pending
Jan,garyreidcarcarriers@gmail.com,"Baulkham Hills","New South Wales",Australia,02-10-2018,Pending
SHA,SHASPREM@YAHOO.COM,"Seven Hills","New South Wales",Australia,02-10-2018,Pending
,,"Baulkham Hills","New South Wales",Australia,02-10-2018,
,,Kingston,"Australian Capital Territory",Australia,02-10-2018,
,,Darlinghurst,"New South Wales",Australia,02-10-2018,
,,"Palm Beach",Queensland,Australia,02-10-2018,
Adrian,adrian.pearse017@gmail.com,"Hunters Hill","New South Wales",Australia,02-10-2018,Pending
Doris,0409224989@noemail.com,Sydney,"New South Wales",Australia,02-10-2018,Pending
,,"Wheelers Hill",Victoria,Australia,02-10-2018,
,,"Montego Bay","Saint James",Jamaica,02-10-2018,
,,"Hunters Hill","New South Wales",Australia,02-10-2018,
Ken,0415494254@noemail.com,Glebe,"New South Wales",Australia,02-10-2018,Pending
,,"Seven Hills","New South Wales",Australia,02-10-2018,
,,"North Sydney","New South Wales",Australia,02-10-2018,
,,Sydney,"New South Wales",Australia,02-10-2018,
"Ingrid ",ingrid.hall9@gmail.com,Seaton,"South Australia",Australia,02-10-2018,Pending
,,Belmore,"New South Wales",Australia,02-10-2018,
,,Rhodes,"New South Wales",Australia,02-10-2018,
,,Sydney,"New South Wales",Australia,02-10-2018,
,,Campsie,"New South Wales",Australia,02-10-2018,
,,Pyrmont,"New South Wales",Australia,02-10-2018,
,,Kincumber,"New South Wales",Australia,02-10-2018,
Jenny,jennytoohey6@gmail.com,Fairfield,"New South Wales",Australia,02-10-2018,Pending
,,Pyrmont,"New South Wales",Australia,02-10-2018,
Shannon,noemail@noemail.com,Pyrmont,"New South Wales",Australia,02-10-2018,Pending
Kate,kate@tjrc.com.au,Brisbane,Queensland,Australia,02-10-2018,Pending
shan,shasprem@yahoo.com,"Seven Hills","New South Wales",Australia,02-10-2018,Pending
,,Sunnybank,Queensland,Australia,02-10-2018,
,,"Quakers Hill","New South Wales",Australia,02-10-2018,
,,Kingsford,"New South Wales",Australia,02-10-2018,
,,Denizli,Denizli,Turkey,02-10-2018,
Rachel,0412411173@noemail.com,Artarmon,"New South Wales",Australia,02-10-2018,Pending
,,Sydney,"New South Wales",Australia,01-10-2018,
,,Greenacre,"New South Wales",Australia,01-10-2018,
Kim,bowoodforest2@hotmail.com,Marrickville,"New South Wales",Australia,01-10-2018,Pending
,,Northbridge,"New South Wales",Australia,01-10-2018,
Kent,0437779924@noemail.com,Ryde,"New South Wales",Australia,01-10-2018,Pending
Sam,sundeep.minhas@programmed.com.au,Chippendale,"New South Wales",Australia,01-10-2018,Pending
,,"Glen Huntly",Victoria,Australia,01-10-2018,
,,Concord,"New South Wales",Australia,01-10-2018,
Kirsten,thighnam@bigpond.net.au,Mosman,"New South Wales",Australia,01-10-2018,Pending
Ivy,edc898@gmail.com,Bellevue,Washington,"United States",01-10-2018,Pending
,,Wakerley,Queensland,Australia,01-10-2018,
,,Ashfield,"New South Wales",Australia,01-10-2018,
NA,vibekemh7@gmail.com,Leichhardt,"New South Wales",Australia,01-10-2018,Pending
,,Randwick,"New South Wales",Australia,01-10-2018,
,,Prahran,Victoria,Australia,01-10-2018,
,,Balmain,"New South Wales",Australia,01-10-2018,
,,"Castle Hill","New South Wales",Australia,01-10-2018,
,,Brisbane,Queensland,Australia,01-10-2018,
,,"Castle Hill","New South Wales",Australia,01-10-2018,
,,Burwood,"New South Wales",Australia,01-10-2018,
,,Hamilton,"New South Wales",Australia,01-10-2018,
,,Waterford,Queensland,Australia,01-10-2018,
,,Newcastle,"New South Wales",Australia,01-10-2018,
,,Collaroy,"New South Wales",Australia,01-10-2018,
,,Drummoyne,"New South Wales",Australia,01-10-2018,
Lea,lea_mca@hotmail.com,Uralla,"New South Wales",Australia,01-10-2018,Pending
,,Greenslopes,Queensland,Australia,01-10-2018,
,,Brisbane,Queensland,Australia,01-10-2018,
,,Yandina,Queensland,Australia,01-10-2018,
Emma,0413656830@noemail.com,Pyrmont,"New South Wales",Australia,01-10-2018,Pending
,,,Queensland,Australia,01-10-2018,
Craig,craig.lyall@naroads.com,Sydney,"New South Wales",Australia,01-10-2018,Pending
,,Sydney,"New South Wales",Australia,01-10-2018,
,,Edinburgh,"South Australia",Australia,01-10-2018,
"Suriya ",0424067237@noemail.com,Sydney,"New South Wales",Australia,01-10-2018,Pending
,,Epping,"New South Wales",Australia,01-10-2018,
,,,"New South Wales",Australia,01-10-2018,
Mel,moomoodesign@bigpond.com,"Acacia Ridge",Queensland,Australia,01-10-2018,Pending
"Malay ",malay.alate@gmail.com,Brisbane,Queensland,Australia,01-10-2018,Pending
Shannon,shan_bee@hotmail.com,,,Australia,01-10-2018,Pending
,,Maroubra,"New South Wales",Australia,01-10-2018,
Colin,colinh326@gmail.com,"Saint Ives","New South Wales",Australia,01-10-2018,Pending
,,"Mannering Park","New South Wales",Australia,01-10-2018,
John,john.ridge@acsfoundation.com.au,Sydney,"New South Wales",Australia,01-10-2018,Pending
Andrew,andrewsprivate@hotmail.com,"North Sydney","New South Wales",Australia,01-10-2018,Pending
Zaman,aq_homes@hotmail.com,Balmain,"New South Wales",Australia,01-10-2018,Pending
,,Manly,"New South Wales",Australia,01-10-2018,
,,Canberra,"Australian Capital Territory",Australia,01-10-2018,
,,Canberra,"Australian Capital Territory",Australia,01-10-2018,
,,Budgewoi,"New South Wales",Australia,01-10-2018,
,,"City Beach","Western Australia",Australia,01-10-2018,
,,Vaucluse,"New South Wales",Australia,01-10-2018,
,,Nakara,"Northern Territory",Australia,01-10-2018,
,,Glebe,"New South Wales",Australia,01-10-2018,
,,,"New South Wales",Australia,01-10-2018,
Mahesh,j.maheshkumar@gmail.com,Brisbane,Queensland,Australia,01-10-2018,Pending
,,"Gold Coast",Queensland,Australia,01-10-2018,
,,Auburn,"New South Wales",Australia,01-10-2018,
,,Marrickville,"New South Wales",Australia,01-10-2018,
,,Cranebrook,"New South Wales",Australia,01-10-2018,
,,Canberra,"Australian Capital Territory",Australia,01-10-2018,
,,Leichhardt,"New South Wales",Australia,01-10-2018,
Esma,0404996060@noemail.com,Thornbury,Victoria,Australia,01-10-2018,Pending
,,Istanbul,Istanbul,Turkey,01-10-2018,
Lesley,sintrans2@hotmail.com,"Baulkham Hills","New South Wales",Australia,30-09-2018,Pending
,,"Baulkham Hills","New South Wales",Australia,30-09-2018,
,,Wahroonga,"New South Wales",Australia,30-09-2018,
,,Mangoplah,"New South Wales",Australia,30-09-2018,
peter,ptmckean50@gmail.com,Townsville,Queensland,Australia,30-09-2018,Pending
,,Bankstown,"New South Wales",Australia,30-09-2018,
Grahame,grahametangles@optusnet.com.au,Sydney,"New South Wales",Australia,30-09-2018,Pending
Reji,rejichandiau@Gmail.com,"Surry Hills","New South Wales",Australia,30-09-2018,Pending
Steph,steph.deroos@hotmail.com,Camperdown,"New South Wales",Australia,30-09-2018,Pending
Maria,m_antouy@optusnet.com,"Beverly Hills","New South Wales",Australia,30-09-2018,Pending
Elijah,elijah@ecdsn.com,Vaucluse,"New South Wales",Australia,30-09-2018,Pending
,,Warrawee,"New South Wales",Australia,30-09-2018,
,,Terranora,"New South Wales",Australia,30-09-2018,
Tamra,p.thanson@bigpond.com,Cottesloe,"Western Australia",Australia,30-09-2018,Pending
Gurminder,0421082393@noemail.com,Canberra,"Australian Capital Territory",Australia,30-09-2018,Pending
,,Sydney,"New South Wales",Australia,30-09-2018,
Abukar,abukar55@hotmail.com,Sydney,"New South Wales",Australia,30-09-2018,Pending
,,Ultimo,"New South Wales",Australia,30-09-2018,
,,Bankstown,"New South Wales",Australia,30-09-2018,
,,"Surry Hills","New South Wales",Australia,30-09-2018,
,,Sydney,"New South Wales",Australia,30-09-2018,
,,Keiraville,"New South Wales",Australia,30-09-2018,
,,Redfern,"New South Wales",Australia,30-09-2018,
,,Camden,"New South Wales",Australia,30-09-2018,
Cindy,cindy.braidotti@hotmail.com,Blacktown,"New South Wales",Australia,30-09-2018,Pending
Robyn,robyn_oneill@hotmail.com,Marrickville,"New South Wales",Australia,30-09-2018,Pending
Carol,cmt59crt@gmail.com,Homebush,"New South Wales",Australia,30-09-2018,Pending
,,"Castle Hill","New South Wales",Australia,30-09-2018,
,,"Saint Ives","New South Wales",Australia,30-09-2018,
,,"Woy Woy","New South Wales",Australia,30-09-2018,
,,Canberra,"Australian Capital Territory",Australia,30-09-2018,
Sarah,0402212004@noemail.com,Manly,Queensland,Australia,30-09-2018,Pending
,,Blackwall,"New South Wales",Australia,30-09-2018,
,,Ryde,"New South Wales",Australia,30-09-2018,
,,Sydney,"New South Wales",Australia,30-09-2018,
,,Randwick,"New South Wales",Australia,30-09-2018,
troy,trmoss75@gmail.com,Scone,"New South Wales",Australia,30-09-2018,Pending
,,Gerringong,"New South Wales",Australia,30-09-2018,
,,Blacktown,"New South Wales",Australia,30-09-2018,
Alison,alison.roberts@bigpond.com,"Lane Cove","New South Wales",Australia,30-09-2018,Pending
,,Beecroft,"New South Wales",Australia,30-09-2018,
,,Homebush,"New South Wales",Australia,30-09-2018,
,,Erskineville,"New South Wales",Australia,30-09-2018,
,,"Castle Hill","New South Wales",Australia,30-09-2018,
,,Cairo,"Al Qahirah",Egypt,30-09-2018,
,,Singleton,"New South Wales",Australia,29-09-2018,
Raman,Ethics.construction1@gmail.com,Sydney,"New South Wales",Australia,29-09-2018,Pending
Tanya,Tanya.strachan@gmail.com,Homebush,"New South Wales",Australia,29-09-2018,Pending
Marie,marieparasiliti@gmail.com,Auburn,"New South Wales",Australia,29-09-2018,Pending
Duni,duniram101@gmail.com,Sydney,"New South Wales",Australia,29-09-2018,Pending
,,Petersham,"New South Wales",Australia,29-09-2018,
,,Pymble,"New South Wales",Australia,29-09-2018,
,,Lidcombe,"New South Wales",Australia,29-09-2018,
tony,0422188436@noemail.com,Toowong,Queensland,Australia,29-09-2018,Pending
,,,,Thailand,29-09-2018,
,,Wanaka,Taranaki,"New Zealand",29-09-2018,
Fiona,jf.nash@bigpond.com,Armidale,"New South Wales",Australia,29-09-2018,Pending
,,Bronte,"New South Wales",Australia,29-09-2018,
,,Blacktown,"New South Wales",Australia,29-09-2018,
,,Coorparoo,Queensland,Australia,29-09-2018,
,,"Ocean Shores","New South Wales",Australia,29-09-2018,
Sheila,Sheila.lstokes@gmail.com,Strathfield,"New South Wales",Australia,29-09-2018,Pending
,,Balmain,"New South Wales",Australia,29-09-2018,
Vicki,0423662077@noemail.com,"West End",Queensland,Australia,29-09-2018,Pending
,,Sydney,"New South Wales",Australia,29-09-2018,
,,Randwick,"New South Wales",Australia,29-09-2018,
Damien,Damien_outerbridge@hotmail.com,Woolloomooloo,"New South Wales",Australia,29-09-2018,Pending
,,Sydney,"New South Wales",Australia,29-09-2018,
,,"Quakers Hill","New South Wales",Australia,29-09-2018,
,,"Pennant Hills","New South Wales",Australia,29-09-2018,
,,Surabaya,"Jawa Timur",Indonesia,29-09-2018,
Leah,leah@surgeit.com.au,Jimboomba,Queensland,Australia,29-09-2018,Pending
,,Sydney,"New South Wales",Australia,29-09-2018,
,,Clapham,Lambeth,"United Kingdom",29-09-2018,
Michelle,0409075388@noemail.com,Wahroonga,"New South Wales",Australia,29-09-2018,Pending
,,Camden,"New South Wales",Australia,29-09-2018,
,,Hobart,Tasmania,Australia,29-09-2018,
,,Blacktown,"New South Wales",Australia,29-09-2018,
,,Umina,"New South Wales",Australia,29-09-2018,
Elyssia,elyssia.nelson@gmail.com,Helensvale,Queensland,Australia,29-09-2018,Pending
,,"Double Bay","New South Wales",Australia,28-09-2018,
,,Sydney,"New South Wales",Australia,28-09-2018,
Diana,seechangeconstruct@bigpond.com,Balgowlah,"New South Wales",Australia,28-09-2018,Pending
,,Pyrmont,"New South Wales",Australia,28-09-2018,
Andrew,andrewcoleman105@gmail.com,Pyrmont,"New South Wales",Australia,28-09-2018,Pending
You,Gordonpelletier@gmail.com,Frederickton,"New South Wales",Australia,28-09-2018,Pending
,,,Zhejiang,China,28-09-2018,
,,Panania,"New South Wales",Australia,28-09-2018,
AC,0422449512@noemail.com,Kambah,"Australian Capital Territory",Australia,28-09-2018,Pending
,,Westmead,"New South Wales",Australia,28-09-2018,
,,Melbourne,Victoria,Australia,28-09-2018,
,,Charlestown,"New South Wales",Australia,28-09-2018,
,,Kanwal,"New South Wales",Australia,28-09-2018,
,,Adelong,"New South Wales",Australia,28-09-2018,
,,Pyrmont,"New South Wales",Australia,28-09-2018,
,,Perth,"Western Australia",Australia,28-09-2018,
,,"Dulwich Hill","New South Wales",Australia,28-09-2018,
,,Sydney,"New South Wales",Australia,28-09-2018,
,,"West Pymble","New South Wales",Australia,28-09-2018,
,,Rydalmere,"New South Wales",Australia,28-09-2018,
,,Parramatta,"New South Wales",Australia,28-09-2018,
,,Brisbane,Queensland,Australia,28-09-2018,
Naomi,nmenzies@gpcc.nsw.edu.au,Auburn,"New South Wales",Australia,28-09-2018,Pending
Tanya,Tanya.nesterova@gmail.com,"Lane Cove","New South Wales",Australia,28-09-2018,Pending
,,Balmain,"New South Wales",Australia,28-09-2018,
,,Sydney,"New South Wales",Australia,28-09-2018,
,,Ryde,"New South Wales",Australia,28-09-2018,
Carol,0408057818@noemail.com,Melbourne,Victoria,Australia,28-09-2018,Pending
Daniel,Twr_88@hotmail.com,Sydney,"New South Wales",Australia,28-09-2018,Pending
,,Rozelle,"New South Wales",Australia,28-09-2018,
,,Blacktown,"New South Wales",Australia,28-09-2018,
,,Pyrmont,"New South Wales",Australia,28-09-2018,
Christine,csm1th@live.com.au,Artarmon,"New South Wales",Australia,28-09-2018,Pending
,,Penrith,"New South Wales",Australia,28-09-2018,
Peter,0418473868@noemail.com,Belmore,"New South Wales",Australia,28-09-2018,Pending
,,Toronto,Ontario,Canada,28-09-2018,
,,Merrijig,Victoria,Australia,28-09-2018,
Grace,g.a.connley@gmail.com,Redfern,"New South Wales",Australia,28-09-2018,Pending
,,Tamworth,"New South Wales",Australia,28-09-2018,
,,Merrylands,"New South Wales",Australia,28-09-2018,
,,Sylvania,"New South Wales",Australia,28-09-2018,
,,Riverstone,"New South Wales",Australia,28-09-2018,
Girond,mbmaintain@Hotmail.com,"Upper Coomera",Queensland,Australia,28-09-2018,Pending
"Jerome ",jeromeoloapu@gmail.com.au,Bankstown,"New South Wales",Australia,27-09-2018,Pending
Brian,bh@huxcorp.com.au,Strathfield,"New South Wales",Australia,27-09-2018,Pending
,,Waratah,"New South Wales",Australia,27-09-2018,
,,Canberra,"Australian Capital Territory",Australia,27-09-2018,
,,Sydney,"New South Wales",Australia,27-09-2018,
,,Petersham,"New South Wales",Australia,27-09-2018,
,,Brisbane,Queensland,Australia,27-09-2018,
Paula,paula@racoon.com.au,Chatswood,"New South Wales",Australia,27-09-2018,Pending
,,Kingswood,"New South Wales",Australia,27-09-2018,
,,Jimboomba,Queensland,Australia,27-09-2018,
,,"Coolum Beach",Queensland,Australia,27-09-2018,
,,Sydney,"New South Wales",Australia,27-09-2018,
Margaret,Margyknoll@hotmail.com,Broadbeach,Queensland,Australia,27-09-2018,Pending
,,"Saint Peters","New South Wales",Australia,27-09-2018,
Anthony,Anthonyhull@yahoo.com,Haberfield,"New South Wales",Australia,27-09-2018,Pending
,,"Surry Hills","New South Wales",Australia,27-09-2018,
,,Ultimo,"New South Wales",Australia,27-09-2018,
Natha,hasmukhnatha@yahoo.com,Windale,"New South Wales",Australia,27-09-2018,Pending
,,Epping,"New South Wales",Australia,27-09-2018,
,,Brisbane,Queensland,Australia,27-09-2018,
,,Sydney,"New South Wales",Australia,27-09-2018,
,,Blacktown,"New South Wales",Australia,27-09-2018,
,,Bankstown,"New South Wales",Australia,27-09-2018,
,,Brisbane,Queensland,Australia,27-09-2018,
,,Mosman,"New South Wales",Australia,27-09-2018,
,,Ryde,"New South Wales",Australia,27-09-2018,
,,Pyrmont,"New South Wales",Australia,27-09-2018,
chami,chaminda@morabito.com.au,Kellyville,"New South Wales",Australia,27-09-2018,Pending
,,Drummoyne,"New South Wales",Australia,27-09-2018,
,,Gungahlin,"Australian Capital Territory",Australia,27-09-2018,
miao,miao@minosa.com.au,Penrith,"New South Wales",Australia,27-09-2018,Pending
,,Caloundra,Queensland,Australia,27-09-2018,
,,Parramatta,"New South Wales",Australia,27-09-2018,
Peter,elftrailers2@gmail.com,Darlinghurst,"New South Wales",Australia,27-09-2018,Pending
Steve,svjacko1@gmail.com,Woolooware,"New South Wales",Australia,27-09-2018,Pending
Raj,0400662576@noemail.com,Coorparoo,Queensland,Australia,27-09-2018,Pending
,,Wallsend,"New South Wales",Australia,27-09-2018,
Steve,stevengmason@hotmail.com,Eastwood,"New South Wales",Australia,27-09-2018,Pending
,,Rutherford,"New South Wales",Australia,27-09-2018,
,,Bondi,"New South Wales",Australia,27-09-2018,
,,Stanmore,"New South Wales",Australia,27-09-2018,
Amy,lvwei1006@hotmail.com,Blacktown,"New South Wales",Australia,27-09-2018,Pending
,,"Baulkham Hills","New South Wales",Australia,27-09-2018,
,,Blacktown,"New South Wales",Australia,27-09-2018,
,,Minto,"New South Wales",Australia,27-09-2018,
,,Epping,"New South Wales",Australia,27-09-2018,
,,Lidcombe,"New South Wales",Australia,27-09-2018,
Vincenzo,Vincenzomazzotta@ymail.com,Auburn,"New South Wales",Australia,27-09-2018,Pending
,,Kincumber,"New South Wales",Australia,27-09-2018,
,,"Potts Point","New South Wales",Australia,27-09-2018,
,,"The Rocks","New South Wales",Australia,27-09-2018,
"Kerryn ",0417420589@noemail.com,Canberra,"Australian Capital Territory",Australia,27-09-2018,Pending
,,Canberra,"Australian Capital Territory",Australia,27-09-2018,
Bill,bill@taskforceherbicide.com,Sydney,"New South Wales",Australia,27-09-2018,Pending
,,"Darling Point","New South Wales",Australia,26-09-2018,
,,Blacktown,"New South Wales",Australia,26-09-2018,
,,"Port Kembla","New South Wales",Australia,26-09-2018,
,,"Baulkham Hills","New South Wales",Australia,26-09-2018,
Dan,0413347521@noemail.com,Auburn,"New South Wales",Australia,26-09-2018,Pending
Tom,tpa@tpg.com.au,Petersham,"New South Wales",Australia,26-09-2018,Pending
,,Brisbane,Queensland,Australia,26-09-2018,
,,"Empire Bay","New South Wales",Australia,26-09-2018,
"Brian ",0418692322@noemail.com,Griffith,"New South Wales",Australia,26-09-2018,Pending
,,Sydney,"New South Wales",Australia,26-09-2018,
Michael,barnetm@meridianhi.com,Sydney,"New South Wales",Australia,26-09-2018,Pending
Kevin,0403609915@noemail.com,Beerwah,Queensland,Australia,26-09-2018,Pending
Gianni,gianni.romano@bartercard.com,Broadbeach,Queensland,Australia,26-09-2018,Pending
,,Balmain,"New South Wales",Australia,26-09-2018,
,,Blacktown,"New South Wales",Australia,26-09-2018,
,,Mosman,"New South Wales",Australia,26-09-2018,
,,Caringbah,"New South Wales",Australia,26-09-2018,
Don,lyndonvic2@bigpond.com,Rothbury,"New South Wales",Australia,26-09-2018,Pending
Derk,Dvanogtrop@gmail.com,Sydney,"New South Wales",Australia,26-09-2018,Pending
Joe,joe@gcls.com.au,Wanniassa,"Australian Capital Territory",Australia,26-09-2018,Pending
,,Alexandria,"New South Wales",Australia,26-09-2018,
,,Dural,"New South Wales",Australia,26-09-2018,
,,Strathfield,"New South Wales",Australia,26-09-2018,
,,Ryde,"New South Wales",Australia,26-09-2018,
,,Cooranbong,"New South Wales",Australia,26-09-2018,
,,Sydney,"New South Wales",Australia,26-09-2018,
,,Gungahlin,"Australian Capital Territory",Australia,26-09-2018,
,,Granville,"New South Wales",Australia,26-09-2018,
,,"Castle Hill","New South Wales",Australia,26-09-2018,
,,Balmain,"New South Wales",Australia,26-09-2018,
,,Belfield,"New South Wales",Australia,26-09-2018,
,,Brisbane,Queensland,Australia,26-09-2018,
,,Auburn,"New South Wales",Australia,26-09-2018,
,,Auburn,"New South Wales",Australia,26-09-2018,
,,Newtown,"New South Wales",Australia,26-09-2018,
Kim,0404519962@noemail.com,Lakemba,"New South Wales",Australia,26-09-2018,Pending
,,Bhubaneswar,Orissa,India,26-09-2018,
,,Canberra,"Australian Capital Territory",Australia,26-09-2018,
,,Ryde,"New South Wales",Australia,26-09-2018,
,,Balgownie,"New South Wales",Australia,26-09-2018,
,,Ultimo,"New South Wales",Australia,26-09-2018,
"Bree ",bumblebree80@hotmail.com,Milperra,"New South Wales",Australia,26-09-2018,Pending
Vinesh,vinesh.pandey@hotmail.com,Blacktown,"New South Wales",Australia,26-09-2018,Pending
Kerrie,snkadams@hotmail.com,Balmain,"New South Wales",Australia,26-09-2018,Pending
,,Balmain,"New South Wales",Australia,26-09-2018,
,,Kochi,Kerala,India,26-09-2018,
,,Sydney,"New South Wales",Australia,26-09-2018,
,,Kochi,Kerala,India,26-09-2018,
,,"Port Kembla","New South Wales",Australia,25-09-2018,
,,Swanbourne,"Western Australia",Australia,25-09-2018,
,,Jamnagar,Gujarat,India,25-09-2018,
,,Jamnagar,Gujarat,India,25-09-2018,
,,Auburn,"New South Wales",Australia,25-09-2018,
,,Erskineville,"New South Wales",Australia,25-09-2018,
,,Bondi,"New South Wales",Australia,25-09-2018,
,,Sydney,"New South Wales",Australia,25-09-2018,
,,Sydney,"New South Wales",Australia,25-09-2018,
,,Brisbane,Queensland,Australia,25-09-2018,
,,Sydney,"New South Wales",Australia,25-09-2018,
,,Botany,"New South Wales",Australia,25-09-2018,
Yumin,yumin_zhang@hotmail.com,Belmore,"New South Wales",Australia,25-09-2018,Pending
,,Sydney,"New South Wales",Australia,25-09-2018,
Eric,eric@netspace.net.au,Sydney,"New South Wales",Australia,25-09-2018,Pending
Rod,rtan@cmplus.com.au,Woolloomooloo,"New South Wales",Australia,25-09-2018,Pending
,,"Gold Coast",Queensland,Australia,25-09-2018,
,,Brisbane,Queensland,Australia,25-09-2018,
Gailene,gaian1@bigpond.com,"Baulkham Hills","New South Wales",Australia,25-09-2018,Pending
,,Stanwood,Washington,"United States",25-09-2018,
,,"Surry Hills","New South Wales",Australia,25-09-2018,
,,Armidale,"New South Wales",Australia,25-09-2018,
,,Orange,"New South Wales",Australia,25-09-2018,
Brigitta,brigittarudnicki@gmail.com,Canberra,"Australian Capital Territory",Australia,25-09-2018,Pending
,,"Surry Hills","New South Wales",Australia,25-09-2018,
,,Corio,Victoria,Australia,25-09-2018,
Branislav,branislavk86@hotmail.com,,"South Australia",Australia,25-09-2018,Pending
,,Canberra,"Australian Capital Territory",Australia,25-09-2018,
,,Burwood,"New South Wales",Australia,25-09-2018,
,,Lidcombe,"New South Wales",Australia,25-09-2018,
,,Newtown,"New South Wales",Australia,25-09-2018,
,,"Pennant Hills","New South Wales",Australia,25-09-2018,
,,Enoggera,Queensland,Australia,25-09-2018,
,,Riverstone,"New South Wales",Australia,25-09-2018,
,,Brisbane,Queensland,Australia,25-09-2018,
,,"West Hoxton","New South Wales",Australia,25-09-2018,
Kryst,Krystaljas@icloud.com,Mitchell,Queensland,Australia,25-09-2018,Pending
,,Merewether,"New South Wales",Australia,25-09-2018,
,,Brisbane,Queensland,Australia,25-09-2018,
,,Sydney,"New South Wales",Australia,25-09-2018,
Josh,0413716489@noemail.com,"Norman Park",Queensland,Australia,25-09-2018,Pending
,,Nowra,"New South Wales",Australia,25-09-2018,
Cabby,0424082373@noemail.com,Balmain,"New South Wales",Australia,25-09-2018,Pending
,,Annerley,Queensland,Australia,25-09-2018,
,,Petersham,"New South Wales",Australia,25-09-2018,
Dawn,0438232692@noemail.com,Merrylands,"New South Wales",Australia,25-09-2018,Pending
,,Sydney,"New South Wales",Australia,25-09-2018,
Mohit,mohit.behl@hotmail.com,Richmond,Victoria,Australia,25-09-2018,Pending
Kate,0427112891@noemail.com,"Neutral Bay","New South Wales",Australia,25-09-2018,Pending
,,Hornsby,"New South Wales",Australia,25-09-2018,
,,Chippendale,"New South Wales",Australia,25-09-2018,
,,Rozelle,"New South Wales",Australia,25-09-2018,
Anne,nevannekratz@westnet.com.au,"New Farm",Queensland,Australia,25-09-2018,Pending
,,Healesville,Victoria,Australia,25-09-2018,
,,Toongabbie,"New South Wales",Australia,25-09-2018,
,,Taree,"New South Wales",Australia,25-09-2018,
,,Kingston,"Australian Capital Territory",Australia,25-09-2018,
,,"New Farm",Queensland,Australia,25-09-2018,
,,"Woy Woy","New South Wales",Australia,25-09-2018,
,,"South Brisbane",Queensland,Australia,25-09-2018,
"Kevin ",kevinzcallaghan@hotmail.com,"Seven Hills","New South Wales",Australia,25-09-2018,Pending
Lou,0419299002@noemail.com,Wahroonga,"New South Wales",Australia,25-09-2018,Pending
Neil,kneeld@optusnet.com,Haberfield,"New South Wales",Australia,25-09-2018,Pending
Kathryn,hardman.kathryn@gmail.com,Brisbane,Queensland,Australia,25-09-2018,Pending
,,Petersham,"New South Wales",Australia,25-09-2018,
,,Haberfield,"New South Wales",Australia,25-09-2018,
,,Marrickville,"New South Wales",Australia,25-09-2018,
,,Hornsby,"New South Wales",Australia,25-09-2018,
Ramzan,zotty_khan@yahoo.com,"Mount Gravatt",Queensland,Australia,25-09-2018,Pending
Jay,Jay@guessdevelopments.com,"New Lambton","New South Wales",Australia,24-09-2018,Pending
"peter ",geyichen@hotmail.com,Lidcombe,"New South Wales",Australia,24-09-2018,Pending
Barbara,barbara@reddingo.com,"Surry Hills","New South Wales",Australia,24-09-2018,Pending
,,Lidcombe,"New South Wales",Australia,24-09-2018,
,,Pasig,Manila,Philippines,24-09-2018,
Simon,simon@collectivus.com.au,Brisbane,Queensland,Australia,24-09-2018,Pending
Debbie,debs23@gmail.com,Wollongong,"New South Wales",Australia,24-09-2018,Pending
,,Belrose,"New South Wales",Australia,24-09-2018,
,,Woolloomooloo,"New South Wales",Australia,24-09-2018,
,,Parramatta,"New South Wales",Australia,24-09-2018,
,,"Beverly Hills","New South Wales",Australia,24-09-2018,
,,Xuancheng,Anhui,China,24-09-2018,
,,Melbourne,Victoria,Australia,24-09-2018,
Mandy,mbussey@bigpond.net.au,Seaforth,"New South Wales",Australia,24-09-2018,Pending
,,Seaforth,"New South Wales",Australia,24-09-2018,
Nick,nick.vincent@avidpm.com.au,Bondi,"New South Wales",Australia,24-09-2018,Pending
,,Bankstown,"New South Wales",Australia,24-09-2018,
,,Ashfield,"New South Wales",Australia,24-09-2018,
,,Sydney,"New South Wales",Australia,24-09-2018,
,,Auburn,"New South Wales",Australia,24-09-2018,
,,Ashfield,"New South Wales",Australia,24-09-2018,
,,Callaghan,"New South Wales",Australia,24-09-2018,
Heather,sashbenson@optusnet.com.au,Brisbane,Queensland,Australia,24-09-2018,Pending
,,,"New South Wales",Australia,24-09-2018,
,,Geelong,Victoria,Australia,24-09-2018,
,,,,"United States",24-09-2018,
,,Sydney,"New South Wales",Australia,24-09-2018,
,,Kingston,"Australian Capital Territory",Australia,24-09-2018,
Tara,clanren@hotmail.com,Parramatta,"New South Wales",Australia,24-09-2018,Pending
,,"Saint Ives","New South Wales",Australia,24-09-2018,
Peter,peterstrattonhandyman@gmail.com,"Lane Cove","New South Wales",Australia,24-09-2018,Pending
,,Murarrie,Queensland,Australia,24-09-2018,
,,Sydney,"New South Wales",Australia,24-09-2018,
Amira,elhusseini.a@gmail.com,Jerrabomberra,"New South Wales",Australia,24-09-2018,Pending
,,Sydney,"New South Wales",Australia,24-09-2018,
,,"Quezon City","Quezon City",Philippines,24-09-2018,
,,Auburn,"New South Wales",Australia,24-09-2018,
,,Brisbane,Queensland,Australia,24-09-2018,
,,Auburn,"New South Wales",Australia,24-09-2018,
,,Sydney,"New South Wales",Australia,24-09-2018,
,,Sydney,"New South Wales",Australia,24-09-2018,
Janet,janetcathers@gmail.com,Collaroy,"New South Wales",Australia,24-09-2018,Pending
,,Parramatta,"New South Wales",Australia,24-09-2018,
Noelene,nakwilson@gmail.com,Kingsgrove,"New South Wales",Australia,24-09-2018,Pending
,,Sydney,"New South Wales",Australia,24-09-2018,
,,Newtown,"New South Wales",Australia,24-09-2018,
Craig,csharpe.au@gmail.com,Orange,"New South Wales",Australia,24-09-2018,Pending
,,Chippendale,"New South Wales",Australia,24-09-2018,
,,"Surry Hills","New South Wales",Australia,24-09-2018,
,,Cherrybrook,"New South Wales",Australia,24-09-2018,
,,Sydney,"New South Wales",Australia,24-09-2018,
Terry,tmire@bigpond.net.au,Richmond,"New South Wales",Australia,24-09-2018,Pending
,,Lidcombe,"New South Wales",Australia,24-09-2018,
Greg,bwg060873@gmail.com,"Seven Hills","New South Wales",Australia,24-09-2018,Pending
Michael,0406057757@noemail.com,Campsie,"New South Wales",Australia,24-09-2018,Pending
,,Karur,"Tamil Nadu",India,24-09-2018,
,,Umina,"New South Wales",Australia,24-09-2018,
,,,,Egypt,24-09-2018,
,,"Lane Cove","New South Wales",Australia,24-09-2018,
,,Rosebery,"New South Wales",Australia,24-09-2018,
,,Earlwood,"New South Wales",Australia,24-09-2018,
,,Epping,"New South Wales",Australia,24-09-2018,
,,Leichhardt,"New South Wales",Australia,24-09-2018,
Jacqui,mjdavies@aapt.net.au,Sydney,"New South Wales",Australia,24-09-2018,Pending
,,Morayfield,Queensland,Australia,24-09-2018,
,,Redcliffe,Queensland,Australia,24-09-2018,
,,"Freemans Reach","New South Wales",Australia,24-09-2018,
,,"Castle Hill","New South Wales",Australia,24-09-2018,
,,Chippendale,"New South Wales",Australia,24-09-2018,
,,"Barwon Heads",Victoria,Australia,24-09-2018,
,,Concord,"New South Wales",Australia,24-09-2018,
Andy,andy@safeandsoundproperty.com.au,Burwood,"New South Wales",Australia,24-09-2018,Pending
,,Forestville,"New South Wales",Australia,24-09-2018,
,,Homebush,"New South Wales",Australia,24-09-2018,
,,"Surry Hills","New South Wales",Australia,24-09-2018,
,,Sydney,"New South Wales",Australia,23-09-2018,
,,Sydney,"New South Wales",Australia,23-09-2018,
,,"Surry Hills","New South Wales",Australia,23-09-2018,
,,Sydney,"New South Wales",Australia,23-09-2018,
,,"Cape Town","Western Cape","South Africa",23-09-2018,
,,Mascot,"New South Wales",Australia,23-09-2018,
Liz,lizpoy@tpg.com.au,Sydney,"New South Wales",Australia,23-09-2018,Pending
,,Sydney,"New South Wales",Australia,23-09-2018,
,,Auburn,"New South Wales",Australia,23-09-2018,
"Kieran ",kieran.hickey@telstrarandwick.com,Allawah,"New South Wales",Australia,23-09-2018,Pending
Rita,0419518558@noemail.com,Kensington,Victoria,Australia,23-09-2018,Pending
Sudha,cooldude427@hotmail.com,Campbelltown,"New South Wales",Australia,23-09-2018,Pending
,,"Baulkham Hills","New South Wales",Australia,23-09-2018,
Simon,0433266239@noemail.com,Alexandria,"New South Wales",Australia,23-09-2018,Pending
Blues,blues@142group.com,Kellyville,"New South Wales",Australia,23-09-2018,Pending
,,Narrabri,"New South Wales",Australia,23-09-2018,
,,"Coolum Beach",Queensland,Australia,23-09-2018,
Ken,Kenchewch@gmail.com,Balgowlah,"New South Wales",Australia,23-09-2018,Pending
,,Melbourne,Victoria,Australia,23-09-2018,
,,Sydney,"New South Wales",Australia,23-09-2018,
Terry,terry@sunsetsigns.com.au,"New Farm",Queensland,Australia,23-09-2018,Pending
"Ann ",ann.wallace@det.nsw.edu.au,Auburn,"New South Wales",Australia,23-09-2018,Pending
,,Sydney,"New South Wales",Australia,23-09-2018,
,,Botany,"New South Wales",Australia,23-09-2018,
"Susie ",susie.ristev1@gmail.com,Petersham,"New South Wales",Australia,23-09-2018,Pending
,,"Albert Park",Victoria,Australia,23-09-2018,
,,"Baulkham Hills","New South Wales",Australia,23-09-2018,
,,Doonside,"New South Wales",Australia,23-09-2018,
,,"Woy Woy","New South Wales",Australia,23-09-2018,
You,nuova_00@hotmail.com,Leichhardt,"New South Wales",Australia,23-09-2018,Pending
,,Lakemba,"New South Wales",Australia,23-09-2018,
You,0402843658@noemail.com,Lidcombe,"New South Wales",Australia,23-09-2018,Pending
,,Sydney,"New South Wales",Australia,23-09-2018,
,,Blakehurst,"New South Wales",Australia,23-09-2018,
,,Glenorie,"New South Wales",Australia,23-09-2018,
Jasna,jasna.pirija@outlook.com,Sydney,"New South Wales",Australia,23-09-2018,Pending
,,Brisbane,Queensland,Australia,23-09-2018,
,,Budgewoi,"New South Wales",Australia,23-09-2018,
,,"Nords Wharf","New South Wales",Australia,23-09-2018,
Nestor,0401710767@noemail.com,Canberra,"Australian Capital Territory",Australia,23-09-2018,Pending
,,Northbridge,"New South Wales",Australia,23-09-2018,
,,Balgownie,"New South Wales",Australia,23-09-2018,
Angela,0422237295@noemail.com,Hawthorn,Victoria,Australia,23-09-2018,Pending
,,Earlwood,"New South Wales",Australia,23-09-2018,
,,Wanniassa,"Australian Capital Territory",Australia,23-09-2018,
Nicholas,john.clark1128@bigpond.com,Narrabri,"New South Wales",Australia,23-09-2018,Pending
James,jamesnsmith@iinet.com.au,Caringbah,"New South Wales",Australia,23-09-2018,Pending
,,Sydney,"New South Wales",Australia,23-09-2018,
Paul,pholmes1211@gmail.com,Peakhurst,"New South Wales",Australia,23-09-2018,Pending
,,Brisbane,Queensland,Australia,23-09-2018,
,,Mitchelton,Queensland,Australia,23-09-2018,
