"Business Name",Group,Greetings,"Total Chats","Total Leads","Chat To Lead %","Conversion Rate","Total Greeting Chats","Total Visitor Chats"
"Web Stack",2,0,0,0,,,0,0
"RSL Clinic",3,4219,155,47,30.32%,3.67%,92,63
"Signage Melbourne",5,0,0,0,,,0,0
"Vic Tattoo Removal",7,73,0,0,,0.00%,0,0
"Instant Laser Clinic",14,7144,156,43,27.56%,2.18%,104,52
SculpSure,15,4291,67,43,64.18%,1.56%,43,24
"Implant Dentist Melbourne",16,0,0,0,,,0,0
"Oxnia ",17,113,46,0,0.00%,40.71%,13,33
"SEO Rules",19,18,0,0,,0.00%,0,0
"HS Trucking",21,0,0,0,,,0,0
"My Medical Vacations",22,0,0,0,,,0,0
"Oxnia Support",24,0,0,0,,,0,0
"Renude Laser",25,0,0,0,,,0,0
"Test Chat For Employees",27,0,0,0,,,0,0
"Test Chat for Trainees (cynosure)",30,0,0,0,,,0,0
"Chat Metrics Client Demo",31,0,0,0,,,0,0
Bellovista,32,0,0,0,,,0,0
"Oxnia Training",33,0,6,2,33.33%,,0,6
360Energy,34,0,0,0,,,0,0
"Silver & Wise",35,427,10,0,0.00%,2.34%,0,10
Oxniachat.com,36,0,0,0,,,0,0
"Xpert Logistics",37,0,0,0,,,0,0
"Steel Efficiency Review",38,44,0,0,,0.00%,0,0
"Blue Scope Steel Supplies",39,0,0,0,,,0,0
"Rio Deals",40,0,0,0,,,0,0
"Audio Express",41,0,0,0,,,0,0
"Industrial Ideas",42,426,6,1,16.67%,1.41%,1,5
HRL,43,6975,74,24,32.43%,1.06%,53,21
FinPath,44,0,0,0,,,0,0
"Nourish Baby",45,0,0,0,,,0,0
Katana,46,0,0,0,,,0,0
"Beyond 19",47,1634,5,0,0.00%,0.31%,0,5
"High Dental",48,0,0,0,,,0,0
"Mentone Educational",52,0,0,0,,,0,0
"Quickdash doc v2",53,0,0,0,,,0,0
"Mint Design",54,0,0,0,,,0,0
"Band-It Australia",55,0,0,0,,,0,0
APC,56,29000,423,96,22.70%,1.46%,197,226
"Chat Metrics",57,631,24,5,20.83%,3.80%,21,3
LilyJackson,58,0,0,0,,,0,0
"Melbourne Brick",59,29571,665,164,24.66%,2.25%,515,150
HYOPR,61,0,0,0,,,0,0
"Med Channel",62,0,0,0,,,0,0
"Test training group",63,0,0,0,,,0,0
SignCepts,64,0,0,0,,,0,0
"Business in Heels",65,731,0,0,,0.00%,0,0
"Centenary Landscaping Supplies",66,0,0,0,,,0,0
"Enviro Clean Australia",67,395,32,8,25.00%,8.10%,27,5
QuotaFactory,68,0,0,0,,,0,0
"Rejuvenate Stays",69,0,0,0,,,0,0
"ClearPathHQ (CP)",71,0,0,0,,,0,0
"CP - River Bluff Cabins (RBC) ",72,0,0,0,,,0,0
"Victory Blinds",73,28312,431,174,40.37%,1.52%,295,135
"My Global Wifi",74,0,0,0,,,0,0
"Australian Laser & Skin Clinics",75,0,0,0,,,0,0
Hussh,76,0,0,0,,,0,0
"Instant Dental Cosmetic",77,429,16,4,25.00%,3.73%,12,4
"SEO RULES TEST",78,0,0,0,,,0,0
"Maintain X",79,0,0,0,,,0,0
"Guide Dogs",80,19178,807,0,0.00%,4.21%,559,248
"ProJudicata ",81,0,0,0,,,0,0
"Your Digital Agency",82,0,0,0,,,0,0
"Builders Academy Australia",83,27574,500,141,28.20%,1.81%,406,94
"Test Group",84,0,0,0,,,0,0
"Staffing Industry Metrics",85,1283,3,1,33.33%,0.23%,1,2
"Law Offices of Allen Farshi ",86,0,0,0,,,0,0
"Out in the Clouds",87,292,4,1,25.00%,1.37%,1,3
"Evolve Fitness",88,0,0,0,,,0,0
"Pioneer Water Tanks",89,0,0,0,,,0,0
" convert promo",90,2,0,0,,0.00%,0,0
"Pitt & Sherry",91,0,0,0,,,0,0
"Perfectly Smooth",92,0,0,0,,,0,0
"The Plato Project",93,0,3,1,33.33%,,0,3
"Sensis Australia",94,29167,1887,154,8.16%,6.47%,1534,353
"ABI Interiors",95,26730,315,112,35.56%,1.18%,234,81
SUMO,97,6449,1307,407,31.14%,20.27%,625,681
Ranbuild,100,58996,851,470,55.23%,1.44%,751,100
"JO Plumbing",101,361,9,4,44.44%,2.49%,6,3
http://signage-melbourne.com.au/,123,0,0,0,,,0,0
"Social Media Marketing Institute",124,1664,8,1,12.50%,0.48%,5,3
palchatmetrics,125,0,0,0,,,0,0
"Futures Strategy",126,0,0,0,,,0,0
"1800 FLOOD",127,0,0,0,,,0,0
"PD Training",128,0,0,0,,,0,0
TestMate,129,0,0,0,,,0,0
"Alpha Paintings",130,176,2,0,0.00%,1.14%,2,0
SpotED,131,2396,178,63,35.39%,7.43%,127,51
"Amber Tiles",132,0,0,0,,,0,0
G-Store,133,49604,923,227,24.59%,1.86%,754,169
"EPC Solar",134,823,22,5,22.73%,2.67%,15,7
CleanFX,135,0,0,0,,,0,0
"My FootDr",136,31728,1011,231,22.85%,3.19%,829,182
Zevra,137,0,0,0,,,0,0
"Top Gun",138,2768,15,1,6.67%,0.54%,8,7
Honee,139,115,11,0,0.00%,9.57%,5,6
"St Peters International College",140,940,35,8,22.86%,3.72%,31,4
"Box Hill",141,18,10,0,0.00%,55.56%,2,8
Programmed,142,0,0,0,,,0,0
"Web Marketing ROI",143,193,6,0,0.00%,3.11%,3,3
ECA,144,0,0,0,,,0,0
"College for Adult Learning",145,564,28,10,35.71%,4.96%,23,5
Pipestry,146,1,0,0,,0.00%,0,0
"Fitness Institute",147,0,0,0,,,0,0
"Konica Minolta",148,0,0,0,,,0,0
pppal,150,0,0,0,,,0,0
"Jims Sales Contract",152,0,0,0,,,0,0
"Enervest ",153,0,0,0,,,0,0
"Mentor Education",154,0,0,0,,,0,0
"IELTS Advantage",155,0,0,0,,,0,0
"Dental Assisting Institute",156,0,0,0,,,0,0
