,,Melbourne,Victoria,Australia,15-01-2019,
,,Melbourne,Victoria,Australia,15-01-2019,
You,watts@winendinem.com,Narangba,Queensland,Australia,15-01-2019,Pending
,,"Saint Lucia",Queensland,Australia,15-01-2019,
Chan,chan.tep@engie.com,Docklands,Victoria,Australia,15-01-2019,Pending
,,Rhodes,"New South Wales",Australia,15-01-2019,
,,Tingalpa,Queensland,Australia,15-01-2019,
,,Prestons,"New South Wales",Australia,15-01-2019,
,,Adelaide,"South Australia",Australia,15-01-2019,
,,Tarragindi,Queensland,Australia,15-01-2019,
,,Moorooka,Queensland,Australia,15-01-2019,
,,Jacksboro,Texas,"United States",15-01-2019,
,,Kennewick,Washington,"United States",15-01-2019,
,,"Road Town",,"Virgin Islands, British",15-01-2019,
,,Curepe,"Saint George","Trinidad and Tobago",15-01-2019,
,,Curepe,"Saint George","Trinidad and Tobago",15-01-2019,
,,Mumbai,Maharashtra,India,15-01-2019,
,,Hickory,"North Carolina","United States",15-01-2019,
Abhy,Abhykapoor1993@gmail.com,Miami,Florida,"United States",15-01-2019,Pending
,,Gurgaon,Haryana,India,15-01-2019,
,,Colombo,Western,"Sri Lanka",15-01-2019,
,,Colombo,Western,"Sri Lanka",15-01-2019,
,,Jakarta,"Jakarta Raya",Indonesia,14-01-2019,
,,,,India,14-01-2019,
,,,,India,14-01-2019,
,,,,India,14-01-2019,
,,Gurgaon,Haryana,India,14-01-2019,
,,Waterford,Waterford,Ireland,14-01-2019,
,,Dubai,Dubai,"United Arab Emirates",14-01-2019,
,,Tirana,Tirane,Albania,14-01-2019,
,,Trencin,Trencin,Slovakia,14-01-2019,
,,"Lane Cove","New South Wales",Australia,14-01-2019,
,,Sunnybank,Queensland,Australia,14-01-2019,
,,Chadstone,Victoria,Australia,14-01-2019,
,,Melbourne,Victoria,Australia,14-01-2019,
,,Sydney,"New South Wales",Australia,14-01-2019,
,,Kingston,Queensland,Australia,14-01-2019,
,,Lae,Morobe,"Papua New Guinea",14-01-2019,
,,Sydney,"New South Wales",Australia,14-01-2019,
,,"Port Macquarie","New South Wales",Australia,14-01-2019,
,,Perth,"Western Australia",Australia,14-01-2019,
,,Perth,"Western Australia",Australia,14-01-2019,
,,Brunswick,Victoria,Australia,14-01-2019,
,,Shenzhen,Guangdong,China,14-01-2019,
"Joseph ",joseph@industrybeans.com,Melbourne,Victoria,Australia,14-01-2019,Pending
,,Canberra,"Australian Capital Territory",Australia,14-01-2019,
,,Canberra,"Australian Capital Territory",Australia,14-01-2019,
,,Sydney,"New South Wales",Australia,14-01-2019,
test,testlead@noemail.com,Sydney,"New South Wales",Australia,14-01-2019,Pending
,,Melbourne,Victoria,Australia,14-01-2019,
,,Leederville,"Western Australia",Australia,14-01-2019,
,,Perth,"Western Australia",Australia,14-01-2019,
,,Salisbury,"South Australia",Australia,14-01-2019,
,,Melbourne,Victoria,Australia,14-01-2019,
,,Hawthorn,Victoria,Australia,14-01-2019,
