"Name","Email","Phone","City","State","Country","Rate"
"Cathy T Nguyen","n94cathy@gmail.com","4785675","Ascot Vale","Victoria","Australia","--"
"Cerae","cerae01@tpg.com.au","0407829824","Saint Kilda","Victoria","Australia","--"
"Dima","dema_64@hotmail.com","0404911422","Melbourne","Victoria","Australia","--"
"Dima","dema_64@hotmail.com","0404911422","Melbourne","Victoria","Australia","--"
"Eliza Rastall","Erastall@live.com.au","0419408765","Hobart","Tasmania","Australia","--"
"Rae","rae.pearce@bigpond.com","0413318171","Port Melbourne","Victoria","Australia","--"
"ashley","shiyihan1997@163.com","0432142000","Melbourne","Victoria","Australia","--"
"Lia D&#039;Alessandro","lia-bonita@hotmail.com","61411951092","Narre Warren","Victoria","Australia","--"
"Stella","sspitaliorakis@yahoo.com.au","0410692316","Malvern East","Victoria","Australia","--"
"kyra","kyra@frankbody.com","0421936911","Cremorne","Victoria","Australia","--"
"Siuyin Ho","siuyin.h@outlook.com","0448102697","Carlton","Victoria","Australia","--"
"Siuyin Ho","siuyin.h@outlook.com","0448102697","Carlton","Victoria","Australia","--"
"Ash Rowe","rowysince1982@hotmail.com","0417159482","Research","Victoria","Australia","--"
"Olivia","info@harperandblohm.com","0438693162","Armadale","Victoria","Australia","--"
"Nikola","nikolawiedermann@live.com","0402814413","Melbourne","Victoria","Australia","--"
"Mohamed Taleb","moetaleb96@gmail.com","0452205335","Melbourne","Victoria","Australia","--"
"Greg","burkegregory@hotmail.com","0474761350","Saint Kilda","Victoria","Australia","--"