"Name","Email","City","State","Country","Date"
"","","Annerley","Queensland","Australia","1530279366"
"Matt ","matthew.holt@hotmail.com","Cairns","Queensland","Australia","1530276467"
"","","Sydney","New South Wales","Australia","1530274155"
"","","Surry Hills","New South Wales","Australia","1530273329"
"zac","zachary.mahon@gmail.com","Regents Park","New South Wales","Australia","1530272729"
"","","Subiaco","Western Australia","Australia","1530272340"
"","","Regents Park","New South Wales","Australia","1530272319"
"","","Point Clare","New South Wales","Australia","1530271661"
"","","Maleny","Queensland","Australia","1530269175"
"","","Launceston","Tasmania","Australia","1530266461"
"","","Melbourne","Victoria","Australia","1530262735"
"Chris","info@ilmacakes.com","Southbank","Victoria","Australia","1530257273"
"","","Gosford","New South Wales","Australia","1530255413"
"Steven","Steven_mckenzie@live.com.au","Brisbane","Queensland","Australia","1530255110"
"","","Clearview","South Australia","Australia","1530254226"
"Peter","0456634439@noemail.com","Surry Hills","New South Wales","Australia","1530253120"
"Louise","lou.knowles@icloud.com","Happy Valley","South Australia","Australia","1530251887"
"","","Happy Valley","South Australia","Australia","1530251514"
"You","chris.noy@bigpond.com","","Western Australia","Australia","1530250462"
"","","Clear Island Waters","Queensland","Australia","1530250303"
"","","Artarmon","New South Wales","Australia","1530247341"
"Richard","richard_ae1959@yahoo.com.au","Lidcombe","New South Wales","Australia","1530246904"
"","","Chester Hill","New South Wales","Australia","1530246180"
"","","Brisbane","Queensland","Australia","1530244576"
"","","Padstow","New South Wales","Australia","1530244167"
"","","Glen Osmond","South Australia","Australia","1530243957"
"Lyn","lyndwtt@hotmail.com","Hoppers Crossing","Victoria","Australia","1530241272"
"","","Melbourne","Victoria","Australia","1530239112"
"Wendy","ragdoll01@me.com","Fitzroy North","Victoria","Australia","1530237975"
"","","Melbourne","Victoria","Australia","1530235514"
"Georgina","mggo@melbpc.org.au","Hawthorn","Victoria","Australia","1530235268"
"Christian","christianbull1965@gmail.com","Townsville","Queensland","Australia","1530234115"
"","","Melbourne","Victoria","Australia","1530234000"
"","","Melbourne","Victoria","Australia","1530233645"
"Susie","susiechurch01@gmail.com","Klemzig","South Australia","Australia","1530233044"
"","","Panorama","South Australia","Australia","1530226618"
"","","Upper Coomera","Queensland","Australia","1530213671"
"","","Rhodes","New South Wales","Australia","1530213616"
"","","Lidcombe","New South Wales","Australia","1530206130"