"Stuart ",Stuart.gemmill@abcorp.com,Ingleburn,"New South Wales",Australia,25-01-2019,Pending
,,Marrickville,"New South Wales",Australia,25-01-2019,
,,Sydney,"New South Wales",Australia,25-01-2019,
,,Bankstown,"New South Wales",Australia,25-01-2019,
,,Bexley,"New South Wales",Australia,25-01-2019,
Michael,Printprocol@gmail.com,Strathfield,"New South Wales",Australia,25-01-2019,Pending
,,Sydney,"New South Wales",Australia,25-01-2019,
"Greg ",gbos@warrnambool.vic.gov.au,Melbourne,Victoria,Australia,25-01-2019,Rejected
,,"Castle Hill","New South Wales",Australia,25-01-2019,
,,Croydon,Victoria,Australia,25-01-2019,
,,Croydon,Victoria,Australia,25-01-2019,
,,Artarmon,"New South Wales",Australia,25-01-2019,
,,Collingwood,Victoria,Australia,25-01-2019,
,,Kolkata,"West Bengal",India,25-01-2019,
,,Buldana,Maharashtra,India,24-01-2019,
,,Buldana,Maharashtra,India,24-01-2019,
,,Secunda,Mpumalanga,"South Africa",24-01-2019,
,,Kellyville,"New South Wales",Australia,24-01-2019,
James,jamesandnaomireid@gmail.com,Hamilton,Queensland,Australia,24-01-2019,Pending
,,,,Kenya,24-01-2019,
Gisella,gisella@stwaustralia.com.au,Yallingup,"Western Australia",Australia,24-01-2019,Rejected
,,"Moonee Ponds",Victoria,Australia,24-01-2019,
,,Collingwood,Victoria,Australia,24-01-2019,
,,Bentley,"Western Australia",Australia,24-01-2019,
,,"Surry Hills","New South Wales",Australia,24-01-2019,
,,Yangon,Yangon,Myanmar,24-01-2019,
,,Singapore,,Singapore,24-01-2019,
,,Melbourne,Victoria,Australia,24-01-2019,
,,Melbourne,Victoria,Australia,24-01-2019,
"Trevor ",trevor-kenbrock@live.com.au,"Burwood East",Victoria,Australia,24-01-2019,Rejected
,,Melbourne,Victoria,Australia,24-01-2019,
Tu,accounts@horizonict.com.au,Sydney,"New South Wales",Australia,24-01-2019,Rejected
,,Perth,"Western Australia",Australia,24-01-2019,
,,Perth,"Western Australia",Australia,24-01-2019,
,,Perth,"Western Australia",Australia,24-01-2019,
,,Brisbane,Queensland,Australia,24-01-2019,
You,chen@kansom.com,Norwood,"South Australia",Australia,24-01-2019,Rejected
"Wynand ",wynand.marais@protonmail.com,Modbury,"South Australia",Australia,24-01-2019,Rejected
,,Modbury,"South Australia",Australia,24-01-2019,
,,Broadmeadow,"New South Wales",Australia,24-01-2019,
,,Beechboro,"Western Australia",Australia,24-01-2019,
,,Claremont,"Western Australia",Australia,24-01-2019,
,,Sydney,"New South Wales",Australia,24-01-2019,
,,Artarmon,"New South Wales",Australia,24-01-2019,
,,Artarmon,"New South Wales",Australia,24-01-2019,
,,Sydney,"New South Wales",Australia,24-01-2019,
,,Richmond,Victoria,Australia,24-01-2019,
,,Johannesburg,Gauteng,"South Africa",24-01-2019,
Tony,tony.shalala@hotmail.com,Panania,"New South Wales",Australia,24-01-2019,Rejected
,,,,Kenya,23-01-2019,
,,Kokkedal,Hovedstaden,Denmark,23-01-2019,
,,Attadale,"Western Australia",Australia,23-01-2019,
,,Camden,"New South Wales",Australia,23-01-2019,
,,Camden,"New South Wales",Australia,23-01-2019,
,,Canberra,"Australian Capital Territory",Australia,23-01-2019,
Peter,orders@firstfocus.com.au,Botany,"New South Wales",Australia,23-01-2019,Rejected
,,,"New South Wales",Australia,23-01-2019,
Estelle,estelleq@bundaberg.qld.gov.au,Bundaberg,Queensland,Australia,23-01-2019,Rejected
"Debbie ",reception@madergroup.com.au,Perth,"Western Australia",Australia,23-01-2019,Rejected
,,"Carrum Downs",Victoria,Australia,23-01-2019,
,,"North Melbourne",Victoria,Australia,23-01-2019,
,,"Fitzroy North",Victoria,Australia,23-01-2019,
,,"Saint Ives","New South Wales",Australia,23-01-2019,
,,Busselton,"Western Australia",Australia,23-01-2019,
,,"Castle Hill","New South Wales",Australia,23-01-2019,
,,"South Morang",Victoria,Australia,23-01-2019,
,,Melbourne,Victoria,Australia,23-01-2019,
,,Edgecliff,"New South Wales",Australia,23-01-2019,
"Benjamin ",1300267444@noemail.com,Gladesville,"New South Wales",Australia,23-01-2019,Rejected
,,Brisbane,Queensland,Australia,23-01-2019,
,,Sydney,"New South Wales",Australia,23-01-2019,
,,Adelaide,"South Australia",Australia,23-01-2019,
Test,test@testmail.com,Sydney,"New South Wales",Australia,23-01-2019,Pending
,,Brisbane,Queensland,Australia,23-01-2019,
,,"Fitzroy North",Victoria,Australia,23-01-2019,
,,Nelson,Nelson,"New Zealand",23-01-2019,
"Traian ",traianc@ilanas.com.au,Southbank,Victoria,Australia,23-01-2019,Rejected
lan,0407787548@noemail.com,Woolamai,Victoria,Australia,23-01-2019,Rejected
,,,,Philippines,23-01-2019,
,,Kanpur,"Uttar Pradesh",India,23-01-2019,
,,Vienna,Wien,Austria,23-01-2019,
,,Jaipur,Rajasthan,India,23-01-2019,
,,Fairfield,"New South Wales",Australia,23-01-2019,
,,Patna,Bihar,India,22-01-2019,
,,Bucharest,Bucuresti,Romania,22-01-2019,
,,Bargarh,Orissa,India,22-01-2019,
,,"Central District",,"Hong Kong",22-01-2019,
,,Dubai,Dubai,"United Arab Emirates",22-01-2019,
,,Baldivis,"Western Australia",Australia,22-01-2019,
Brendan,0408485773@noemail.com,Blacktown,"New South Wales",Australia,22-01-2019,Rejected
Michael,michaelkgrey@outlook.com,Forestville,"New South Wales",Australia,22-01-2019,Rejected
,,"New Farm",Queensland,Australia,22-01-2019,
,,Hamilton,Victoria,Australia,22-01-2019,
,,"Bateau Bay","New South Wales",Australia,22-01-2019,
liz,lizmojing@gmail.com,Melbourne,Victoria,Australia,22-01-2019,Rejected
,,Canberra,"Australian Capital Territory",Australia,22-01-2019,
,,Elwood,Victoria,Australia,22-01-2019,
,,Sydney,"New South Wales",Australia,22-01-2019,
,,Brisbane,Queensland,Australia,22-01-2019,
Mika,mikawebco@gmail.com,Wamuran,Queensland,Australia,22-01-2019,Rejected
Nicci,info@melbournenaturalmedicine.com.au,"North Melbourne",Victoria,Australia,22-01-2019,Rejected
,,Wamuran,Queensland,Australia,22-01-2019,
,,"Novar Gardens","South Australia",Australia,22-01-2019,
,,Perth,"Western Australia",Australia,22-01-2019,
,,Brisbane,Queensland,Australia,22-01-2019,
,,Sydney,"New South Wales",Australia,22-01-2019,
,,"Norman Park",Queensland,Australia,22-01-2019,
Mike,mike.kennedy@anu.edu.au,"Weston Creek","Australian Capital Territory",Australia,22-01-2019,Rejected
"Brendan ",brendan@cleaverstrataconsulting.com.au,Blacktown,"New South Wales",Australia,22-01-2019,Rejected
,,Randwick,"New South Wales",Australia,22-01-2019,
,,Tarneit,Victoria,Australia,21-01-2019,
,,Chennai,"Tamil Nadu",India,21-01-2019,
,,"Eight Mile Plains",Queensland,Australia,21-01-2019,
,,Paddington,"New South Wales",Australia,21-01-2019,
,,Footscray,Victoria,Australia,21-01-2019,
,,Sydney,"New South Wales",Australia,21-01-2019,
,,Wollongong,"New South Wales",Australia,21-01-2019,
,,Armadale,Victoria,Australia,21-01-2019,
Jim,jimz@nfp.com.au,"North Melbourne",Victoria,Australia,21-01-2019,Rejected
,,Artarmon,"New South Wales",Australia,21-01-2019,
,,Sydney,"New South Wales",Australia,21-01-2019,
,,Melbourne,Victoria,Australia,21-01-2019,
,,Prestons,"New South Wales",Australia,21-01-2019,
,,Ultimo,"New South Wales",Australia,21-01-2019,
"Jernail ",jdeo@omegachem.com.au,"Caulfield South",Victoria,Australia,21-01-2019,Rejected
,,Merrylands,"New South Wales",Australia,21-01-2019,
"Owen ",o.jsmith@yahoo.com.au,Nowra,"New South Wales",Australia,21-01-2019,Rejected
,,Sydney,"New South Wales",Australia,21-01-2019,
,,Brunswick,Victoria,Australia,21-01-2019,
Fiona,fiona.macleod@ceda.com.au,Melbourne,Victoria,Australia,21-01-2019,Pending
,,"North Melbourne",Victoria,Australia,21-01-2019,
,,Melbourne,Victoria,Australia,21-01-2019,
,,Ryde,"New South Wales",Australia,20-01-2019,
,,Brisbane,Queensland,Australia,20-01-2019,
,,Sydney,"New South Wales",Australia,20-01-2019,
,,"Cape Town","Western Cape","South Africa",20-01-2019,
,,,Queensland,Australia,19-01-2019,
,,Brisbane,Queensland,Australia,19-01-2019,
Arthur,asemdin@gmail.com,Brisbane,Queensland,Australia,19-01-2019,Pending
,,Jeddah,Makkah,"Saudi Arabia",19-01-2019,
,,Jeddah,Makkah,"Saudi Arabia",19-01-2019,
,,Northbrook,Illinois,"United States",19-01-2019,
,,Kannur,Kerala,India,19-01-2019,
,,Concord,Ontario,Canada,19-01-2019,
,,Concord,Ontario,Canada,19-01-2019,
,,Lusaka,Lusaka,Zambia,19-01-2019,
,,,,"United States",19-01-2019,
,,Darlinghurst,"New South Wales",Australia,18-01-2019,
,,Sydney,"New South Wales",Australia,18-01-2019,
,,Singapore,,Singapore,18-01-2019,
Roopika,rvshah0715@gmail.com,Claremont,"Western Australia",Australia,18-01-2019,Rejected
Emily,emily@ookamikids.com,Southbank,Victoria,Australia,18-01-2019,Rejected
Jason,jason@lyncorp.com.au,Avalon,"New South Wales",Australia,18-01-2019,Rejected
,,Melbourne,Victoria,Australia,18-01-2019,
,,Melbourne,Victoria,Australia,18-01-2019,
,,Mosman,"New South Wales",Australia,18-01-2019,
angelo,made2cruz@gmail.com,Maylands,"Western Australia",Australia,18-01-2019,Rejected
,,Brisbane,Queensland,Australia,18-01-2019,
,,Maylands,"Western Australia",Australia,18-01-2019,
,,Hamilton,Queensland,Australia,18-01-2019,
,,Elizabeth,"South Australia",Australia,18-01-2019,
,,Blacktown,"New South Wales",Australia,18-01-2019,
,,Brisbane,Queensland,Australia,18-01-2019,
,,Brisbane,Queensland,Australia,18-01-2019,
,,Strathfield,"New South Wales",Australia,18-01-2019,
,,Brisbane,Queensland,Australia,18-01-2019,
,,Bannockburn,Victoria,Australia,18-01-2019,
,,Pune,Maharashtra,India,18-01-2019,
,,Lucknow,"Uttar Pradesh",India,18-01-2019,
,,"Jubilee Hills",,India,17-01-2019,
,,"South Perth","Western Australia",Australia,17-01-2019,
,,Maroochydore,Queensland,Australia,17-01-2019,
,,Brisbane,Queensland,Australia,17-01-2019,
,,Ballan,Victoria,Australia,17-01-2019,
,,Melbourne,Victoria,Australia,17-01-2019,
,,Melbourne,Victoria,Australia,17-01-2019,
,,"Albert Park",Victoria,Australia,17-01-2019,
,,Brisbane,Queensland,Australia,17-01-2019,
,,Kerang,Victoria,Australia,17-01-2019,
,,Sydney,"New South Wales",Australia,17-01-2019,
,,Rosebery,"New South Wales",Australia,17-01-2019,
,,Bentleigh,Victoria,Australia,17-01-2019,
,,"South Brisbane",Queensland,Australia,17-01-2019,
,,Cranbourne,Victoria,Australia,17-01-2019,
,,Balmain,"New South Wales",Australia,17-01-2019,
,,Bulimba,Queensland,Australia,17-01-2019,
,,Ultimo,"New South Wales",Australia,17-01-2019,
,,Lautoka,Western,Fiji,17-01-2019,
,,Sydney,"New South Wales",Australia,17-01-2019,
tom,tom@kudosmedia.com.au,Sydney,"New South Wales",Australia,17-01-2019,Pending
Melissa,e.ict.temp2@vulcan.co,Auckland,Auckland,"New Zealand",17-01-2019,Rejected
,,Manama,"Al Asimah",Bahrain,17-01-2019,
"Sameer ",sameer.ramgoolam@icloud.com,Drouin,Victoria,Australia,16-01-2019,Rejected
,,Hurstville,"New South Wales",Australia,16-01-2019,
,,"North Sydney","New South Wales",Australia,16-01-2019,
,,Perth,"Western Australia",Australia,16-01-2019,
,,Wentworthville,"New South Wales",Australia,16-01-2019,
,,Hyderabad,"Andhra Pradesh",India,16-01-2019,
Tony,tony@ipsp.com.au,"Wagga Wagga","New South Wales",Australia,16-01-2019,Rejected
,,Sydney,"New South Wales",Australia,16-01-2019,
Brian,brian.j.reynolds@bigpond.com,Robina,Queensland,Australia,16-01-2019,Rejected
,,Melbourne,Victoria,Australia,16-01-2019,
,,Dingley,Victoria,Australia,16-01-2019,
,,Southbank,Victoria,Australia,16-01-2019,
,,Perth,"Western Australia",Australia,16-01-2019,
,,Whyalla,"South Australia",Australia,16-01-2019,
,,Whyalla,"South Australia",Australia,16-01-2019,
,,"Albert Park",Victoria,Australia,16-01-2019,
,,Drummoyne,"New South Wales",Australia,16-01-2019,
,,Rhodes,"New South Wales",Australia,16-01-2019,
,,Adelaide,"South Australia",Australia,16-01-2019,
Eric,sgupta@nepinc.com,Sydney,"New South Wales",Australia,16-01-2019,Rejected
,,Sydney,"New South Wales",Australia,16-01-2019,
,,Ingleburn,"New South Wales",Australia,16-01-2019,
"Patrick ",ingram.patrick7@gmail.com,,"New South Wales",Australia,16-01-2019,Rejected
,,Brisbane,Queensland,Australia,16-01-2019,
,,Oxley,Queensland,Australia,16-01-2019,
,,Petersham,"New South Wales",Australia,16-01-2019,
,,Hubli,Karnataka,India,16-01-2019,
,,"South Yarra",Victoria,Australia,15-01-2019,
,,Thimphu,Thimphu,Bhutan,15-01-2019,
,,Jeddah,Makkah,"Saudi Arabia",15-01-2019,
,,Jeddah,Makkah,"Saudi Arabia",15-01-2019,
,,Jeddah,Makkah,"Saudi Arabia",15-01-2019,
,,Khairatabad,,India,15-01-2019,
,,Khairatabad,,India,15-01-2019,
,,Khairatabad,,India,15-01-2019,
Nigel,niftygee@gmail.com,Brisbane,Queensland,Australia,15-01-2019,Pending
,,Bannockburn,Victoria,Australia,15-01-2019,
,,Perth,"Western Australia",Australia,15-01-2019,
,,Salisbury,"South Australia",Australia,15-01-2019,
,,Salisbury,"South Australia",Australia,15-01-2019,
,,Camberwell,Victoria,Australia,15-01-2019,
,,Coimbatore,"Tamil Nadu",India,15-01-2019,
You,000noemail@noemail.com,Sydney,"New South Wales",Australia,15-01-2019,Pending
,,,,"Papua New Guinea",15-01-2019,
,,Modbury,"South Australia",Australia,15-01-2019,
,,Brisbane,Queensland,Australia,15-01-2019,
,,Melbourne,Victoria,Australia,15-01-2019,
,,Suva,Central,Fiji,15-01-2019,
,,Southport,Queensland,Australia,15-01-2019,
"Derek ",derek.wang@theflooringcentre.com.au,Reservoir,Victoria,Australia,15-01-2019,Rejected
,,Brisbane,Queensland,Australia,15-01-2019,
,,Annandale,"New South Wales",Australia,15-01-2019,
,,Sydney,"New South Wales",Australia,15-01-2019,
,,Melbourne,Victoria,Australia,15-01-2019,
,,Melbourne,Victoria,Australia,15-01-2019,
You,watts@winendinem.com,Narangba,Queensland,Australia,15-01-2019,Rejected
,,"Saint Lucia",Queensland,Australia,15-01-2019,
Chan,chan.tep@engie.com,Docklands,Victoria,Australia,15-01-2019,Pending
,,Rhodes,"New South Wales",Australia,15-01-2019,
,,Tingalpa,Queensland,Australia,15-01-2019,
,,Prestons,"New South Wales",Australia,15-01-2019,
,,Adelaide,"South Australia",Australia,15-01-2019,
,,Tarragindi,Queensland,Australia,15-01-2019,
,,Moorooka,Queensland,Australia,15-01-2019,
,,Jacksboro,Texas,"United States",15-01-2019,
,,Kennewick,Washington,"United States",15-01-2019,
,,"Road Town",,"Virgin Islands, British",15-01-2019,
,,Curepe,"Saint George","Trinidad and Tobago",15-01-2019,
,,Curepe,"Saint George","Trinidad and Tobago",15-01-2019,
,,Mumbai,Maharashtra,India,15-01-2019,
,,Hickory,"North Carolina","United States",15-01-2019,
Abhy,Abhykapoor1993@gmail.com,Miami,Florida,"United States",15-01-2019,Pending
,,Gurgaon,Haryana,India,15-01-2019,
,,Colombo,Western,"Sri Lanka",15-01-2019,
,,Colombo,Western,"Sri Lanka",15-01-2019,
,,Jakarta,"Jakarta Raya",Indonesia,14-01-2019,
,,,,India,14-01-2019,
,,,,India,14-01-2019,
,,,,India,14-01-2019,
,,Gurgaon,Haryana,India,14-01-2019,
,,Waterford,Waterford,Ireland,14-01-2019,
,,Dubai,Dubai,"United Arab Emirates",14-01-2019,
,,Tirana,Tirane,Albania,14-01-2019,
,,Trencin,Trencin,Slovakia,14-01-2019,
,,"Lane Cove","New South Wales",Australia,14-01-2019,
,,Sunnybank,Queensland,Australia,14-01-2019,
,,Chadstone,Victoria,Australia,14-01-2019,
,,Melbourne,Victoria,Australia,14-01-2019,
,,Sydney,"New South Wales",Australia,14-01-2019,
,,Kingston,Queensland,Australia,14-01-2019,
,,Lae,Morobe,"Papua New Guinea",14-01-2019,
,,Sydney,"New South Wales",Australia,14-01-2019,
,,"Port Macquarie","New South Wales",Australia,14-01-2019,
,,Perth,"Western Australia",Australia,14-01-2019,
,,Perth,"Western Australia",Australia,14-01-2019,
,,Brunswick,Victoria,Australia,14-01-2019,
,,Shenzhen,Guangdong,China,14-01-2019,
"Joseph ",joseph@industrybeans.com,Melbourne,Victoria,Australia,14-01-2019,Rejected
,,Canberra,"Australian Capital Territory",Australia,14-01-2019,
,,Canberra,"Australian Capital Territory",Australia,14-01-2019,
,,Sydney,"New South Wales",Australia,14-01-2019,
test,testlead@noemail.com,Sydney,"New South Wales",Australia,14-01-2019,Pending
,,Melbourne,Victoria,Australia,14-01-2019,
,,Leederville,"Western Australia",Australia,14-01-2019,
,,Perth,"Western Australia",Australia,14-01-2019,
,,Salisbury,"South Australia",Australia,14-01-2019,
,,Melbourne,Victoria,Australia,14-01-2019,
,,Hawthorn,Victoria,Australia,14-01-2019,
