,,Richmond,Victoria,Australia,24-04-2019,
,,Sydney,"New South Wales",Australia,24-04-2019,
,,Engadine,"New South Wales",Australia,24-04-2019,
,,Hornsby,"New South Wales",Australia,24-04-2019,
Jae,ms.japneet@hotmail.com,Pyrmont,"New South Wales",Australia,24-04-2019,Pending
,,Strathfield,"New South Wales",Australia,24-04-2019,
,,Brisbane,Queensland,Australia,24-04-2019,
,,Newstead,Queensland,Australia,24-04-2019,
,,Melbourne,Victoria,Australia,24-04-2019,
,,Sunnybank,Queensland,Australia,24-04-2019,
Lody,0449537676@noemail.com,Northmead,"New South Wales",Australia,24-04-2019,Pending
Ravin,ravinsingh12@yahoo.com,"Neutral Bay","New South Wales",Australia,24-04-2019,Pending
,,"North Sydney","New South Wales",Australia,24-04-2019,
,,Westmead,"New South Wales",Australia,24-04-2019,
Jay,Jaysm10835@hotmail.com,Brisbane,Queensland,Australia,24-04-2019,Rejected
,,Greenslopes,Queensland,Australia,24-04-2019,
,,Sydney,"New South Wales",Australia,24-04-2019,
,,Melbourne,Victoria,Australia,24-04-2019,
Lindsay,lindsay.allan1953@gmail.com,Camberwell,Victoria,Australia,24-04-2019,Pending
,,"Ascot Vale",Victoria,Australia,24-04-2019,
Gabriel,geeelaw@gmail.com,"North Sydney","New South Wales",Australia,24-04-2019,Pending
liny,shinupaul1980@yahoo.co.uk,"Deception Bay",Queensland,Australia,24-04-2019,Pending
,,Melbourne,Victoria,Australia,24-04-2019,
,,Melbourne,Victoria,Australia,24-04-2019,
Chetan,itsmecram@gmail.com,"Crows Nest","New South Wales",Australia,24-04-2019,Pending
,,Brisbane,Queensland,Australia,24-04-2019,
,,Brisbane,Queensland,Australia,24-04-2019,
,,Bundoora,Victoria,Australia,24-04-2019,
,,Thornlie,"Western Australia",Australia,23-04-2019,
,,Heatherton,Victoria,Australia,23-04-2019,
,,Sydney,"New South Wales",Australia,23-04-2019,
,,Mitchelton,Queensland,Australia,23-04-2019,
Shubha,shubha68@gmail.com,"Baulkham Hills","New South Wales",Australia,23-04-2019,Rejected
,,Maribyrnong,Victoria,Australia,23-04-2019,
Test,test@noemail.com,Sydney,"New South Wales",Australia,23-04-2019,Pending
Test,test@noemail.com,Sydney,"New South Wales",Australia,23-04-2019,Pending
