,,,Brisbane,Queensland,Australia,13-05-2019,
,,,Hampton,Victoria,Australia,13-05-2019,
,,,Forestville,"New South Wales",Australia,13-05-2019,
,,,Melbourne,Victoria,Australia,13-05-2019,
,,,Sydney,"New South Wales",Australia,13-05-2019,
,,,Chippendale,"New South Wales",Australia,13-05-2019,
"Grace ",gracebayana@talk21.com,0411528624,Bendigo,Victoria,Australia,12-05-2019,Pending
Sofija,sofija@emuenergy.com.au,"0433314114 ",Kingston,"Australian Capital Territory",Australia,12-05-2019,Pending
,,,Kingston,"Australian Capital Territory",Australia,12-05-2019,
,,,Oakleigh,Victoria,Australia,12-05-2019,
Devendra,devaus189@gmail.com,"0405672983 ",Sydney,"New South Wales",Australia,12-05-2019,Pending
Andrew,acrome@hotmail.com,0412854956,"Ringwood North",Victoria,Australia,12-05-2019,Pending
Shaiby,siljoshaiby@yahoo.co.in,0411154535,Wynnum,Queensland,Australia,12-05-2019,Pending
,,,Aspley,Queensland,Australia,12-05-2019,
,,,Torquay,Victoria,Australia,12-05-2019,
,,,"Castle Hill","New South Wales",Australia,12-05-2019,
Sailesh,skum7788@gmail.com,0469727904,Abbotsford,Victoria,Australia,12-05-2019,Pending
,,,Warriewood,"New South Wales",Australia,12-05-2019,
,,,Hurstbridge,Victoria,Australia,12-05-2019,
,,,Pakenham,Victoria,Australia,12-05-2019,
,,,Hurstbridge,Victoria,Australia,12-05-2019,
,,,"Kew East",Victoria,Australia,12-05-2019,
,,,Murrumbeena,Victoria,Australia,12-05-2019,
,,,Marrickville,"New South Wales",Australia,12-05-2019,
,,,Homebush,"New South Wales",Australia,12-05-2019,
,,,Sunnybank,Queensland,Australia,12-05-2019,
,,,Newtown,"New South Wales",Australia,12-05-2019,
,,,Brisbane,Queensland,Australia,12-05-2019,
,,,Norwood,"South Australia",Australia,12-05-2019,
,,,Sunnybank,Queensland,Australia,12-05-2019,
,,,Laverton,Victoria,Australia,12-05-2019,
,,,Melbourne,Victoria,Australia,12-05-2019,
,,,"Beverly Hills","New South Wales",Australia,12-05-2019,
,,,Cheltenham,Victoria,Australia,12-05-2019,
"Graham and Debbie",great_renovations@bigpond.com,"0488 878 258","Mount Waverley",Victoria,Australia,12-05-2019,Pending
,,,Girraween,"New South Wales",Australia,12-05-2019,
Margar,finchmargi@gmail.com,0422388069,Belmore,"New South Wales",Australia,12-05-2019,Pending
,,,"Chipping Norton","New South Wales",Australia,12-05-2019,
,,,Brisbane,Queensland,Australia,12-05-2019,
,,,"Saint Albans",Victoria,Australia,12-05-2019,
,,,Melbourne,Victoria,Australia,12-05-2019,
,,,"Eight Mile Plains",Queensland,Australia,12-05-2019,
,,,Brisbane,Queensland,Australia,12-05-2019,
,,,Hawthorn,Victoria,Australia,11-05-2019,
,,,Toongabbie,"New South Wales",Australia,11-05-2019,
,,,Brisbane,Queensland,Australia,11-05-2019,
,,,Brisbane,Queensland,Australia,11-05-2019,
"Raj ",rkraman@bigpond.net.au,0405244328,Ryde,"New South Wales",Australia,11-05-2019,Pending
Mat,mat.dagg@gmail.com,"0433 088 743",Brisbane,Queensland,Australia,11-05-2019,Pending
,,,Ermington,"New South Wales",Australia,11-05-2019,
"Leonie ",ellmart@live.com,"0421317123 ","Sippy Downs",Queensland,Australia,11-05-2019,Pending
,,,Southbank,Victoria,Australia,11-05-2019,
,,,Ermington,"New South Wales",Australia,11-05-2019,
,,,Brisbane,Queensland,Australia,11-05-2019,
Sandeep,sandeepnani246@gmail.com,0433378916,Melbourne,Victoria,Australia,11-05-2019,Pending
,,,Greensborough,Victoria,Australia,11-05-2019,
,,,Kew,Victoria,Australia,11-05-2019,
Shirley,shirleygott@bigpond.com,0437376333,Rochedale,Queensland,Australia,11-05-2019,Pending
,,,"New Farm",Queensland,Australia,11-05-2019,
Hilary,hilarymdebruyn@hotmail.com,0,Coorparoo,Queensland,Australia,11-05-2019,Pending
"Anne ",Graingerbusse@postmaster.co.uk,0406096568,Bulimba,Queensland,Australia,11-05-2019,Pending
,,,Bulimba,Queensland,Australia,11-05-2019,
,,,Sydney,"New South Wales",Australia,11-05-2019,
,,,Bulimba,Queensland,Australia,11-05-2019,
,,,Keysborough,Victoria,Australia,11-05-2019,
,,,"Bentleigh East",Victoria,Australia,11-05-2019,
,,,Melbourne,Victoria,Australia,11-05-2019,
,,,Doreen,Victoria,Australia,11-05-2019,
"Sylvia ",sylvia.giarrusso@jhg.com.au,"0411 161 053",Doreen,Victoria,Australia,11-05-2019,Pending
,,,Brisbane,Queensland,Australia,11-05-2019,
Robbie,0407827182@noemail.com,0407827182,Lilyfield,"New South Wales",Australia,11-05-2019,Pending
,,,"Marsden Park","New South Wales",Australia,11-05-2019,
,,,Rozelle,"New South Wales",Australia,11-05-2019,
,,,Sydney,"New South Wales",Australia,11-05-2019,
,,,Sydney,"New South Wales",Australia,11-05-2019,
,,,"North Melbourne",Victoria,Australia,11-05-2019,
,,,Boronia,Victoria,Australia,11-05-2019,
,,,"Hope Valley","South Australia",Australia,11-05-2019,
Penny,0439763565@noemail.com,0439763565,Brisbane,Queensland,Australia,11-05-2019,Pending
,,,"Hope Island",Queensland,Australia,11-05-2019,
,,,"Hope Island",Queensland,Australia,11-05-2019,
,,,"Darling Point","New South Wales",Australia,11-05-2019,
,,,Brisbane,Queensland,Australia,11-05-2019,
,,,Sydney,"New South Wales",Australia,11-05-2019,
,,,Melbourne,Victoria,Australia,11-05-2019,
,,,Melbourne,Victoria,Australia,11-05-2019,
,,,Margate,Queensland,Australia,11-05-2019,
,,,Yagoona,"New South Wales",Australia,10-05-2019,
,,,Newtown,"New South Wales",Australia,10-05-2019,
,,,,"New South Wales",Australia,10-05-2019,
Adarsh,adarshbh05@gmail.com,0406641145,Bendigo,Victoria,Australia,10-05-2019,Pending
,,,Melbourne,Victoria,Australia,10-05-2019,
,,,"South Melbourne",Victoria,Australia,10-05-2019,
"Rebekah ",rebekah.abi-rached@hotmail.com,0434445275,Camden,"New South Wales",Australia,10-05-2019,Pending
,,,Camden,"New South Wales",Australia,10-05-2019,
,,,Caloundra,Queensland,Australia,10-05-2019,
Raj,rajrana01@yahoo.com.au,0468930751,"Summer Hill","New South Wales",Australia,10-05-2019,Pending
"Murray ",noemail@noemail.com,0430763546,Kingsgrove,"New South Wales",Australia,10-05-2019,Pending
,,,Nathan,Queensland,Australia,10-05-2019,
,,,Broadbeach,Queensland,Australia,10-05-2019,
Glen,vgagovic@gmail.com,"0439 0493 93",Richmond,Victoria,Australia,10-05-2019,Pending
,,,Southport,Queensland,Australia,10-05-2019,
,,,Nathan,Queensland,Australia,10-05-2019,
Casey,0433090678@noemail.com,0433090678,Peakhurst,"New South Wales",Australia,10-05-2019,Pending
,,,Menai,"New South Wales",Australia,10-05-2019,
,,,Waterford,Queensland,Australia,10-05-2019,
,,,Elwood,Victoria,Australia,10-05-2019,
,,,Toowong,Queensland,Australia,10-05-2019,
Nathan,natowilks@gmail.com,0408753595,Capalaba,Queensland,Australia,10-05-2019,Pending
,,,"Surrey Hills",Victoria,Australia,10-05-2019,
,,,"Eagle Farm",Queensland,Australia,10-05-2019,
Hemang,hemangjs@hotmail.com,0402333218,Auckland,Auckland,"New Zealand",10-05-2019,Pending
,,,Auckland,Auckland,"New Zealand",10-05-2019,
,,,Brisbane,Queensland,Australia,10-05-2019,
,,,"Upper Coomera",Queensland,Australia,10-05-2019,
"joe ",0418984604@noemail.com,0418984604,Brisbane,Queensland,Australia,10-05-2019,Pending
,,,Melbourne,Victoria,Australia,10-05-2019,
Caroline,ucas.vu@gmail.com,"+678 28085",Port-vila,Shefa,Vanuatu,09-05-2019,Pending
,,,Peakhurst,"New South Wales",Australia,09-05-2019,
,,,Kew,Victoria,Australia,09-05-2019,
,,,Chatswood,"New South Wales",Australia,09-05-2019,
,,,"Ascot Vale",Victoria,Australia,09-05-2019,
,,,Officer,Victoria,Australia,09-05-2019,
,,,Drouin,Victoria,Australia,09-05-2019,
,,,Belmore,"New South Wales",Australia,09-05-2019,
,,,"North Sydney","New South Wales",Australia,09-05-2019,
,,,Brisbane,Queensland,Australia,09-05-2019,
,,,Strathfield,"New South Wales",Australia,09-05-2019,
,,,Canberra,"Australian Capital Territory",Australia,09-05-2019,
,,,Canberra,"Australian Capital Territory",Australia,09-05-2019,
"Jan ",jansteps@bigpond.com,0,Brisbane,Queensland,Australia,09-05-2019,Pending
,,,Brisbane,Queensland,Australia,09-05-2019,
,,,Brisbane,Queensland,Australia,09-05-2019,
,,,Collaroy,"New South Wales",Australia,09-05-2019,
,,,Morwell,Victoria,Australia,09-05-2019,
,,,Brisbane,Queensland,Australia,09-05-2019,
,,,"Hope Valley","South Australia",Australia,09-05-2019,
,,,"Hope Valley","South Australia",Australia,09-05-2019,
,,,,,"Asia/Pacific Region",09-05-2019,
,,,Thomastown,Victoria,Australia,09-05-2019,
,,,"Castle Hill","New South Wales",Australia,09-05-2019,
,,,Melbourne,Victoria,Australia,09-05-2019,
Tina,tina_rivett_8@hotmail.com,"0450 088 648",Luddenham,"New South Wales",Australia,09-05-2019,Pending
"Jeanne ",jeannefaux@yahoo.com.au,0428280547,Melbourne,Victoria,Australia,09-05-2019,Pending
,,,"Parafield Gardens","South Australia",Australia,09-05-2019,
,,,Moorooka,Queensland,Australia,09-05-2019,
,,,Doreen,Victoria,Australia,08-05-2019,
Zena,Zena.87.zh@gmail.com,0433954611,"South Yarra",Victoria,Australia,08-05-2019,Pending
,,,Randwick,"New South Wales",Australia,08-05-2019,
,,,Cranebrook,"New South Wales",Australia,08-05-2019,
,,,"Surry Hills","New South Wales",Australia,08-05-2019,
,,,Docklands,Victoria,Australia,08-05-2019,
,,,Canberra,"Australian Capital Territory",Australia,08-05-2019,
,,,Melbourne,Victoria,Australia,08-05-2019,
Toni,tonitvee@gmail.com,0411661180,"Surfers Paradise",Queensland,Australia,08-05-2019,Pending
,,,Concord,"New South Wales",Australia,08-05-2019,
,,,"Saint Kilda",Victoria,Australia,08-05-2019,
,,,"Point Cook",Victoria,Australia,08-05-2019,
,,,"Slacks Creek",Queensland,Australia,08-05-2019,
,,,Earlwood,"New South Wales",Australia,08-05-2019,
,,,"Carlton North",Victoria,Australia,08-05-2019,
,,,Eltham,Victoria,Australia,08-05-2019,
,,,Waratah,"New South Wales",Australia,08-05-2019,
,,,"Surry Hills","New South Wales",Australia,08-05-2019,
,,,Buderim,Queensland,Australia,08-05-2019,
"Rupesh ",rupesh.ibmer@gmail.com," 0466365079",Sydney,"New South Wales",Australia,08-05-2019,Pending
,,,Melbourne,Victoria,Australia,08-05-2019,
,,,Kew,Victoria,Australia,08-05-2019,
,,,Atlanta,Georgia,"United States",08-05-2019,
"Jasmeet ",syd_sunny@yahoo.com.au,0451839277,Northcote,Victoria,Australia,08-05-2019,Pending
PHILLIP,phillip@thetonkingroup.com.au,0407773175,"South Yarra",Victoria,Australia,08-05-2019,Pending
,,,Northcote,Victoria,Australia,08-05-2019,
Sak,great.day@hotmail.com,0403344163,Melbourne,Victoria,Australia,08-05-2019,Pending
,,,"Eight Mile Plains",Queensland,Australia,08-05-2019,
Renin,reninthomas@gmail.com,0470309842,Springvale,Victoria,Australia,08-05-2019,Pending
,,,Rochedale,Queensland,Australia,08-05-2019,
,,,Tarragindi,Queensland,Australia,08-05-2019,
,,,"Brunswick East",Victoria,Australia,08-05-2019,
,,,Oakleigh,Victoria,Australia,08-05-2019,
,,,Northcote,Victoria,Australia,08-05-2019,
Ozzie,ozlem.guneri1@gmail.com,0420767728,Sunnybank,Queensland,Australia,08-05-2019,Pending
,,,Cheltenham,Victoria,Australia,08-05-2019,
,,,Perth,"Western Australia",Australia,07-05-2019,
,,,Burnley,Victoria,Australia,07-05-2019,
,,,Merrylands,"New South Wales",Australia,07-05-2019,
"Jody ",tridentmgt@me.com,0423076606,Menai,"New South Wales",Australia,07-05-2019,Pending
,,,Darra,Queensland,Australia,07-05-2019,
,,,Newtown,"New South Wales",Australia,07-05-2019,
,,,Melbourne,Victoria,Australia,07-05-2019,
,,,Docklands,Victoria,Australia,07-05-2019,
,,,Artarmon,"New South Wales",Australia,07-05-2019,
,,,Auckland,Auckland,"New Zealand",07-05-2019,
,,,Greenslopes,Queensland,Australia,07-05-2019,
,,,Holsworthy,"New South Wales",Australia,07-05-2019,
,,,"Saint Lucia",Queensland,Australia,07-05-2019,
,,,"Surrey Hills",Victoria,Australia,07-05-2019,
,,,Brisbane,Queensland,Australia,07-05-2019,
"Heather ",gearyhe@bigpond.com,0409059159,Brisbane,Queensland,Australia,07-05-2019,Pending
"Jeremy ",Jeremy@seddonwinestore.com.au,0447713199,"Kew East",Victoria,Australia,07-05-2019,Pending
,,,"Saint Lucia",Queensland,Australia,07-05-2019,
,,,Carlton,Victoria,Australia,07-05-2019,
"Rebecca ",becjoslin@gmail.com,"0417 477 888",Leichhardt,"New South Wales",Australia,07-05-2019,Pending
"Samatar ",samatar_yusuf@hotmail.com,0401494149,Melbourne,Victoria,Australia,07-05-2019,Pending
,,,Camberwell,Victoria,Australia,07-05-2019,
,,,Greenslopes,Queensland,Australia,07-05-2019,
,,,Lindfield,"New South Wales",Australia,07-05-2019,
,,,Brisbane,Queensland,Australia,07-05-2019,
"Ann ",annborg@yahoo.com.au,0420928990,Melbourne,Victoria,Australia,07-05-2019,Pending
"pamela ",pmjacky62@gmail.com,"0468303013 ",Burwood,"New South Wales",Australia,07-05-2019,Pending
,,,Kogarah,"New South Wales",Australia,06-05-2019,
,,,Brisbane,Queensland,Australia,06-05-2019,
,,,Strathfield,"New South Wales",Australia,06-05-2019,
,,,Sydney,"New South Wales",Australia,06-05-2019,
,,,Auckland,Auckland,"New Zealand",06-05-2019,
,,,Auckland,Auckland,"New Zealand",06-05-2019,
,,,Aspley,Queensland,Australia,06-05-2019,
Shari,Shari_13@hotmail.com,0,"Albany Creek",Queensland,Australia,06-05-2019,Pending
,,,Brisbane,Queensland,Australia,06-05-2019,
,,,"Melton South",Victoria,Australia,06-05-2019,
,,,Camden,"New South Wales",Australia,06-05-2019,
,,,Hawthorn,Victoria,Australia,06-05-2019,
,,,Strathfield,"New South Wales",Australia,06-05-2019,
,,,Greenslopes,Queensland,Australia,06-05-2019,
,,,Perth,"Western Australia",Australia,06-05-2019,
,,,Seaford,Victoria,Australia,06-05-2019,
Wade,wade@tattsfin.com.au," 0404 487 285","Baulkham Hills","New South Wales",Australia,06-05-2019,Pending
Marie,twodogs@onthenet.com.au,0418875388,Caloundra,Queensland,Australia,06-05-2019,Pending
,,,"Saint Ives","New South Wales",Australia,06-05-2019,
"Fran ",franmac0712@gmail.com,0414380390,Melbourne,Victoria,Australia,06-05-2019,Pending
,,,Darwin,"Northern Territory",Australia,06-05-2019,
,,,,"New South Wales",Australia,06-05-2019,
,,,Melbourne,Victoria,Australia,06-05-2019,
Robert,robcarr@optushome.com.au,0411501605,Tarragindi,Queensland,Australia,06-05-2019,Pending
,,,Eagleby,Queensland,Australia,06-05-2019,
,,,Sydney,"New South Wales",Australia,06-05-2019,
Geoff,0411453344@noemail.com,"0411 453 344",Maroubra,"New South Wales",Australia,06-05-2019,Pending
Adam,technicalorthotics@bigpond.com,"0419 009 164",Greenslopes,Queensland,Australia,06-05-2019,Pending
,,,Brisbane,Queensland,Australia,06-05-2019,
Sofina,sofina_khan@hotmail.com,"0452 667786",Belmore,"New South Wales",Australia,06-05-2019,Pending
HG,Hghabrous@gmail.com,0406666904,Sydney,"New South Wales",Australia,06-05-2019,Pending
,,,Sydney,"New South Wales",Australia,06-05-2019,
,,,Sydney,"New South Wales",Australia,06-05-2019,
,,,Miami,Florida,"United States",06-05-2019,
Michelle,michelle@ccrhb.com.au,"0418783018 ",Bangkok,"Krung Thep",Thailand,06-05-2019,Pending
Leah,Leaha0508@gmail.com,0,"Surry Hills","New South Wales",Australia,05-05-2019,Pending
,,,Leutschach,Steiermark,Austria,05-05-2019,
,,,Brisbane,Queensland,Australia,05-05-2019,
Ben,benbarbiemiller@gmail.com,"0458221099 ","Redland Bay",Queensland,Australia,05-05-2019,Pending
,,,,,Ukraine,05-05-2019,
Michelle,willmotz@idx.com.au,0,Avalon,"New South Wales",Australia,05-05-2019,Pending
,,,Turramurra,"New South Wales",Australia,05-05-2019,
,,,Hethe,Oxfordshire,"United Kingdom",05-05-2019,
"Anton ",antonziur@gmail.com,0419751895,Manly,"New South Wales",Australia,05-05-2019,Pending
Pallavi,pallavi.tiwari09@gmail.com,"0404504530 ",Kogarah,"New South Wales",Australia,05-05-2019,Pending
,,,Coorparoo,Queensland,Australia,05-05-2019,
,,,Corinda,Queensland,Australia,05-05-2019,
,,,Brisbane,Queensland,Australia,05-05-2019,
,,,Brisbane,Queensland,Australia,05-05-2019,
"Sir Donald",0417982691@noemail.com,"0417982691 ",Brighton,Victoria,Australia,05-05-2019,Pending
Graeme,0458550684@noemail.com,0458550684,Melbourne,Victoria,Australia,05-05-2019,Pending
,,,Wollongong,"New South Wales",Australia,05-05-2019,
Keely,keelytaylor123@hotmail.com,0435380330,Sydney,"New South Wales",Australia,05-05-2019,Pending
,,,"Summer Hill","New South Wales",Australia,05-05-2019,
,,,Gosford,"New South Wales",Australia,05-05-2019,
,,,Ashfield,"New South Wales",Australia,05-05-2019,
,,,Leichhardt,"New South Wales",Australia,05-05-2019,
,,,Moorooka,Queensland,Australia,05-05-2019,
,,,"East Brisbane",Queensland,Australia,05-05-2019,
Paul,paulkenway@hbca.com.au,"0409 611 951",Ormiston,Queensland,Australia,05-05-2019,Pending
,,,Ormiston,Queensland,Australia,05-05-2019,
Hos,Niazkhani@yahoo.com,0408808084,Melbourne,Victoria,Australia,05-05-2019,Pending
Yale,tiekaz@hotmail.com,0421128289,Melbourne,Victoria,Australia,04-05-2019,Pending
Erlissa,e1109a@yahoo.co.uk,0,Melbourne,Victoria,Australia,04-05-2019,Pending
,,,Waverton,"New South Wales",Australia,04-05-2019,
,,,,,Spain,04-05-2019,
,,,Brisbane,Queensland,Australia,04-05-2019,
,,,Leichhardt,"New South Wales",Australia,04-05-2019,
,,,Ormeau,Queensland,Australia,04-05-2019,
David,davidjalgie@gmail.com,0431442134,Homebush,"New South Wales",Australia,04-05-2019,Pending
,,,Richmond,Victoria,Australia,04-05-2019,
,,,Richmond,Victoria,Australia,04-05-2019,
,,,Tumut,"New South Wales",Australia,04-05-2019,
Susan,susanandrew@live.com.au,"0419 676 211","Hope Island",Queensland,Australia,04-05-2019,Pending
,,,Melbourne,Victoria,Australia,04-05-2019,
"Van ",patrick.nuwin@gmail.com,0411339117,Blackburn,Victoria,Australia,04-05-2019,Pending
,,,,Queensland,Australia,04-05-2019,
Maureen,maureenfergusson@yahoo.com.au,"0421 071 291","East Brisbane",Queensland,Australia,04-05-2019,Pending
,,,Kellyville,"New South Wales",Australia,04-05-2019,
,,,Sydney,"New South Wales",Australia,04-05-2019,
,,,Toowoomba,Queensland,Australia,04-05-2019,
,,,"Macquarie Fields","New South Wales",Australia,04-05-2019,
,,,Wakerley,Queensland,Australia,04-05-2019,
"Prashant ",Prashant.tgstgs@gmail.com,0433448519,Brisbane,Queensland,Australia,04-05-2019,Pending
"kate ",k.northash@gmail.com,"0403 571 276",Croydon,"New South Wales",Australia,03-05-2019,Pending
,,,Wollert,Victoria,Australia,03-05-2019,
,,,Tuggerah,"New South Wales",Australia,03-05-2019,
,,,Melbourne,Victoria,Australia,03-05-2019,
Andrew,ashung@tpg.com.au,"0410 220 216",Eastwood,"New South Wales",Australia,03-05-2019,Pending
,,,"Hampton Park",Victoria,Australia,03-05-2019,
,,,Windsor,Victoria,Australia,03-05-2019,
,,,Sydney,"New South Wales",Australia,03-05-2019,
,,,Epping,Victoria,Australia,03-05-2019,
,,,Sydney,"New South Wales",Australia,03-05-2019,
,,,Windsor,Victoria,Australia,03-05-2019,
,,,Brisbane,Queensland,Australia,03-05-2019,
,,,Brisbane,Queensland,Australia,03-05-2019,
,,,,Queensland,Australia,03-05-2019,
,,,Kuraby,Queensland,Australia,03-05-2019,
,,,"Surfers Paradise",Queensland,Australia,03-05-2019,
,,,Leichhardt,"New South Wales",Australia,03-05-2019,
,,,Blacktown,"New South Wales",Australia,03-05-2019,
,,,Marrickville,"New South Wales",Australia,03-05-2019,
,,,Melbourne,Victoria,Australia,03-05-2019,
Omskie,0481398994@noemail.com,0481398994,"Eight Mile Plains",Queensland,Australia,03-05-2019,Pending
"Lee ",0419558290@noemail.com,0419558290,Heidelberg,Victoria,Australia,03-05-2019,Pending
Anne,juleahanne@yahoo.com,0,Lilyfield,"New South Wales",Australia,02-05-2019,Pending
,,,"Varsity Lakes",Queensland,Australia,02-05-2019,
,,,Artarmon,"New South Wales",Australia,02-05-2019,
,,,"Eight Mile Plains",Queensland,Australia,02-05-2019,
,,,Riverwood,"New South Wales",Australia,02-05-2019,
,,,Maddingley,Victoria,Australia,02-05-2019,
,,,Brisbane,Queensland,Australia,02-05-2019,
Kurt,electrical_ingenuity@yahoo.com," 0419 119 817",Brisbane,Queensland,Australia,02-05-2019,Pending
,,,Chatswood,"New South Wales",Australia,02-05-2019,
,,,"Albany Creek",Queensland,Australia,02-05-2019,
,,,Vaucluse,"New South Wales",Australia,02-05-2019,
,,,Brisbane,Queensland,Australia,02-05-2019,
,,,Melbourne,Victoria,Australia,02-05-2019,
,,,Penrith,"New South Wales",Australia,02-05-2019,
,,,Glebe,"New South Wales",Australia,02-05-2019,
,,,Derrimut,Victoria,Australia,02-05-2019,
"Philip ",Phil@visionautotech.co.th,0400640424,"Moonee Ponds",Victoria,Australia,02-05-2019,Pending
,,,Melbourne,Victoria,Australia,02-05-2019,
,,,Sydney,"New South Wales",Australia,02-05-2019,
,,,"West End",Queensland,Australia,02-05-2019,
,,,Abbotsford,"New South Wales",Australia,02-05-2019,
,,,Sydney,"New South Wales",Australia,02-05-2019,
,,,Northmead,"New South Wales",Australia,02-05-2019,
,,,Chippendale,"New South Wales",Australia,02-05-2019,
Nadeem,0435117395@noemail.com,0435117395,Melbourne,Victoria,Australia,02-05-2019,Pending
,,,Melbourne,Victoria,Australia,02-05-2019,
,,,Sydney,"New South Wales",Australia,02-05-2019,
,,,Melbourne,Victoria,Australia,02-05-2019,
,,,Brisbane,Queensland,Australia,02-05-2019,
,,,"Hope Island",Queensland,Australia,02-05-2019,
,,,Wahroonga,"New South Wales",Australia,02-05-2019,
,,,"Pennant Hills","New South Wales",Australia,02-05-2019,
,,,Bankstown,"New South Wales",Australia,02-05-2019,
,,,Camden,"New South Wales",Australia,02-05-2019,
,,,Melbourne,Victoria,Australia,02-05-2019,
,,,Melbourne,Victoria,Australia,02-05-2019,
,,,Elderslie,"New South Wales",Australia,01-05-2019,
Isha,Isatakamara@hotmail.com,0421733361,Burnley,Victoria,Australia,01-05-2019,Pending
"Niko ",Nikoshrestha3@hotmail.com,0403224450,Sydney,"New South Wales",Australia,01-05-2019,Pending
,,,Lidcombe,"New South Wales",Australia,01-05-2019,
,,,Glenroy,Victoria,Australia,01-05-2019,
,,,Blacktown,"New South Wales",Australia,01-05-2019,
,,,Melbourne,Victoria,Australia,01-05-2019,
"Arup ",smrahmanaru@gmail.com,0499019009,Brighton,Victoria,Australia,01-05-2019,Pending
,,,Bankstown,"New South Wales",Australia,01-05-2019,
Ella,Jovana1@live.com.au,0403658117,Moorooka,Queensland,Australia,01-05-2019,Pending
,,,Brighton,Victoria,Australia,01-05-2019,
,,,Melbourne,Victoria,Australia,01-05-2019,
,,,Albion,Victoria,Australia,01-05-2019,
,,,Leopold,Victoria,Australia,01-05-2019,
,,,"New Lambton","New South Wales",Australia,01-05-2019,
"Lynne ",lynne.scott7@bigpond.com,0412092384,"Surrey Hills",Victoria,Australia,01-05-2019,Pending
,,,Hawthorn,Victoria,Australia,01-05-2019,
,,,Sydney,"New South Wales",Australia,01-05-2019,
,,,"Burleigh Heads",Queensland,Australia,01-05-2019,
,,,Hawthorn,Victoria,Australia,01-05-2019,
,,,Sydney,"New South Wales",Australia,01-05-2019,
Rob,treborr61@yahoo.com.au,0408022322,Prahran,Victoria,Australia,01-05-2019,Pending
Irene,ireneruby@0gmsil.com,"0515797488 ",Brisbane,Queensland,Australia,01-05-2019,Pending
,,,Erskineville,"New South Wales",Australia,01-05-2019,
,,,Wentworthville,"New South Wales",Australia,01-05-2019,
,,,Ultimo,"New South Wales",Australia,01-05-2019,
,,,Lilydale,Victoria,Australia,01-05-2019,
,,,"Beverly Hills","New South Wales",Australia,01-05-2019,
mark,md197@hotmail.com,0,"Lane Cove","New South Wales",Australia,01-05-2019,Pending
,,,Ashfield,"New South Wales",Australia,01-05-2019,
Maree,reception@nordonjago.com,"02 93188400","Surry Hills","New South Wales",Australia,01-05-2019,Pending
Samia,Samianaz889@gmail.com,0413651549,Melbourne,Victoria,Australia,01-05-2019,Pending
,,,Melbourne,Victoria,Australia,01-05-2019,
,,,Melbourne,Victoria,Australia,01-05-2019,
,,,Melbourne,Victoria,Australia,01-05-2019,
,,,Melbourne,Victoria,Australia,01-05-2019,
,,,Preston,Victoria,Australia,01-05-2019,
Natalee,mws@schutebell.com,"0412 910152",Cooma,"New South Wales",Australia,01-05-2019,Pending
"graham ",468644130@noemail.com,468644130,Toowong,Queensland,Australia,01-05-2019,Pending
,,,Stanmore,"New South Wales",Australia,01-05-2019,
,,,Croydon,"New South Wales",Australia,01-05-2019,
Estelle,estelle.broekhuysen52@gmail.com,0402118857,Brisbane,Queensland,Australia,01-05-2019,Pending
,,,Stockport,Stockport,"United Kingdom",01-05-2019,
,,,Murarrie,Queensland,Australia,30-04-2019,
,,,Docklands,Victoria,Australia,30-04-2019,
,,,Burpengary,Queensland,Australia,30-04-2019,
,,,Coorparoo,Queensland,Australia,30-04-2019,
,,,Coorparoo,Queensland,Australia,30-04-2019,
,,,Southbank,Victoria,Australia,30-04-2019,
Lauren,Laurensutton8@bigpond.com,0,Melbourne,Victoria,Australia,30-04-2019,Pending
" steven",Stdolo068@bigpond.com,431393303,Brisbane,Queensland,Australia,30-04-2019,Pending
,,,Woollahra,"New South Wales",Australia,30-04-2019,
,,,Bondi,"New South Wales",Australia,30-04-2019,
,,,Prahran,Victoria,Australia,30-04-2019,
,,,Birkdale,Queensland,Australia,30-04-2019,
,,,Brisbane,Queensland,Australia,30-04-2019,
Lily,lovt67@yahoo.com,0,Sydney,"New South Wales",Australia,30-04-2019,Pending
,,,Sydney,"New South Wales",Australia,30-04-2019,
"Diane ",wolfching@gmail.com,0403093734,Dapto,"New South Wales",Australia,30-04-2019,Pending
,,,Brisbane,Queensland,Australia,30-04-2019,
Jodi,Jodimbrennan@gmail.com,0433930064,Coorparoo,Queensland,Australia,30-04-2019,Pending
,,,Sydney,"New South Wales",Australia,30-04-2019,
,,,Illawong,"New South Wales",Australia,30-04-2019,
,,,Rockdale,"New South Wales",Australia,30-04-2019,
,,,Brisbane,Queensland,Australia,30-04-2019,
,,,"Slacks Creek",Queensland,Australia,30-04-2019,
,,,"Double Bay","New South Wales",Australia,30-04-2019,
Duncan,dunc_rides@hotmail.com,0422925829,Sydney,"New South Wales",Australia,30-04-2019,Pending
,,,Brisbane,Queensland,Australia,30-04-2019,
,,,Glenroy,Victoria,Australia,30-04-2019,
,,,Melbourne,Victoria,Australia,30-04-2019,
,,,Petersham,"New South Wales",Australia,30-04-2019,
Elizabeth,bettynaumovska@gmail.com,O478576631,"Malvern East",Victoria,Australia,30-04-2019,Pending
,,,Drummoyne,"New South Wales",Australia,30-04-2019,
,,,Brisbane,Queensland,Australia,30-04-2019,
Atul,renukaandatul@yahoo.com.au,0401180424,"Clifton Hill",Victoria,Australia,30-04-2019,Pending
,,,Hawthorne,Queensland,Australia,30-04-2019,
,,,Brisbane,Queensland,Australia,30-04-2019,
,,,Coburg,Victoria,Australia,30-04-2019,
,,,Melbourne,Victoria,Australia,30-04-2019,
Cristina,0481052651@noemail.com,0481052651,Kippa-ring,Queensland,Australia,30-04-2019,Pending
,,,Melbourne,Victoria,Australia,30-04-2019,
,,,Leichhardt,"New South Wales",Australia,29-04-2019,
,,,Buderim,Queensland,Australia,29-04-2019,
,,,Kew,Victoria,Australia,29-04-2019,
,,,Brisbane,Queensland,Australia,29-04-2019,
,,,Mascot,"New South Wales",Australia,29-04-2019,
,,,Strathfield,"New South Wales",Australia,29-04-2019,
,,,Doveton,Victoria,Australia,29-04-2019,
,,,Melbourne,Victoria,Australia,29-04-2019,
,,,Melbourne,Victoria,Australia,29-04-2019,
James,0412932676@noemail.com,0412-932-676,Sydney,"New South Wales",Australia,29-04-2019,Pending
,,,Brisbane,Queensland,Australia,29-04-2019,
,,,"Kelvin Grove",Queensland,Australia,29-04-2019,
,,,Brisbane,Queensland,Australia,29-04-2019,
,,,Kew,Victoria,Australia,29-04-2019,
,,,"Kelvin Grove",Queensland,Australia,29-04-2019,
,,,Brisbane,Queensland,Australia,29-04-2019,
Sema,sema_pay@hotmail.com,"0410 638664",Murrumbeena,Victoria,Australia,29-04-2019,Pending
,,,Sydney,"New South Wales",Australia,29-04-2019,
,,,Narangba,Queensland,Australia,29-04-2019,
Angela,angela@hamptonsathome.com.au,0422790598,Thornton,"New South Wales",Australia,29-04-2019,Pending
Vivian,sussmanvivian@gmail.com,041265788,Umina,"New South Wales",Australia,29-04-2019,Pending
,,,Parramatta,"New South Wales",Australia,29-04-2019,
,,,Brisbane,Queensland,Australia,29-04-2019,
,,,Villawood,"New South Wales",Australia,29-04-2019,
Julie,impossibledragon@outlook.com,0404932226,Sydney,"New South Wales",Australia,29-04-2019,Pending
Ricky,ricky2081@gmail.com,"0414858406 ",Sunnybank,Queensland,Australia,29-04-2019,Pending
,,,"Surry Hills","New South Wales",Australia,29-04-2019,
,,,Padstow,"New South Wales",Australia,29-04-2019,
,,,Sydney,"New South Wales",Australia,29-04-2019,
,,,Deagon,Queensland,Australia,29-04-2019,
,,,Parramatta,"New South Wales",Australia,29-04-2019,
,,,Forestville,"New South Wales",Australia,29-04-2019,
,,,Padstow,"New South Wales",Australia,29-04-2019,
,,,Villawood,"New South Wales",Australia,29-04-2019,
,,,Melbourne,Victoria,Australia,29-04-2019,
,,,Ingleburn,"New South Wales",Australia,29-04-2019,
Tasneem,Tasneem_jahan@hotmail.com,0402116157,Sydney,"New South Wales",Australia,29-04-2019,Pending
,,,Melbourne,Victoria,Australia,29-04-2019,
,,,Sydney,"New South Wales",Australia,29-04-2019,
laura,lauracameron82@gmail.com,0430439175,"Glen Waverley",Victoria,Australia,29-04-2019,Pending
,,,Kensington,"New South Wales",Australia,29-04-2019,
ben,bennymegha@yahoo.co.uk,0,Lidcombe,"New South Wales",Australia,29-04-2019,Pending
,,,Melbourne,Victoria,Australia,29-04-2019,
,,,Melbourne,Victoria,Australia,29-04-2019,
,,,Mulgrave,Victoria,Australia,29-04-2019,
Susan,suzieshing@gmail.com,0417253333,Sydney,"New South Wales",Australia,29-04-2019,Pending
,,,Richmond,Victoria,Australia,29-04-2019,
Faith,faithcwhittaker@gmail.com,0,Brisbane,Queensland,Australia,29-04-2019,Pending
,,,Brisbane,Queensland,Australia,29-04-2019,
,,,Blacktown,"New South Wales",Australia,29-04-2019,
,,,"Chipping Norton","New South Wales",Australia,29-04-2019,
,,,"Chipping Norton","New South Wales",Australia,28-04-2019,
,,,Burwood,"New South Wales",Australia,28-04-2019,
,,,Melbourne,Victoria,Australia,28-04-2019,
Kristine,khanhvan_nguyen@yahoo.com.au,0409809911,Sydney,"New South Wales",Australia,28-04-2019,Pending
Francine,franwaz@bigpond.com,"0243584233 ","Macquarie Fields","New South Wales",Australia,28-04-2019,Pending
,,,"North Lakes",Queensland,Australia,28-04-2019,
,,,Brisbane,Queensland,Australia,28-04-2019,
,,,Bulimba,Queensland,Australia,28-04-2019,
,,,"Mount Waverley",Victoria,Australia,28-04-2019,
,,,"East Maitland","New South Wales",Australia,28-04-2019,
,,,"Seven Hills","New South Wales",Australia,28-04-2019,
,,,"Bateau Bay","New South Wales",Australia,28-04-2019,
Melissa,0414600231@noemail.com,"0414600231  ",Brisbane,Queensland,Australia,28-04-2019,Pending
Karlee,kshortus@gmail.com,0,Brisbane,Queensland,Australia,28-04-2019,Pending
,,,Doonside,"New South Wales",Australia,28-04-2019,
,,,Melbourne,Victoria,Australia,28-04-2019,
,,,Brisbane,Queensland,Australia,28-04-2019,
,,,Brisbane,Queensland,Australia,28-04-2019,
,,,Brisbane,Queensland,Australia,28-04-2019,
,,,Lawnton,Queensland,Australia,28-04-2019,
Gopi,gopi_awasthi@yahoo.com,0,Armadale,Victoria,Australia,28-04-2019,Pending
,,,"Box Hill",Victoria,Australia,28-04-2019,
,,,Sydney,"New South Wales",Australia,28-04-2019,
,,,,Queensland,Australia,28-04-2019,
,,,Melbourne,Victoria,Australia,28-04-2019,
,,,Canberra,"Australian Capital Territory",Australia,28-04-2019,
,,,Villawood,"New South Wales",Australia,28-04-2019,
,,,Brisbane,Queensland,Australia,28-04-2019,
,,,Belmore,"New South Wales",Australia,28-04-2019,
,,,Villawood,"New South Wales",Australia,28-04-2019,
,,,Belmore,"New South Wales",Australia,28-04-2019,
,,,"Gymea Bay","New South Wales",Australia,28-04-2019,
,,,Annerley,Queensland,Australia,28-04-2019,
,,,Melbourne,Victoria,Australia,28-04-2019,
Vik,vikash_lal1@bigpond.com,"0438 339 500",Cleveland,Queensland,Australia,28-04-2019,Pending
,,,Coburg,Victoria,Australia,28-04-2019,
,,,"Saint Kilda",Victoria,Australia,28-04-2019,
Justin,Justingabriele131@gmail.com,0413716620,Thornbury,Victoria,Australia,28-04-2019,Pending
,,,Rosebery,"New South Wales",Australia,28-04-2019,
,,,Rosebery,"New South Wales",Australia,28-04-2019,
,,,"Sandy Bay",Tasmania,Australia,28-04-2019,
,,,Ermington,"New South Wales",Australia,28-04-2019,
,,,Cranbourne,Victoria,Australia,28-04-2019,
,,,Richmond,Victoria,Australia,28-04-2019,
,,,Alfredton,Victoria,Australia,28-04-2019,
,,,Brisbane,Queensland,Australia,28-04-2019,
Kay,kaygoodwin@bigpond.com,0412420773,Brisbane,Queensland,Australia,28-04-2019,Pending
,,,Brisbane,Queensland,Australia,28-04-2019,
,,,"South Brisbane",Queensland,Australia,28-04-2019,
,,,Homebush,"New South Wales",Australia,28-04-2019,
Harshana,Ish.n.hush@gmail.com,0424839499,Melbourne,Victoria,Australia,28-04-2019,Pending
Chris,0431973670@noemail.com,0431973670,Caloundra,Queensland,Australia,28-04-2019,Pending
Chris,cmaralang51@gmail.com,0448646875,Homebush,"New South Wales",Australia,28-04-2019,Pending
,,,"West End",Queensland,Australia,28-04-2019,
Sunny,0430098025@noemail.com,0430098025,"Glen Iris",Victoria,Australia,28-04-2019,Pending
,,,Dapto,"New South Wales",Australia,28-04-2019,
Emma,emzy84@live.com.au,"0420 504 236",Southbank,Victoria,Australia,28-04-2019,Pending
Justine,0417793561@noemail.com,0417793561,Brisbane,Queensland,Australia,28-04-2019,Pending
Suzanne,0406187905@noemail.com,0406187905,"North Sydney","New South Wales",Australia,28-04-2019,Pending
,,,Brisbane,Queensland,Australia,28-04-2019,
,,,Sydney,"New South Wales",Australia,28-04-2019,
Volly,Kosovare16@hotmail.com,0431553252,Nunawading,Victoria,Australia,27-04-2019,Pending
Peter,Pete.popovski@gmail.com,"0422 662 978",Footscray,Victoria,Australia,27-04-2019,Pending
,,,Pyrmont,"New South Wales",Australia,27-04-2019,
,,,Nunawading,Victoria,Australia,27-04-2019,
,,,Melbourne,Victoria,Australia,27-04-2019,
" LJ. ",ljmichel@bigpond.com,0417713698,Cleveland,Queensland,Australia,27-04-2019,Pending
,,,"Caulfield North",Victoria,Australia,27-04-2019,
"Janine ",morgs22222@gmail.com,"0419558477 ",Nedlands,"Western Australia",Australia,27-04-2019,Pending
,,,Parramatta,"New South Wales",Australia,27-04-2019,
,,,Hawthorne,Queensland,Australia,27-04-2019,
,,,"Dulwich Hill","New South Wales",Australia,27-04-2019,
,,,Brighton,Victoria,Australia,27-04-2019,
,,,Southbank,Victoria,Australia,27-04-2019,
,,,"North Lakes",Queensland,Australia,27-04-2019,
Sash,dimibella.pty.ltd@gmail.com,0400062674,Melbourne,Victoria,Australia,27-04-2019,Pending
"Guy (wife is Mandy)",gstleger@bigginscott.com.au,"0411 861 666","Bentleigh East",Victoria,Australia,27-04-2019,Pending
Sandy,0421087616@noemail.com,0421087616,Brisbane,Queensland,Australia,27-04-2019,Pending
,,,Redbank,Queensland,Australia,27-04-2019,
,,,"Fitzroy North",Victoria,Australia,27-04-2019,
Nav,Luvnav@hotmail.com,0,Lakemba,"New South Wales",Australia,27-04-2019,Pending
Spiro,spiropetroulas@gmail.com,0450054899,Drummoyne,"New South Wales",Australia,27-04-2019,Pending
,,,Melbourne,Victoria,Australia,27-04-2019,
Shahid,0416799866@noemail.com,0416799866,Ryde,"New South Wales",Australia,27-04-2019,Pending
,,,Chatswood,"New South Wales",Australia,27-04-2019,
,,,Brisbane,Queensland,Australia,27-04-2019,
,,,Sydney,"New South Wales",Australia,27-04-2019,
,,,Melbourne,Victoria,Australia,27-04-2019,
,,,Homebush,"New South Wales",Australia,27-04-2019,
,,,Goodna,Queensland,Australia,27-04-2019,
,,,Jannali,"New South Wales",Australia,27-04-2019,
,,,"Neutral Bay","New South Wales",Australia,27-04-2019,
,,,Brisbane,Queensland,Australia,27-04-2019,
,,,Helensvale,Queensland,Australia,27-04-2019,
,,,Aspley,Queensland,Australia,27-04-2019,
,,,Brisbane,Queensland,Australia,27-04-2019,
Estelle,estelle.broekhuysen52@gmail.com,0402118857,"Eight Mile Plains",Queensland,Australia,27-04-2019,Pending
Mohan,mohan70@hotmail.com,"0416 686 540",Alphington,Victoria,Australia,27-04-2019,Pending
,,,Templestowe,Victoria,Australia,27-04-2019,
,,,Sydney,"New South Wales",Australia,27-04-2019,
,,,Ryde,"New South Wales",Australia,27-04-2019,
,,,Sydney,"New South Wales",Australia,27-04-2019,
"Margo ",0402755694@noemail.com,"0402755694 ",Fairfield,"New South Wales",Australia,27-04-2019,Pending
,,,Rowville,Victoria,Australia,27-04-2019,
,,,Melbourne,Victoria,Australia,27-04-2019,
,,,Blackburn,Victoria,Australia,26-04-2019,
,,,"Beverly Hills","New South Wales",Australia,26-04-2019,
Tuba,tubayalcin6@hotmail.com,0416187666,Ashfield,"New South Wales",Australia,26-04-2019,Pending
Helen,ghturner77@hotmail.com,0405755746,Ryde,"New South Wales",Australia,26-04-2019,Pending
,,,Caloundra,Queensland,Australia,26-04-2019,
,,,Melbourne,Victoria,Australia,26-04-2019,
,,,Melbourne,Victoria,Australia,26-04-2019,
"Chintan ",chintanjmodi@yahoo.com,0433921584,Tempe,"New South Wales",Australia,26-04-2019,Pending
,,,"Acacia Ridge",Queensland,Australia,26-04-2019,
,,,Toongabbie,"New South Wales",Australia,26-04-2019,
Chris,0405534976@noemail.com,0405534976,Sydney,"New South Wales",Australia,26-04-2019,Pending
,,,Brentford,Hounslow,"United Kingdom",26-04-2019,
,,,Thomastown,Victoria,Australia,26-04-2019,
,,,"Avoca Beach","New South Wales",Australia,26-04-2019,
,,,Erskineville,"New South Wales",Australia,26-04-2019,
Elita,elitamonterio1983@gmail.com,0424706224,Parramatta,"New South Wales",Australia,26-04-2019,Pending
,,,Strathfield,"New South Wales",Australia,26-04-2019,
,,,Bangkok,"Krung Thep",Thailand,26-04-2019,
,,,Elsternwick,Victoria,Australia,26-04-2019,
,,,Melbourne,Victoria,Australia,26-04-2019,
Cristina,0481052651@noemail.com,0481052651,Kippa-ring,Queensland,Australia,26-04-2019,Pending
Sue,sue.mclean69@gmail.com,"0481 318 363 ",Brisbane,Queensland,Australia,26-04-2019,Pending
,,,Concord,"New South Wales",Australia,26-04-2019,
Doris,Borgy21@live.com.au,0400188839,Cardigan,Victoria,Australia,26-04-2019,Pending
Sandra,sandragee@optusnet.com.au,0,Preston,Victoria,Australia,26-04-2019,Pending
,,,Toowoomba,Queensland,Australia,26-04-2019,
,,,Dandenong,Victoria,Australia,26-04-2019,
,,,Brisbane,Queensland,Australia,26-04-2019,
,,,Melbourne,Victoria,Australia,26-04-2019,
,,,Melbourne,Victoria,Australia,26-04-2019,
,,,"Neutral Bay","New South Wales",Australia,26-04-2019,
Aimee,aimeescaletti@hotmail.com,"0448891080 ","North Melbourne",Victoria,Australia,26-04-2019,Pending
,,,Elwood,Victoria,Australia,26-04-2019,
,,,Melbourne,Victoria,Australia,26-04-2019,
,,,Brisbane,Queensland,Australia,26-04-2019,
,,,Croydon,Victoria,Australia,26-04-2019,
,,,Bexley,"New South Wales",Australia,26-04-2019,
Carla,info@citysider.com.au,0,,,Australia,26-04-2019,Pending
,,,"Saint Ives","New South Wales",Australia,26-04-2019,
,,,Ryde,"New South Wales",Australia,26-04-2019,
Peter,pjtennyson@optusnet.com.au," 0421 335 365",Tarragindi,Queensland,Australia,26-04-2019,Pending
Kevin,Kevinjwilliams1967@gmail.com,0418625451,Northmead,"New South Wales",Australia,26-04-2019,Pending
,,,Brisbane,Queensland,Australia,26-04-2019,
Justine,moira_iaccarino@hotmail.com,0413202351,"Croydon North",Victoria,Australia,26-04-2019,Pending
Deepti,deepti.hegde@gmail.com,0403052178,Camden,"New South Wales",Australia,26-04-2019,Pending
,,,Brisbane,Queensland,Australia,26-04-2019,
Andrea,cagcstevens@gmail.com.au,0400316256,Hampton,Victoria,Australia,26-04-2019,Pending
MD,kamruzzamantitu@gmail.com,0449789467,Sydney,"New South Wales",Australia,26-04-2019,Pending
,,,Melbourne,Victoria,Australia,26-04-2019,
,,,Carnegie,Victoria,Australia,26-04-2019,
,,,Lonsdale,"South Australia",Australia,26-04-2019,
,,,Hawthorne,Queensland,Australia,26-04-2019,
You,0488117709@noemail.com,0488117709,Melbourne,Victoria,Australia,26-04-2019,Pending
,,,Melbourne,Victoria,Australia,26-04-2019,
,,,Brisbane,Queensland,Australia,25-04-2019,
,,,Parramatta,"New South Wales",Australia,25-04-2019,
,,,"North Sydney","New South Wales",Australia,25-04-2019,
,,,Cranbourne,Victoria,Australia,25-04-2019,
,,,"Hoppers Crossing",Victoria,Australia,25-04-2019,
,,,"New Farm",Queensland,Australia,25-04-2019,
ghaza,ghazalsaeed51@yahoo.com,0450094798,Armadale,Victoria,Australia,25-04-2019,Pending
,,,"North Sydney","New South Wales",Australia,25-04-2019,
,,,Parkdale,Victoria,Australia,25-04-2019,
,,,Sydney,"New South Wales",Australia,25-04-2019,
,,,Annandale,"New South Wales",Australia,25-04-2019,
,,,Sydney,"New South Wales",Australia,25-04-2019,
,,,Sydney,"New South Wales",Australia,25-04-2019,
,,,Rowville,Victoria,Australia,25-04-2019,
,,,Panania,"New South Wales",Australia,25-04-2019,
,,,Rowville,Victoria,Australia,25-04-2019,
Jan,janillden@hotmail.com,0,"Caulfield North",Victoria,Australia,25-04-2019,Pending
,,,Doha,"Ad Dawhah",Qatar,25-04-2019,
,,,Orange,"New South Wales",Australia,25-04-2019,
,,,Melbourne,Victoria,Australia,25-04-2019,
,,,Orange,"New South Wales",Australia,25-04-2019,
Steve,stevemun@hotmail.com,0448777806,Brighton,Victoria,Australia,25-04-2019,Pending
Ahsan,ahsan.r1984@gmail.com,0435558037,Rozelle,"New South Wales",Australia,25-04-2019,Pending
,,,Sydney,"New South Wales",Australia,25-04-2019,
,,,Southbank,Victoria,Australia,25-04-2019,
,,,Sydney,"New South Wales",Australia,25-04-2019,
,,,Melbourne,Victoria,Australia,25-04-2019,
,,,Truganina,Victoria,Australia,25-04-2019,
,,,Melbourne,Victoria,Australia,25-04-2019,
Gerrie,Gerrie.swift@hotmail.com,0410647910,Sydney,"New South Wales",Australia,25-04-2019,Pending
,,,Greenacre,"New South Wales",Australia,25-04-2019,
,,,"Sippy Downs",Queensland,Australia,25-04-2019,
,,,Parramatta,"New South Wales",Australia,25-04-2019,
,,,Petersham,"New South Wales",Australia,25-04-2019,
,,,Nambour,Queensland,Australia,25-04-2019,
Dan,dmam77@gmail.com,0408877645,Buderim,Queensland,Australia,25-04-2019,Pending
Test,test@noemail.com,0,Sydney,"New South Wales",Australia,25-04-2019,Pending
,,,Tullimbar,"New South Wales",Australia,25-04-2019,
Test,test@noemail.com,0,Sydney,"New South Wales",Australia,25-04-2019,Pending
,,,Sydney,"New South Wales",Australia,25-04-2019,
,,,Turramurra,"New South Wales",Australia,25-04-2019,
Test,test@noemail.com,0,Sydney,"New South Wales",Australia,25-04-2019,Pending
,,,Sydney,"New South Wales",Australia,25-04-2019,
,,,Paddington,"New South Wales",Australia,25-04-2019,
,,,Richmond,Victoria,Australia,25-04-2019,
,,,Melbourne,Victoria,Australia,25-04-2019,
,,,Tarragindi,Queensland,Australia,25-04-2019,
,,,Bondi,"New South Wales",Australia,25-04-2019,
Stella,0429518255@noemail.com,0429518255,Cringila,"New South Wales",Australia,25-04-2019,Rejected
Shekhar,shekhardv@hotmail.com,0478404507,"Neutral Bay","New South Wales",Australia,25-04-2019,Pending
,,,Sydney,"New South Wales",Australia,25-04-2019,
,,,Tullimbar,"New South Wales",Australia,25-04-2019,
,,,Fitzroy,Victoria,Australia,25-04-2019,
niaz,niazb@yahoo.com,deaf,Ballarat,Victoria,Australia,25-04-2019,Pending
,,,"Quakers Hill","New South Wales",Australia,25-04-2019,
,,,Bankstown,"New South Wales",Australia,25-04-2019,
,,,Paddington,"New South Wales",Australia,25-04-2019,
Raj,raj165be91@gmail.com,0421661371,"Quakers Hill","New South Wales",Australia,25-04-2019,Pending
,,,Strathfield,"New South Wales",Australia,25-04-2019,
,,,Incheon,Inch'on-jikhalsi,"Korea, Republic of",25-04-2019,
John,jcoliver.1@gmail.com,0,Balmain,"New South Wales",Australia,25-04-2019,Pending
Bruce,0439763153@noemail.com,0439763153,Brisbane,Queensland,Australia,25-04-2019,Pending
,,,Sydney,"New South Wales",Australia,25-04-2019,
Bright,Bright321@icloud.com,0433990244,Toowoomba,Queensland,Australia,25-04-2019,Pending
Elliott,elliottfinley@yahoo.com,"0412399166 ",Bondi,"New South Wales",Australia,25-04-2019,Pending
,,,Brisbane,Queensland,Australia,25-04-2019,
,,,Ryde,"New South Wales",Australia,25-04-2019,
,,,Marrickville,"New South Wales",Australia,25-04-2019,
,,,"Hoppers Crossing",Victoria,Australia,25-04-2019,
,,,Brisbane,Queensland,Australia,25-04-2019,
Lyn,qht1@bigpond.com,0477977447,Melbourne,Victoria,Australia,25-04-2019,Pending
,,,Sydney,"New South Wales",Australia,25-04-2019,
,,,"Surrey Hills",Victoria,Australia,25-04-2019,
,,,Annerley,Queensland,Australia,25-04-2019,
,,,Sunnybank,Queensland,Australia,25-04-2019,
,,,Melbourne,Victoria,Australia,25-04-2019,
,,,Toorak,Victoria,Australia,25-04-2019,
,,,Coburg,Victoria,Australia,24-04-2019,
,,,Burwood,"New South Wales",Australia,24-04-2019,
,,,Wollert,Victoria,Australia,24-04-2019,
,,,Brisbane,Queensland,Australia,24-04-2019,
,,,Brisbane,Queensland,Australia,24-04-2019,
,,,"Albion Park","New South Wales",Australia,24-04-2019,
,,,Incheon,Inch'on-jikhalsi,"Korea, Republic of",24-04-2019,
,,,Belfield,"New South Wales",Australia,24-04-2019,
,,,Sydney,"New South Wales",Australia,24-04-2019,
"Cheryl ",cheryl_rams@hotmail.com,0458939743,Heathmont,Victoria,Australia,24-04-2019,Pending
,,,Redbank,Queensland,Australia,24-04-2019,
,,,Haberfield,"New South Wales",Australia,24-04-2019,
,,,"Pascoe Vale",Victoria,Australia,24-04-2019,
,,,Rozelle,"New South Wales",Australia,24-04-2019,
,,,Kogarah,"New South Wales",Australia,24-04-2019,
,,,"Bellevue Hill","New South Wales",Australia,24-04-2019,
,,,"Bellevue Hill","New South Wales",Australia,24-04-2019,
,,,Sunnybank,Queensland,Australia,24-04-2019,
,,,Marrickville,"New South Wales",Australia,24-04-2019,
Bob,0406512121@noemail.com,0406512121,Langwarrin,Victoria,Australia,24-04-2019,Pending
,,,Melbourne,Victoria,Australia,24-04-2019,
Daniel,Daniel_hay@hotmail.com,0448904146,Tarneit,Victoria,Australia,24-04-2019,Pending
Pragya,pragyajoshi11@gmail.com,0430586801,Fairfield,Victoria,Australia,24-04-2019,Pending
,,,Melbourne,Victoria,Australia,24-04-2019,
,,,Brisbane,Queensland,Australia,24-04-2019,
Michael,mwilkins@collegians.com.au,"02 42298341",Sydney,"New South Wales",Australia,24-04-2019,Pending
Lisa,lisa.miri@gmail.com,0484278555,Melbourne,Victoria,Australia,24-04-2019,Pending
,,,Footscray,Victoria,Australia,24-04-2019,
,,,Brisbane,Queensland,Australia,24-04-2019,
,,,Rozelle,"New South Wales",Australia,24-04-2019,
,,,Melbourne,Victoria,Australia,24-04-2019,
Doreen,doreenbarnard83@gmail.com,0418227560,"South Brisbane",Queensland,Australia,24-04-2019,Pending
,,,Auburn,"New South Wales",Australia,24-04-2019,
,,,Cronulla,"New South Wales",Australia,24-04-2019,
,,,Melbourne,Victoria,Australia,24-04-2019,
Vivian,0419989323@noemail.com,0419989323,Reservoir,Victoria,Australia,24-04-2019,Pending
,,,Brisbane,Queensland,Australia,24-04-2019,
,,,Melbourne,Victoria,Australia,24-04-2019,
,,,Carlingford,"New South Wales",Australia,24-04-2019,
,,,"Neutral Bay","New South Wales",Australia,24-04-2019,
Brad,bradkay12@hotmail.com,0477157307,Melbourne,Victoria,Australia,24-04-2019,Pending
,,,Redbank,Queensland,Australia,24-04-2019,
,,,Melbourne,Victoria,Australia,24-04-2019,
,,,Chippendale,"New South Wales",Australia,24-04-2019,
,,,Melbourne,Victoria,Australia,24-04-2019,
,,,Redfern,"New South Wales",Australia,24-04-2019,
Chintan,chintanjmodi@yahoo.com,0433921584,Richmond,Victoria,Australia,24-04-2019,Pending
Maria,mariatasevska@yahoo.com,"042 02 654 01",Sydney,"New South Wales",Australia,24-04-2019,Pending
,,,Engadine,"New South Wales",Australia,24-04-2019,
,,,Hornsby,"New South Wales",Australia,24-04-2019,
Jae,ms.japneet@hotmail.com,04234527894,Pyrmont,"New South Wales",Australia,24-04-2019,Pending
,,,Strathfield,"New South Wales",Australia,24-04-2019,
,,,Brisbane,Queensland,Australia,24-04-2019,
,,,Newstead,Queensland,Australia,24-04-2019,
,,,Melbourne,Victoria,Australia,24-04-2019,
,,,Sunnybank,Queensland,Australia,24-04-2019,
Lody,0449537676@noemail.com,0449537676,Northmead,"New South Wales",Australia,24-04-2019,Pending
Ravin,ravinsingh12@yahoo.com,0420755936,"Neutral Bay","New South Wales",Australia,24-04-2019,Pending
,,,"North Sydney","New South Wales",Australia,24-04-2019,
,,,Westmead,"New South Wales",Australia,24-04-2019,
Jay,Jaysm10835@hotmail.com,0425446246,Brisbane,Queensland,Australia,24-04-2019,Rejected
,,,Greenslopes,Queensland,Australia,24-04-2019,
,,,Sydney,"New South Wales",Australia,24-04-2019,
,,,Melbourne,Victoria,Australia,24-04-2019,
Lindsay,lindsay.allan1953@gmail.com,0419270222,Camberwell,Victoria,Australia,24-04-2019,Pending
,,,"Ascot Vale",Victoria,Australia,24-04-2019,
Gabriel,geeelaw@gmail.com,0422477188,"North Sydney","New South Wales",Australia,24-04-2019,Pending
liny,shinupaul1980@yahoo.co.uk,0470262739,"Deception Bay",Queensland,Australia,24-04-2019,Pending
,,,Melbourne,Victoria,Australia,24-04-2019,
,,,Melbourne,Victoria,Australia,24-04-2019,
Chetan,itsmecram@gmail.com,0469051918,"Crows Nest","New South Wales",Australia,24-04-2019,Pending
,,,Brisbane,Queensland,Australia,24-04-2019,
,,,Brisbane,Queensland,Australia,24-04-2019,
,,,Bundoora,Victoria,Australia,24-04-2019,
,,,Thornlie,"Western Australia",Australia,23-04-2019,
,,,Heatherton,Victoria,Australia,23-04-2019,
,,,Sydney,"New South Wales",Australia,23-04-2019,
,,,Mitchelton,Queensland,Australia,23-04-2019,
Shubha,shubha68@gmail.com,0414861013,"Baulkham Hills","New South Wales",Australia,23-04-2019,Rejected
,,,Maribyrnong,Victoria,Australia,23-04-2019,
Test,test@noemail.com,0,Sydney,"New South Wales",Australia,23-04-2019,Pending
Test,test@noemail.com,0,Sydney,"New South Wales",Australia,23-04-2019,Pending
