"Business Name",Group,Greetings,"Total Chats","Total Leads","Chat To Lead %","Conversion Rate","Total Greeting Chats","Total Visitor Chats"
"Web Stack",2,292,6,4,66.67%,2.05%,2,0
"RSL Clinic",3,79864,3285,1586,48.28%,4.11%,2329,952
"Signage Melbourne",5,0,11,9,81.82%,,0,11
"Vic Tattoo Removal",7,1569,13,5,38.46%,0.83%,9,4
"Instant Laser Clinic",14,184415,3528,1685,47.76%,1.91%,2722,799
SculpSure,15,98082,1774,1068,60.20%,1.81%,1400,373
"Implant Dentist Melbourne",16,465,6,5,83.33%,1.29%,5,1
"Oxnia ",17,10701,3525,24,0.68%,32.94%,1164,2351
"SEO Rules",19,463,100,9,9.00%,21.60%,24,74
"HS Trucking",21,16,3,2,66.67%,18.75%,2,1
"My Medical Vacations",22,73001,1438,997,69.33%,1.97%,1175,258
"Oxnia Support",24,0,8,0,0.00%,,0,8
"Renude Laser",25,2309,24,19,79.17%,1.04%,18,6
"Test Chat For Employees",27,0,0,0,,,0,0
"Test Chat for Trainees (cynosure)",30,1,0,0,,0.00%,0,0
"Chat Metrics Client Demo",31,11,16,1,6.25%,145.45%,3,13
Bellovista,32,39,1,1,100.00%,2.56%,1,0
"Oxnia Training",33,0,48,10,20.83%,,0,48
360Energy,34,33375,470,340,72.34%,1.41%,408,58
"Silver & Wise",35,9080,95,9,9.47%,1.05%,17,78
Oxniachat.com,36,1927,68,19,27.94%,3.53%,38,29
"Xpert Logistics",37,143,5,3,60.00%,3.50%,1,4
"Steel Efficiency Review",38,9554,88,7,7.95%,0.92%,69,18
"Blue Scope Steel Supplies",39,11414,508,386,75.98%,4.45%,422,86
"Rio Deals",40,814,21,21,100.00%,2.58%,17,4
"Audio Express",41,0,0,0,,,0,0
"Industrial Ideas",42,6682,49,6,12.24%,0.73%,36,13
HRL,43,68688,1274,592,46.47%,1.85%,1032,242
FinPath,44,36705,126,54,42.86%,0.34%,101,22
"Nourish Baby",45,8170,71,2,2.82%,0.87%,57,13
Katana,46,0,0,0,,,0,0
"Beyond 19",47,31326,99,3,3.03%,0.32%,23,76
"High Dental",48,665,13,11,84.62%,1.95%,10,3
"Mentone Educational",52,148334,5845,2690,46.02%,3.94%,4558,1276
"Quickdash doc v2",53,0,2,0,0.00%,,0,2
"Mint Design",54,14737,332,202,60.84%,2.25%,271,60
"Band-It Australia",55,21945,654,441,67.43%,2.98%,557,97
APC,56,253250,3776,937,24.81%,1.49%,1935,1840
"Chat Metrics",57,15360,526,97,18.44%,3.42%,381,142
LilyJackson,58,1403,59,23,38.98%,4.21%,43,16
"Melbourne Brick",59,482153,10055,3281,32.63%,2.09%,8246,1804
HYOPR,61,11893,252,81,32.14%,2.12%,174,77
"Med Channel",62,14474,731,381,52.12%,5.05%,643,87
"Test training group",63,0,0,0,,,0,0
SignCepts,64,2312,44,22,50.00%,1.90%,43,1
"Business in Heels",65,43082,570,222,38.95%,1.32%,466,104
"Centenary Landscaping Supplies",66,53081,910,304,33.41%,1.71%,790,120
"Enviro Clean Australia",67,8601,480,67,13.96%,5.58%,395,85
QuotaFactory,68,0,0,0,,,0,0
"Rejuvenate Stays",69,2077,30,6,20.00%,1.44%,24,6
"ClearPathHQ (CP)",71,0,0,0,,,0,0
"CP - River Bluff Cabins (RBC) ",72,0,0,0,,,0,0
"Victory Blinds",73,346460,6817,2552,37.44%,1.97%,5034,1780
"My Global Wifi",74,0,0,0,,,0,0
"Australian Laser & Skin Clinics",75,428026,9138,2477,27.11%,2.13%,7134,1950
Hussh,76,148259,3337,23,0.69%,2.25%,2274,1062
"Instant Dental Cosmetic",77,14474,236,77,32.63%,1.63%,174,62
"SEO RULES TEST",78,0,7,3,42.86%,,0,6
"Maintain X",79,1022,8,2,25.00%,0.78%,6,2
"Guide Dogs",80,216372,9313,254,2.73%,4.30%,6502,2802
"ProJudicata ",81,0,0,0,,,0,0
"Your Digital Agency",82,2263,18,2,11.11%,0.80%,13,5
"Builders Academy Australia",83,276838,6978,2254,32.30%,2.52%,5789,1186
"Test Group",84,0,0,0,,,0,0
"Staffing Industry Metrics",85,16403,113,13,11.50%,0.69%,67,46
"Law Offices of Allen Farshi ",86,0,0,0,,,0,0
"Out in the Clouds",87,3588,49,2,4.08%,1.37%,23,26
"Evolve Fitness",88,642,23,7,30.43%,3.58%,19,4
"Pioneer Water Tanks",89,47253,999,367,36.74%,2.11%,817,181
" convert promo",90,2345,92,20,21.74%,3.92%,60,32
"Pitt & Sherry",91,14632,368,63,17.12%,2.52%,325,43
"Perfectly Smooth",92,8908,207,37,17.87%,2.32%,142,65
"The Plato Project",93,37361,506,92,18.18%,1.35%,410,94
"Sensis Australia",94,306609,16194,1477,9.12%,5.28%,13587,2603
"ABI Interiors",95,324487,4007,1464,36.54%,1.23%,2936,1070
SUMO,97,118855,14734,4542,30.83%,12.40%,9876,4852
Ranbuild,100,672953,8997,4837,53.76%,1.34%,7948,1044
"JO Plumbing",101,3044,86,36,41.86%,2.83%,60,26
http://signage-melbourne.com.au/,123,0,21,15,71.43%,,0,21
"Social Media Marketing Institute",124,14389,91,12,13.19%,0.63%,70,21
palchatmetrics,125,0,0,0,,,0,0
"Futures Strategy",126,530,3,0,0.00%,0.57%,3,0
"1800 FLOOD",127,483,2,1,50.00%,0.41%,2,0
"PD Training",128,13255,446,148,33.18%,3.36%,383,63
TestMate,129,146,13,0,0.00%,8.90%,4,9
"Alpha Paintings",130,875,9,0,0.00%,1.03%,5,4
SpotED,131,20052,1445,477,33.01%,7.21%,1099,346
"Amber Tiles",132,31097,784,231,29.46%,2.52%,647,137
G-Store,133,191179,3661,863,23.57%,1.91%,2999,662
"EPC Solar",134,3328,101,21,20.79%,3.03%,68,33
CleanFX,135,0,0,0,,,0,0
"My FootDr",136,144560,4891,1005,20.55%,3.38%,4018,872
Zevra,137,827,67,27,40.30%,8.10%,49,18
"Top Gun",138,9795,84,8,9.52%,0.86%,46,38
Honee,139,430,29,2,6.90%,6.74%,16,13
"St Peters International College",140,1233,50,13,26.00%,4.06%,43,7
"Box Hill",141,574,122,33,27.05%,21.25%,78,44
Programmed,142,490,22,2,9.09%,4.49%,16,6
"Web Marketing ROI",143,193,6,0,0.00%,3.11%,3,3
ECA,144,30173,1002,100,9.98%,3.32%,710,292
"College for Adult Learning",145,14633,703,254,36.13%,4.80%,591,112
Pipestry,146,5551,53,13,24.53%,0.95%,42,11
"Fitness Institute",147,31274,1079,188,17.42%,3.45%,827,250
"Konica Minolta",148,3730,336,37,11.01%,9.01%,238,98
pppal,150,0,0,0,,,0,0
"Jims Sales Contract",152,0,1,0,0.00%,,0,1
"Enervest ",153,571,27,5,18.52%,4.73%,23,4
"Mentor Education",154,0,0,0,,,0,0
"IELTS Advantage",155,0,98,18,18.37%,,18,80
"Dental Assisting Institute",156,710,11,3,27.27%,1.55%,9,2
"Lower Hutt Events Centre",157,0,0,0,,,0,0
