Darshan,darshanmehta1@yahoo.com,Kew,"Not Set",Victoria,Australia,05-04-2018,Pending
Amon,amonkiboss@gmail.com,Melbourne,"Not Set",Victoria,Australia,05-04-2018,Pending
Susan,phosana23@gmail.com,"Rooty Hill","Not Set","New South Wales",Australia,04-04-2018,Pending
Yoosuf,yoosuf3@yahoo.co.uk,Redan,"Not Set",Victoria,Australia,04-04-2018,Pending
Jacob,jacobphilippulpara@gmail.com,Cochin,"Not Set",Kerala,India,03-04-2018,Pending
You,nourabaalbaky@hotmail.com,Terrigal,"Not Set","New South Wales",Australia,02-04-2018,Pending
Ayesha,ayeshanadeem22@gmail.com,Cheltenham,"Not Set",Victoria,Australia,02-04-2018,Pending
Rebecca,bec@machinescreenprinters.com.au,Greensborough,"Not Set",Victoria,Australia,01-04-2018,Pending
Ibrahim,ibrahimcentral@hotmail.com,Muscat,"Not Set",Masqat,Oman,30-03-2018,Pending
Naomi,naomi.vos@bigpond.com,,"Not Set","New South Wales",Australia,28-03-2018,Pending
Richie,0405206165@noemail.com,Ingleburn,"Not Set","New South Wales",Australia,27-03-2018,Pending
Sara,ssbaniadam@gmail.com,Tehran,"Not Set",Tehran,"Iran, Islamic Republic of",26-03-2018,Pending
Daniel,Contact@oikotec.com.au,Glenroy,"Not Set",Victoria,Australia,25-03-2018,Pending
Amanda,0404643250@noemail.com,Parramatta,"Not Set","New South Wales",Australia,25-03-2018,Pending
Dean,dean.leary@auspost.com.au,Melbourne,"Not Set",Victoria,Australia,23-03-2018,Pending
