M*,mel***@hotmail.com,Fairfield,"Not Set",Victoria,Australia,27-02-2018,Pending
Dan***,danielme********@gmail.com,"South Melbourne","Not Set",Victoria,Australia,27-02-2018,Pending
K*,katheri*******@gmail.com,"Ferntree Gully","Not Set",Victoria,Australia,26-02-2018,Pending
Ashl****,ash***@hotmail.com,Melbourne,"Not Set",Victoria,Australia,26-02-2018,Pending
Moh***,mohame******@outlook.com,Elsternwick,"Not Set",Victoria,Australia,26-02-2018,Pending
Jes***,melbour*******@gmail.com,"Brunswick East","Not Set",Victoria,Australia,26-02-2018,Pending
On**,Diese*****@hotmail.com,"Pascoe Vale","Not Set",Victoria,Australia,26-02-2018,Pending
Ka**,katiab******@gmail.com,Hawthorn,"Not Set",Victoria,Australia,26-02-2018,Pending
Kar***,karina.*******@gmail.com,Reservoir,"Not Set",Victoria,Australia,25-02-2018,Pending
Ci**,Ccha****@gmail.com,"Brunswick East","Not Set",Victoria,Australia,25-02-2018,Pending
Em**,Waver*****@outlook.com,Melbourne,"Not Set",Victoria,Australia,25-02-2018,Pending
Hari****,hari****@gmail.com,Melbourne,"Not Set",Victoria,Australia,25-02-2018,Pending
Caro****,caro****@hotmail.com,"Clifton Hill","Not Set",Victoria,Australia,25-02-2018,Pending
Jes***,Jessica.********@hotmail.com,Valencia,"Not Set","Comunidad Valenciana",Spain,24-02-2018,Pending
Patr****,patric******@hotmail.com,Brunswick,"Not Set",Victoria,Australia,24-02-2018,Pending
Sal***,Sbati*****@gmail.com,Melbourne,"Not Set",Victoria,Australia,23-02-2018,Pending
Na**,ncri****@hotmail.com,Coburg,"Not Set",Victoria,Australia,23-02-2018,Pending
Vane****,ness****@optusnet.com.au,Burnley,"Not Set",Victoria,Australia,23-02-2018,Pending
Ju**,juliesha********@hotmail.com,Hawthorn,"Not Set",Victoria,Australia,23-02-2018,Pending
Chri****,Xo**@live.com.au,"South Yarra","Not Set",Victoria,Australia,22-02-2018,Pending
Min***,sonmin******@gmail.com,"Clifton Hill","Not Set",Victoria,Australia,22-02-2018,Pending
Li**,Lisalang********@gmail.com,Sydney,"Not Set","New South Wales",Australia,22-02-2018,Pending
Ki**,Kimka*****@hotmail.com,Brunswick,"Not Set",Victoria,Australia,22-02-2018,Pending
Da**,Danielav********@yahoo.com,Amsterdam,"Not Set",Noord-Holland,Netherlands,22-02-2018,Pending
li**,liam.*****@gmail.com,"Moonee Ponds","Not Set",Victoria,Australia,21-02-2018,Pending
Kee***,keenanga********@outlook.com,Docklands,"Not Set",Victoria,Australia,21-02-2018,Pending
Me**,gemini******@gmail.com,"Ascot Vale","Not Set",Victoria,Australia,21-02-2018,Pending
Hamz****,gg**@gmail.com,Springvale,"Not Set",Victoria,Australia,21-02-2018,Pending
