"Richard ",rfinance123@outlook.com,0431716525,Buderim,Queensland,Australia,01-07-2019,Pending
Renee,reneetaihia@gmail.com,"0405 665 644",Brisbane,Queensland,Australia,01-07-2019,Pending
"Michael Tastard",michaeltastard@yahoo.com,"042 988 7583",Sydney,"New South Wales",Australia,01-07-2019,Pending
Kay,wazz.kay@bigpond.net.au,0409892795,Cairns,Queensland,Australia,30-06-2019,Pending
"Rachel ",kiwigirl1966@hotmail.com,"0410 828 493",Yatala,Queensland,Australia,29-06-2019,Pending
Lavannya,lavyrox@yahoo.com,0425301954,Thornleigh,"New South Wales",Australia,28-06-2019,Pending
"Mark ",0419226130@noemail.com,0419226130,"East Brisbane",Queensland,Australia,28-06-2019,Pending
"Ashok ",Ashok_nri@yahoo.co.in,0433452448,Sydney,"New South Wales",Australia,28-06-2019,Pending
Rosanne,rp05@bigpond.com," 0419553006",Brisbane,Queensland,Australia,28-06-2019,Pending
"Leigh ",leibi.leibi@gmail.com," 0412679305","New Farm",Queensland,Australia,28-06-2019,Pending
"Philip ",jakodi@bigpond.com,0427010983,"Mount Cotton",Queensland,Australia,28-06-2019,Pending
"Judy Lavery",judyllavery@gmail.com,"0403662268 ",Melbourne,Victoria,Australia,27-06-2019,Pending
"Tracy ",alanandtracy@optusnet.com.au,"0451808355 ",Balmain,"New South Wales",Australia,27-06-2019,Pending
Kerry,kerryleigh235@hotmail.com,"0410287915 ",Brisbane,Queensland,Australia,26-06-2019,Pending
"Brooke ",0429033927@noemail.com,+61429033927,"Bentleigh East",Victoria,Australia,26-06-2019,Pending
Audrey,feryaudrey@hotmail.fr,"0401 469 706",Mandurah,"Western Australia",Australia,26-06-2019,Pending
Ritchelle,Ice_cream_21ph@yahoo.com,0401374181,Croydon,"New South Wales",Australia,25-06-2019,Pending
Linda,Linda.a.laycock@gmail.com,0407882666,Adelaide,"South Australia",Australia,25-06-2019,Pending
"Stephen ",stevepmoore@gmail.com,0424755443,Sydney,"New South Wales",Australia,25-06-2019,Pending
"William ",willytippit@bigpond.com,0418772633,"South Brisbane",Queensland,Australia,25-06-2019,Pending
"Audrey ",audrey.wang4@gmail.com,0451139261,Sydney,"New South Wales",Australia,24-06-2019,Pending
"Hayley Louise",hayls1975@gmail.com,0458058661,"Endeavour Hills",Victoria,Australia,24-06-2019,Pending
Amelia,akgallo@yahoo.com,0432690053,"North Lakes",Queensland,Australia,23-06-2019,Pending
Rosa,rosahlena@gmail.com," 0429 567 037 ",Brisbane,Queensland,Australia,23-06-2019,Pending
"Christopher james",dogahog50@gmail.com,0407730477,,Queensland,Australia,23-06-2019,Pending
Jennifer,weeyin1409@gmail.com,0414204290,Tarragindi,Queensland,Australia,22-06-2019,Pending
Dakota,ChinaBell83@hotmail.com,"0409686617 ",Yeronga,Queensland,Australia,22-06-2019,Pending
LYN,lyn.les8@bigpond.com,0419919843,Wembley,"Western Australia",Australia,22-06-2019,Pending
"Peter ",peter_4114@hotmail.com,0423951916,Brisbane,Queensland,Australia,20-06-2019,Pending
Tania,tjsor@hotmail.com,"0427233900 ",Adelaide,"South Australia",Australia,20-06-2019,Pending
"Bailey Harvie",baileyharvie98@gmail.com,"0400503526 ",Ballarat,Victoria,Australia,19-06-2019,Pending
Christopher,chris.merrington@hotmail.com,0412281770,Perth,"Western Australia",Australia,18-06-2019,Pending
Susana,Terrie1982@yahoo.com,0423501083,Goodna,Queensland,Australia,17-06-2019,Pending
marty,Verticallimits21@gmail.com,0417286949,Pimpama,Queensland,Australia,17-06-2019,Pending
" Pamela ",pc.martin@live.com.au,"0433655773 ",Australind,"Western Australia",Australia,17-06-2019,Pending
Moira,moizee68@gmail.com,0400756181,Brisbane,Queensland,Australia,17-06-2019,Pending
"Robyn Joy ",Robynjones59@icloud.com,0451848720,Brisbane,Queensland,Australia,17-06-2019,Pending
Jamie,millsavings@gmail.com,0499746805,Brisbane,Queensland,Australia,17-06-2019,Pending
Susan,susanjanssen@bigpond.com,"0447757032 ",Frankston,Victoria,Australia,16-06-2019,Pending
"Jake ",jaketriffett@outlook.com,"0437075713 ","Logan Village",Queensland,Australia,15-06-2019,Pending
"Kirsty ",kirsty.lee08@hotmail.com,"0402609022 ",Bulimba,Queensland,Australia,14-06-2019,Pending
Ed,vallesta@yahoo.com.au,0490181878,Auburn,"New South Wales",Australia,14-06-2019,Pending
"Ben ",0407714332@noemail.com,"0407 714 332",Strathalbyn,"South Australia",Australia,14-06-2019,Pending
Shirley,sjamessharry@bne.catholic.edu.au,"0403018567 ",Brisbane,Queensland,Australia,12-06-2019,Pending
Tony,ttroberts66@yahoo.com.au,"0408 983733 ","Caulfield North",Victoria,Australia,12-06-2019,Pending
nathan,josefina@murphyandassociates.com.au,"0417806076 ",Palmerston,"Northern Territory",Australia,12-06-2019,Pending
"Vera ",vera.l.rankine@gmail.com,0474757668,Adelaide,"South Australia",Australia,12-06-2019,Pending
"Able Wong ",ablewongtsaijing@gmail.com,0445677349,Brighton,Queensland,Australia,12-06-2019,Pending
"Trevor ",trevor@mnde.com.au,0438223235,Townsville,Queensland,Australia,12-06-2019,Pending
Paula,archy5762@yahoo.com,0412458121,Aspley,Queensland,Australia,11-06-2019,Pending
Hayley,hayley.thrum@hotmail.com,0400836328,"New Farm",Queensland,Australia,11-06-2019,Pending
Brian,0409076085@noemail.com,0409076085,Rothwell,Queensland,Australia,11-06-2019,Pending
Marlene,Marlen_jara@hotmail.com,"0434592610 ",Hobart,Tasmania,Australia,10-06-2019,Pending
"Christine ",christine@blackowl.com,"0417142227 ",Ballarat,Victoria,Australia,10-06-2019,Pending
Marta,martha.cream.23@gmail.com,0431955555,Brisbane,Queensland,Australia,10-06-2019,Pending
"Aria ",charline.mitchener@ausure.com.au,0433707696,Bethania,Queensland,Australia,10-06-2019,Pending
"Audrey ",audrey.wang4@gmail.com,"0451 139 261",Homebush,"New South Wales",Australia,09-06-2019,Pending
Bronwyn,clarkeking2000@hotmail.com,0450964429,Ipswich,Queensland,Australia,08-06-2019,Pending
"Brooke ",nataliehanley1986@gmail.com,0408588087,Hobart,Tasmania,Australia,08-06-2019,Pending
"jon ",cover@gmail.com,0,,"Western Australia",Australia,08-06-2019,Pending
"Julie ",juliecoates@logan.qld.gov.au,"0411 869 060 ",Kingston,Queensland,Australia,07-06-2019,Pending
"Tracy ",tracywah@iinet.net.au,0414596717,Brisbane,Queensland,Australia,07-06-2019,Pending
Clarence,cjcornelius1@bigpond.com,"0754640525 ",Yeronga,Queensland,Australia,06-06-2019,Pending
"Xiajing ",carolinejing@qq.com,"0415477798 ",Nakara,"Northern Territory",Australia,06-06-2019,Pending
Margaret,0412655460@noemail.com,"0412 655 460",Hawthorn,Victoria,Australia,06-06-2019,Pending
Belinda,belind16@live.com.au,0406786284,Brisbane,Queensland,Australia,06-06-2019,Pending
Nicole,nbrown1969@gmail.com,0424192023,Ryde,"New South Wales",Australia,06-06-2019,Pending
stephen,stephen.edhouse@gmail.com,"0402 525 724",Brisbane,Queensland,Australia,04-06-2019,Pending
Lina,0409977287@noemail.com,0409977287,Footscray,Victoria,Australia,04-06-2019,Pending
David,david.smith@cdu.edu.au,0408728717,Darwin,"Northern Territory",Australia,03-06-2019,Pending
"kellie ",k4kellie76@hotmail.com,0414916868,Sydney,"New South Wales",Australia,03-06-2019,Pending
Yasmine,yassyfordyce@bigpond.com,0423903951,Brisbane,Queensland,Australia,02-06-2019,Pending
Samantha,samdikkenberg@gmail.com,0428436714,Melbourne,Victoria,Australia,02-06-2019,Pending
