paramjit,paramjitsinghs@ymail.com,Craigieburn,Victoria,Australia,24-09-2018,Pending
Ashleigh,lunneya@outlook.com,Thornlands,Queensland,Australia,24-09-2018,Pending
Tina,andalibitina@gmail.com,Sydney,"New South Wales",Australia,24-09-2018,Pending
Cenon,ccolocado@hotmail.com,Sydney,"New South Wales",Australia,24-09-2018,Pending
"Salim ",salim_elkassir2000@hotmail.com,Sydney,"New South Wales",Australia,23-09-2018,Pending
"Mark ",markrueben@gmail.com,Kew,Victoria,Australia,23-09-2018,Pending
"Swaran ",Sonu.toor@ymail.com,Melbourne,Victoria,Australia,23-09-2018,Pending
"Ali ",Aliveboy_67@yahoo.com,"Caulfield North",Victoria,Australia,22-09-2018,Pending
Reza,vahdani.rezaya@gmail.com,Hawthorn,Victoria,Australia,22-09-2018,Pending
Gobinda,gobinda1269@gmail.com,Melbourne,Victoria,Australia,22-09-2018,Pending
Anil,smilearchitect@me.com,Melbourne,Victoria,Australia,22-09-2018,Pending
You,Ryan.Greeen.606@gmail.com,Brisbane,Queensland,Australia,21-09-2018,Pending
Rob,r0blim@hotmail.com,Balaclava,Victoria,Australia,21-09-2018,Pending
Vahe,Vvkpainting@hotmail.com,Burwood,Victoria,Australia,20-09-2018,Pending
Velid,velid.osm@hotmail.com,Dandenong,Victoria,Australia,19-09-2018,Pending
Abdul,rahmansyed8@gmail.com,Ormond,Victoria,Australia,19-09-2018,Pending
