Rodney,rodneyrodrigues1610@gmail.com,"Upper Coomera",Queensland,Australia,14-01-2019,Pending
Nathan,admin@urbanstudent.com,Leopold,Victoria,Australia,13-01-2019,Pending
"Lucia ",lcmfagundes@gmail.com,"Oakleigh East",Victoria,Australia,11-01-2019,Pending
Berry,tenghuan5@hotmail.com,Melbourne,Victoria,Australia,11-01-2019,Pending
Mabel,olatejumabe@yahoo.com,Lakemba,"New South Wales",Australia,11-01-2019,Pending
lorena,Liseth-t01@hotmail.com,Blacktown,"New South Wales",Australia,09-01-2019,Pending
"Vishal ",vishu8249@gmail.com,Brisbane,Queensland,Australia,09-01-2019,Pending
Thays,tfacure@gmail.com,Paddington,"New South Wales",Australia,09-01-2019,Pending
Daniella,info@mottinternational.com,"South Brisbane",Queensland,Australia,08-01-2019,Pending
Ebony,ebonybeby@gmail.com,Ultimo,"New South Wales",Australia,08-01-2019,Pending
aravind,chamalaaravind@gmail.com,Townsville,Queensland,Australia,07-01-2019,Pending
"Yurina ",hayashi.yurina@gmail.com,Southbank,Victoria,Australia,07-01-2019,Pending
Arnaldo,wesselka@hotmail.com,Erskineville,"New South Wales",Australia,07-01-2019,Pending
"Rojjanus (Rojer)",earth_rojjanus@hotmail.com,Marrickville,"New South Wales",Australia,07-01-2019,Pending
"adnan ",adnansegi20@yahoo.com,,"New South Wales",Australia,07-01-2019,Pending
"Mehdi ",Mehdihassan_pce@yahoo.co.in,Melbourne,Victoria,Australia,06-01-2019,Pending
"Mizanur ",Mr89344@gmail.com,Alexandria,"New South Wales",Australia,06-01-2019,Pending
Delia,pd1807@hotmail.com,"Hoppers Crossing",Victoria,Australia,03-01-2019,Pending
anthony,antoe30@live.ie,Sydney,"New South Wales",Australia,03-01-2019,Pending
Ekateria,e-dedova@bk.ru,"Fitzroy North",Victoria,Australia,03-01-2019,Pending
"Gregory ",hornibrookg@gmail.com,Sydney,"New South Wales",Australia,02-01-2019,Pending
"Amarbayasgalan ",amarbayasgalan.gantumur@gmail.com,Parramatta,"New South Wales",Australia,01-01-2019,Pending
Rajith,asantha.rajith@gmail.com,Ashfield,"New South Wales",Australia,31-12-2018,Pending
SEOJUN,choibom012@gmail.com,Sydney,"New South Wales",Australia,30-12-2018,Pending
Anne,annecimafranca@hotmail.com,Haymarket,"New South Wales",Australia,28-12-2018,Pending
Fred,fred13632587@gmail.com,Melbourne,Victoria,Australia,23-12-2018,Pending
Jay,jpanchal7561@gmail.com,Lidcombe,"New South Wales",Australia,22-12-2018,Pending
taps,tapiwa.sithole09@gmail.com,Rydalmere,"New South Wales",Australia,21-12-2018,Pending
Acya,ayca@studyexpo.com,Istanbul,Istanbul,Turkey,19-12-2018,Pending
Ahmed,ahmedalimech1@gmail.com,Fiddletown,"New South Wales",Australia,19-12-2018,Pending
Samantha,sam.hcross@gmail.com,"Ferntree Gully",Victoria,Australia,19-12-2018,Pending
Ahmed,0450911044@noemail.com,Cardiff,"New South Wales",Australia,19-12-2018,Pending
Julieta,julieta.lizarraga@hotmail.com,"Buenos Aires","Distrito Federal",Argentina,19-12-2018,Pending
Vinicius,vinicius@dr.com,"Ribeirao Preto","Sao Paulo",Brazil,19-12-2018,Pending
