marie,mzaro@naphl.com.au,Townsville,Queensland,Australia,02-01-2019,Pending
"Diane ",frankanddi@gmail.com,Maudsland,Queensland,Australia,02-01-2019,Approved
Neil,njleek56@gmail.com,"Mclaren Vale","South Australia",Australia,02-01-2019,Approved
Carmel,Carmel.poles@gmail.com,Gosford,"New South Wales",Australia,02-01-2019,Pending
Elly,edesmarchelier14@gmail.com,"West End",Queensland,Australia,02-01-2019,Pending
"Peta ",Pvers1@eq.edu.au,Brisbane,Queensland,Australia,02-01-2019,Pending
"Christalla ",0421762493@noemail.com,Brisbane,Queensland,Australia,02-01-2019,Approved
Katie,kato_the_blonde@hotmail.com,Brisbane,Queensland,Australia,01-01-2019,Approved
Winfried,wunschw@arcor.de,Hobart,Tasmania,Australia,01-01-2019,Pending
"Narelle ",nelliejo23@gmail.com,"North Sydney","New South Wales",Australia,01-01-2019,Pending
Adrian,ahunt@cardijn.catholic.edu.au,Norwood,"South Australia",Australia,31-12-2018,Approved
Bec,becdenehy@gmail.com,Pomona,Queensland,Australia,31-12-2018,Approved
Divya,dvya0903@gmail.com,"Noble Park",Victoria,Australia,31-12-2018,Approved
Julie,mikanick48@gmail.com,Blacktown,"New South Wales",Australia,30-12-2018,Pending
Vivien,viviennovak@gmail.com,Rochedale,Queensland,Australia,30-12-2018,Approved
Irfan,peerzada77@gmail.com,"Hunters Hill","New South Wales",Australia,29-12-2018,Pending
Ruwani,ruweeb@gmail.com,Melbourne,Victoria,Australia,29-12-2018,Rejected
Josephine,galeaj2018@gmail.com,Brisbane,Queensland,Australia,28-12-2018,Approved
Danny,danny.pangrazio@bigpond.com,"Wellington Point",Queensland,Australia,28-12-2018,Pending
"Eamon John ",eamon.hannan@gmail.com,Brisbane,Queensland,Australia,28-12-2018,Approved
"Judi ",cdjacalcino@yahoo.com.au,Springfield,Queensland,Australia,28-12-2018,Approved
Annette,Annette@cowboysleagues.com.au,Townsville,Queensland,Australia,28-12-2018,Pending
Tabatha,Tabatha.willis@outlook.com,Brisbane,Queensland,Australia,28-12-2018,Pending
You,0411245055@noemail.com,Perth,"Western Australia",Australia,27-12-2018,Approved
Marjie,0419185645@noemail.com,Brisbane,Queensland,Australia,27-12-2018,Pending
