Shane,seage114@live.Com,0490458576,Coorparoo,Queensland,Australia,05-08-2019,Pending
"Nathan ",nathan.j.kell@outlook.com,0413739875,Alexandria,"New South Wales",Australia,05-08-2019,Pending
" Racquel ",racqueltwigg@hotmail.com,0,"Pennant Hills","New South Wales",Australia,05-08-2019,Pending
Christine,matison@bigpond.com,0427555256,Townsville,Queensland,Australia,04-08-2019,Pending
Christine,matison@bigpond.com,0427555256,Townsville,Queensland,Australia,04-08-2019,Pending
James,jimaz2003@yahoo.com.au,0434149840,Allawah,"New South Wales",Australia,03-08-2019,Rejected
"Colleen Clare ",ncsutton@optusnet.com.au,0419787056,Brisbane,Queensland,Australia,03-08-2019,Approved
Tania,mcsmiff@bigpond.com,"08 8327 0667",Adelaide,"South Australia",Australia,03-08-2019,Pending
"Andrea Angelica Alfaro ",dantehdzclaret@gmail.com,0406105972,Chatswood,"New South Wales",Australia,03-08-2019,Pending
"Don ",donnalddagg@bigpond.com,0407623580,"South Brisbane",Queensland,Australia,02-08-2019,Pending
Stefan,smujdric@bigpond.net.au,"0448 141 613",Wynnum,Queensland,Australia,02-08-2019,Pending
" Isobelle ",robert_isobelle@optusnet.com.au,0413996149,Toongabbie,"New South Wales",Australia,02-08-2019,Approved
"Mary ",maryhorgan4@icloud.com,0438301556,Tingalpa,Queensland,Australia,02-08-2019,Pending
"Maria ",mariafornito69@gmail.com,"0433 599600",Westmead,"New South Wales",Australia,02-08-2019,Pending
"Gilda ",gildamaria@tpg.com.au,0423219621,Moorooka,Queensland,Australia,02-08-2019,Pending
"Vo Nguyen",vienphuong71287@gmail.com,0425237982,"Saint Ives","New South Wales",Australia,01-08-2019,Pending
"Oday ",oday.hasan@justbettercare.com,0431034517,Manly,"New South Wales",Australia,01-08-2019,Pending
Xanthe,thunderstruck693@gmail.com,0403677229,Dubbo,"New South Wales",Australia,01-08-2019,Approved
Daiya,daiyasato@gmail.com,0413-788-381,Banyo,Queensland,Australia,01-08-2019,Approved
Robert,April_Delgado@hotmail.com,"0430 237 955",Sydney,"New South Wales",Australia,31-07-2019,Approved
Vicki,dlweir@live.com.au,"0438341923 ",Brisbane,Queensland,Australia,31-07-2019,Pending
"Richard ",ricnan@bigpond.net.au,0438124540,"South Brisbane",Queensland,Australia,31-07-2019,Approved
"Jasmine ",singhanu703@gmail.com,0431452814,Homebush,"New South Wales",Australia,31-07-2019,Pending
"Elizabeth Julie ",joozams_22@yahoo.com.au," 0413518247","Forest Lake",Queensland,Australia,31-07-2019,Pending
"scott ",scottpoke@live.com,0459378636,"South Melbourne",Victoria,Australia,31-07-2019,Approved
Vera,vera_krsmanovic@yahoo.com,0468791079,Perth,"Western Australia",Australia,31-07-2019,Rejected
"Daniel ",madonigan@hotmail.com,0404118160,Dakabin,Queensland,Australia,31-07-2019,Pending
Kristen,Kirsten.jjt@hotmail.com,0407573518,Newtown,"New South Wales",Australia,31-07-2019,Approved
Sheree,0401832571@noemail.com,0401832571,"Dulwich Hill","New South Wales",Australia,31-07-2019,Pending
"Claire ",claireabella78@gmail.com,0,"Morphett Vale","South Australia",Australia,31-07-2019,Pending
Ken,Ken.rowe@bigpond.com,0427233886,Adelaide,"South Australia",Australia,30-07-2019,Pending
"Tayla ",kimsmartin58@hotmail.com,0403412398,"Cambridge Gardens","New South Wales",Australia,30-07-2019,Approved
"Warren Green",rayward@aapt.net.au,"04582671670 ","Mount Gravatt",Queensland,Australia,30-07-2019,Approved
"Roma Reidy",natnick76@gmail.com,0473905784,Subiaco,"Western Australia",Australia,30-07-2019,Approved
