"Amelia ",amelia.smith@bsrgroup.com.au,"073414 8731",Brisbane,Queensland,Australia,13-05-2019,Pending
Kevin,kevin.ologhlin@tenlives.com.au,"0400 005 973",Mentone,Victoria,Australia,10-05-2019,Pending
"David ",admin@ioss.com.au,"0418 490 610",Brisbane,Queensland,Australia,09-05-2019,Pending
Andrew,andrew.smith@mccorkell.com.au,"+61 402 691 823",Singapore,,Singapore,08-05-2019,Pending
Vaibhav,vaibhav.podutwar@rslqld.org,0416041998,Cranbourne,Victoria,Australia,08-05-2019,Pending
"Alex ",alex_spillett@iris.org.au,0242854446,Cessnock,"New South Wales",Australia,07-05-2019,Pending
Anna,anna.cheyda@roochey.com,"0402 55 77 15",Brisbane,Queensland,Australia,06-05-2019,Pending
"Chad ",chad@beyondinc.com.au," +61 410 433 099",Brisbane,Queensland,Australia,03-05-2019,Pending
Hayden,hayden@gennext.net.au,0466580102,Sydney,"New South Wales",Australia,02-05-2019,Pending
"Muhammad ",muhammad.asim@gmail.com,0411595422,Ermington,"New South Wales",Australia,28-04-2019,Pending
Coco,coco@chrono24.com,"+852 3709 0762","Central District",,"Hong Kong",26-04-2019,Pending
"Sharon ",info@jymentor.com.au,"0418 352 331",Moe,Victoria,Australia,26-04-2019,Pending
Greg,gjen5464@gmail.com,0402239531,Hawthorn,Victoria,Australia,26-04-2019,Pending
Rasjid,rasjidw@openminddev.net,"0434 881 318",Boronia,Victoria,Australia,25-04-2019,Pending
Test,test@noemail.com,0,Sydney,"New South Wales",Australia,11-04-2019,Pending
"Ersel ",noemail@noemail.com,0422150721,Sydney,"New South Wales",Australia,11-04-2019,Pending
