Lynda,lyndakelly61@gmail.com,Blacktown,"New South Wales",Australia,07-01-2019,Pending
Alex,alex@jasonreadinglandscapes.com.au,Balmain,"New South Wales",Australia,07-01-2019,Pending
John,john@makeitpop.net.au,Wollongong,"New South Wales",Australia,07-01-2019,Pending
Ray,cathray@bigpond.net.au,Randwick,"New South Wales",Australia,07-01-2019,Pending
Wally,chu.wally@gmail.com,Eastwood,"New South Wales",Australia,07-01-2019,Pending
Sarah,Sarah.jones2@pfizer.com,Eastwood,"New South Wales",Australia,07-01-2019,Pending
Michelle,Michellebowden12@yahoo.co.uk,Cammeray,"New South Wales",Australia,07-10-2018,Pending
Terri,tezzaann@hotmail.com,Jimboomba,Queensland,Australia,07-10-2018,Pending
Steve,0420867289@noemail.com,Leichhardt,"New South Wales",Australia,07-10-2018,Pending
Stew,lonecanis1@gmail.com,Sydney,"New South Wales",Australia,06-10-2018,Pending
Toni,0419997029@noemail.com,Chippendale,"New South Wales",Australia,06-10-2018,Pending
Cheryl,rekunow@bigpond.com,"Seven Hills","New South Wales",Australia,06-10-2018,Pending
Anna,Apycka@tpg.com.au,Ashfield,"New South Wales",Australia,06-10-2018,Pending
Anna,0401310318@noemail.com,Coogee,"New South Wales",Australia,06-10-2018,Pending
Kate,kateken@gmail.com,Redfern,"New South Wales",Australia,06-10-2018,Pending
Catherine,kate2kaddu@yahoo.co.uk,Canberra,"Australian Capital Territory",Australia,06-10-2018,Pending
sha,shathush@yahoo.com,Sydney,"New South Wales",Australia,06-10-2018,Pending
Grant,viney_hooky@hotmail.com,Northbridge,"New South Wales",Australia,06-10-2018,Pending
Bronwyn,bronwebb@hotmail.com,Redbank,Queensland,Australia,06-10-2018,Pending
Coralie,coralietm@optusnet.com.au,Narrabeen,"New South Wales",Australia,06-10-2018,Pending
Rachel,0414504545@noemail.com,Greenacre,"New South Wales",Australia,06-10-2018,Pending
Kelvin,kel.watt@yahoo.com.au,"Rose Bay","New South Wales",Australia,06-10-2018,Pending
Susan,susanroserobinson@hotmail.com,,"New South Wales",Australia,05-10-2018,Pending
Parmi,Parmeshwor.giri@hotmail.com,Belfield,"New South Wales",Australia,05-10-2018,Pending
Shaylea,shaylea@tripodina.com,Pyrmont,"New South Wales",Australia,05-10-2018,Pending
"Dawn ",Dawn7163@hotmail.com,Dural,"New South Wales",Australia,05-10-2018,Pending
Glen,glen@agclandscapes.com.au,Pyrmont,"New South Wales",Australia,05-10-2018,Pending
Michael,gellybelly5@hotmail.com,Glebe,"New South Wales",Australia,05-10-2018,Pending
Kay,kaygwyther@gmail.com,"Eight Mile Plains",Queensland,Australia,05-10-2018,Pending
Michael,m.cave007@gmail.com,Northmead,"New South Wales",Australia,05-10-2018,Pending
Ajish,ajishlukose@gmail.com,Kambah,"Australian Capital Territory",Australia,05-10-2018,Pending
Robert,rcrutch47@bigpond.com,Melbourne,Victoria,Australia,05-10-2018,Pending
Graeme,graemej50@outlook.com,Sydney,"New South Wales",Australia,05-10-2018,Pending
Alison,Ashapiera@hotmail.com,Marrickville,"New South Wales",Australia,05-10-2018,Pending
Lyn,lynmpritchard@bigpond.com,Mosman,"New South Wales",Australia,05-10-2018,Pending
Jan,ajjgregory@bigpond.com,Merewether,"New South Wales",Australia,05-10-2018,Pending
"Greg ",jones.greg@me.com,Torquay,Victoria,Australia,04-10-2018,Pending
Ben,qualitygardening@outlook.com,Coogee,"New South Wales",Australia,04-10-2018,Pending
Mark,monarq@bigpond.com,Newcastle,"New South Wales",Australia,04-10-2018,Pending
Wendy,wendy.flint@canberra.edu.au,Canberra,"Australian Capital Territory",Australia,04-10-2018,Pending
Cathy,Gccurtis101@hotmail.com,Concord,"New South Wales",Australia,04-10-2018,Pending
Arnold,avilkins@bigpond.com,Queanbeyan,"New South Wales",Australia,04-10-2018,Pending
Celina,celinaanthony@bigpond.com,Bangor,"New South Wales",Australia,04-10-2018,Pending
Hus,hsk.tiling@gmail.com,Merrylands,"New South Wales",Australia,04-10-2018,Pending
Laurie,contact@terrainprojects.com.au,Canberra,"Australian Capital Territory",Australia,04-10-2018,Pending
Michelle,mt.1971@hotmail.com,Leichhardt,"New South Wales",Australia,04-10-2018,Pending
Declan,declan@hiller.com.au,"Sippy Downs",Queensland,Australia,03-10-2018,Pending
"Ros ",harrisra14@gmail.com,"South Yarra",Victoria,Australia,03-10-2018,Pending
Carolyn,carolyneves5@hotmail.com,Kellyville,"New South Wales",Australia,03-10-2018,Pending
Lisa,lisajkevp@hotmail.com,Allawah,"New South Wales",Australia,03-10-2018,Pending
luke,lukem@finabode.com,Ryde,"New South Wales",Australia,03-10-2018,Pending
Sha,shathush@yahoo.com,"Seven Hills","New South Wales",Australia,03-10-2018,Pending
"Lena ",lenamagi@banna.com.au,Eastwood,"New South Wales",Australia,03-10-2018,Pending
Paul,paul@enviromateplumbing.com.au,Redhead,"New South Wales",Australia,03-10-2018,Pending
Sharon,0410992558@noemail.com,"Wagga Wagga","New South Wales",Australia,03-10-2018,Pending
Greg,greg_willis@hotmail.com,Sydney,"New South Wales",Australia,03-10-2018,Pending
Anne,annie.kater@icloud.com,Leichhardt,"New South Wales",Australia,03-10-2018,Pending
Monica,monica.rafoo@hotmail.com,Chippendale,"New South Wales",Australia,03-10-2018,Pending
Alan,blake.351@bigpond.com,Lithgow,"New South Wales",Australia,03-10-2018,Pending
Steve,steven.simpson@sydney.edu.au,Northmead,"New South Wales",Australia,03-10-2018,Pending
stacy,stacy@serenity.org.au,Caloundra,Queensland,Australia,03-10-2018,Pending
Sarah,sarahbarnetson@icloud.com,Richardson,"Australian Capital Territory",Australia,03-10-2018,Pending
Jessica,isj.broughton742@gmail.com,Maclean,"New South Wales",Australia,03-10-2018,Pending
Ivo,iafavotto@gmail.com,Rozelle,"New South Wales",Australia,03-10-2018,Pending
Robyn,0419623031@noemal.com,Balmain,"New South Wales",Australia,03-10-2018,Pending
Fiona,elfionaw@gapps.cityu.edu.hk,"Central District",,"Hong Kong",02-10-2018,Pending
Rimgaile,rimif@evokeprojects.com.au,Sydney,"New South Wales",Australia,02-10-2018,Pending
Matthew,matthew.scarfone@bigpond.com,Eastwood,"New South Wales",Australia,02-10-2018,Pending
Elias,eliaskottatis@optusnet.com.au,Marrickville,"New South Wales",Australia,02-10-2018,Pending
Vish,vishnu_menneni@hotmail.com,Sydney,"New South Wales",Australia,02-10-2018,Pending
Chom,chom@archstallation.com,Sydney,"New South Wales",Australia,02-10-2018,Pending
Ann,pamiller53@hotmail.com,Leichhardt,"New South Wales",Australia,02-10-2018,Pending
Carolyn,carolynbarlow1@bigpond.com,Linden,"New South Wales",Australia,02-10-2018,Pending
Mat,mathew.balding@gmail.com,Parkes,"New South Wales",Australia,02-10-2018,Pending
"Rod ",rcoan@hotmail.com,Westmead,"New South Wales",Australia,02-10-2018,Pending
Bob,bbcollins@optusnet.com.au,Kogarah,"New South Wales",Australia,02-10-2018,Pending
Sofia,Sophia.tsanidis@gmail.com,Auburn,"New South Wales",Australia,02-10-2018,Pending
Jan,garyreidcarcarriers@gmail.com,"Baulkham Hills","New South Wales",Australia,02-10-2018,Pending
SHA,SHASPREM@YAHOO.COM,"Seven Hills","New South Wales",Australia,02-10-2018,Pending
Adrian,adrian.pearse017@gmail.com,"Hunters Hill","New South Wales",Australia,02-10-2018,Pending
Doris,0409224989@noemail.com,Sydney,"New South Wales",Australia,02-10-2018,Pending
Ken,0415494254@noemail.com,Glebe,"New South Wales",Australia,02-10-2018,Pending
"Ingrid ",ingrid.hall9@gmail.com,Seaton,"South Australia",Australia,02-10-2018,Pending
Jenny,jennytoohey6@gmail.com,Fairfield,"New South Wales",Australia,02-10-2018,Pending
Shannon,noemail@noemail.com,Pyrmont,"New South Wales",Australia,02-10-2018,Pending
Kate,kate@tjrc.com.au,Brisbane,Queensland,Australia,02-10-2018,Pending
shan,shasprem@yahoo.com,"Seven Hills","New South Wales",Australia,02-10-2018,Pending
Rachel,0412411173@noemail.com,Artarmon,"New South Wales",Australia,02-10-2018,Pending
Kim,bowoodforest2@hotmail.com,Marrickville,"New South Wales",Australia,01-10-2018,Pending
Kent,0437779924@noemail.com,Ryde,"New South Wales",Australia,01-10-2018,Pending
Sam,sundeep.minhas@programmed.com.au,Chippendale,"New South Wales",Australia,01-10-2018,Pending
Kirsten,thighnam@bigpond.net.au,Mosman,"New South Wales",Australia,01-10-2018,Pending
Ivy,edc898@gmail.com,Bellevue,Washington,"United States",01-10-2018,Pending
NA,vibekemh7@gmail.com,Leichhardt,"New South Wales",Australia,01-10-2018,Pending
Lea,lea_mca@hotmail.com,Uralla,"New South Wales",Australia,01-10-2018,Pending
Emma,0413656830@noemail.com,Pyrmont,"New South Wales",Australia,01-10-2018,Pending
Craig,craig.lyall@naroads.com,Sydney,"New South Wales",Australia,01-10-2018,Pending
"Suriya ",0424067237@noemail.com,Sydney,"New South Wales",Australia,01-10-2018,Pending
Mel,moomoodesign@bigpond.com,"Acacia Ridge",Queensland,Australia,01-10-2018,Pending
"Malay ",malay.alate@gmail.com,Brisbane,Queensland,Australia,01-10-2018,Pending
Shannon,shan_bee@hotmail.com,,,Australia,01-10-2018,Pending
Colin,colinh326@gmail.com,"Saint Ives","New South Wales",Australia,01-10-2018,Pending
John,john.ridge@acsfoundation.com.au,Sydney,"New South Wales",Australia,01-10-2018,Pending
Andrew,andrewsprivate@hotmail.com,"North Sydney","New South Wales",Australia,01-10-2018,Pending
Zaman,aq_homes@hotmail.com,Balmain,"New South Wales",Australia,01-10-2018,Pending
Mahesh,j.maheshkumar@gmail.com,Brisbane,Queensland,Australia,01-10-2018,Pending
Esma,0404996060@noemail.com,Thornbury,Victoria,Australia,01-10-2018,Pending
Lesley,sintrans2@hotmail.com,"Baulkham Hills","New South Wales",Australia,30-09-2018,Pending
peter,ptmckean50@gmail.com,Townsville,Queensland,Australia,30-09-2018,Pending
Grahame,grahametangles@optusnet.com.au,Sydney,"New South Wales",Australia,30-09-2018,Pending
Reji,rejichandiau@Gmail.com,"Surry Hills","New South Wales",Australia,30-09-2018,Pending
Steph,steph.deroos@hotmail.com,Camperdown,"New South Wales",Australia,30-09-2018,Pending
Maria,m_antouy@optusnet.com,"Beverly Hills","New South Wales",Australia,30-09-2018,Pending
Elijah,elijah@ecdsn.com,Vaucluse,"New South Wales",Australia,30-09-2018,Pending
Tamra,p.thanson@bigpond.com,Cottesloe,"Western Australia",Australia,30-09-2018,Pending
Gurminder,0421082393@noemail.com,Canberra,"Australian Capital Territory",Australia,30-09-2018,Pending
Abukar,abukar55@hotmail.com,Sydney,"New South Wales",Australia,30-09-2018,Pending
Cindy,cindy.braidotti@hotmail.com,Blacktown,"New South Wales",Australia,30-09-2018,Pending
Robyn,robyn_oneill@hotmail.com,Marrickville,"New South Wales",Australia,30-09-2018,Pending
Carol,cmt59crt@gmail.com,Homebush,"New South Wales",Australia,30-09-2018,Pending
Sarah,0402212004@noemail.com,Manly,Queensland,Australia,30-09-2018,Pending
troy,trmoss75@gmail.com,Scone,"New South Wales",Australia,30-09-2018,Pending
Alison,alison.roberts@bigpond.com,"Lane Cove","New South Wales",Australia,30-09-2018,Pending
Raman,Ethics.construction1@gmail.com,Sydney,"New South Wales",Australia,29-09-2018,Pending
Tanya,Tanya.strachan@gmail.com,Homebush,"New South Wales",Australia,29-09-2018,Pending
Marie,marieparasiliti@gmail.com,Auburn,"New South Wales",Australia,29-09-2018,Pending
Duni,duniram101@gmail.com,Sydney,"New South Wales",Australia,29-09-2018,Pending
tony,0422188436@noemail.com,Toowong,Queensland,Australia,29-09-2018,Pending
Fiona,jf.nash@bigpond.com,Armidale,"New South Wales",Australia,29-09-2018,Pending
Sheila,Sheila.lstokes@gmail.com,Strathfield,"New South Wales",Australia,29-09-2018,Pending
Vicki,0423662077@noemail.com,"West End",Queensland,Australia,29-09-2018,Pending
Damien,Damien_outerbridge@hotmail.com,Woolloomooloo,"New South Wales",Australia,29-09-2018,Pending
Leah,leah@surgeit.com.au,Jimboomba,Queensland,Australia,29-09-2018,Pending
Michelle,0409075388@noemail.com,Wahroonga,"New South Wales",Australia,29-09-2018,Pending
Elyssia,elyssia.nelson@gmail.com,Helensvale,Queensland,Australia,29-09-2018,Pending
Diana,seechangeconstruct@bigpond.com,Balgowlah,"New South Wales",Australia,28-09-2018,Pending
Andrew,andrewcoleman105@gmail.com,Pyrmont,"New South Wales",Australia,28-09-2018,Pending
You,Gordonpelletier@gmail.com,Frederickton,"New South Wales",Australia,28-09-2018,Pending
AC,0422449512@noemail.com,Kambah,"Australian Capital Territory",Australia,28-09-2018,Pending
Naomi,nmenzies@gpcc.nsw.edu.au,Auburn,"New South Wales",Australia,28-09-2018,Pending
Tanya,Tanya.nesterova@gmail.com,"Lane Cove","New South Wales",Australia,28-09-2018,Pending
Carol,0408057818@noemail.com,Melbourne,Victoria,Australia,28-09-2018,Pending
Daniel,Twr_88@hotmail.com,Sydney,"New South Wales",Australia,28-09-2018,Pending
Christine,csm1th@live.com.au,Artarmon,"New South Wales",Australia,28-09-2018,Pending
Peter,0418473868@noemail.com,Belmore,"New South Wales",Australia,28-09-2018,Pending
Grace,g.a.connley@gmail.com,Redfern,"New South Wales",Australia,28-09-2018,Pending
Girond,mbmaintain@Hotmail.com,"Upper Coomera",Queensland,Australia,28-09-2018,Pending
"Jerome ",jeromeoloapu@gmail.com.au,Bankstown,"New South Wales",Australia,27-09-2018,Pending
Brian,bh@huxcorp.com.au,Strathfield,"New South Wales",Australia,27-09-2018,Pending
Paula,paula@racoon.com.au,Chatswood,"New South Wales",Australia,27-09-2018,Pending
Margaret,Margyknoll@hotmail.com,Broadbeach,Queensland,Australia,27-09-2018,Pending
Anthony,Anthonyhull@yahoo.com,Haberfield,"New South Wales",Australia,27-09-2018,Pending
Natha,hasmukhnatha@yahoo.com,Windale,"New South Wales",Australia,27-09-2018,Pending
chami,chaminda@morabito.com.au,Kellyville,"New South Wales",Australia,27-09-2018,Pending
miao,miao@minosa.com.au,Penrith,"New South Wales",Australia,27-09-2018,Pending
Peter,elftrailers2@gmail.com,Darlinghurst,"New South Wales",Australia,27-09-2018,Pending
Steve,svjacko1@gmail.com,Woolooware,"New South Wales",Australia,27-09-2018,Pending
Raj,0400662576@noemail.com,Coorparoo,Queensland,Australia,27-09-2018,Pending
Steve,stevengmason@hotmail.com,Eastwood,"New South Wales",Australia,27-09-2018,Pending
Amy,lvwei1006@hotmail.com,Blacktown,"New South Wales",Australia,27-09-2018,Pending
Vincenzo,Vincenzomazzotta@ymail.com,Auburn,"New South Wales",Australia,27-09-2018,Pending
"Kerryn ",0417420589@noemail.com,Canberra,"Australian Capital Territory",Australia,27-09-2018,Pending
Bill,bill@taskforceherbicide.com,Sydney,"New South Wales",Australia,27-09-2018,Pending
Dan,0413347521@noemail.com,Auburn,"New South Wales",Australia,26-09-2018,Pending
Tom,tpa@tpg.com.au,Petersham,"New South Wales",Australia,26-09-2018,Pending
"Brian ",0418692322@noemail.com,Griffith,"New South Wales",Australia,26-09-2018,Pending
Michael,barnetm@meridianhi.com,Sydney,"New South Wales",Australia,26-09-2018,Pending
Kevin,0403609915@noemail.com,Beerwah,Queensland,Australia,26-09-2018,Pending
Gianni,gianni.romano@bartercard.com,Broadbeach,Queensland,Australia,26-09-2018,Pending
Don,lyndonvic2@bigpond.com,Rothbury,"New South Wales",Australia,26-09-2018,Pending
Derk,Dvanogtrop@gmail.com,Sydney,"New South Wales",Australia,26-09-2018,Pending
Joe,joe@gcls.com.au,Wanniassa,"Australian Capital Territory",Australia,26-09-2018,Pending
Kim,0404519962@noemail.com,Lakemba,"New South Wales",Australia,26-09-2018,Pending
"Bree ",bumblebree80@hotmail.com,Milperra,"New South Wales",Australia,26-09-2018,Pending
Vinesh,vinesh.pandey@hotmail.com,Blacktown,"New South Wales",Australia,26-09-2018,Pending
Kerrie,snkadams@hotmail.com,Balmain,"New South Wales",Australia,26-09-2018,Pending
Yumin,yumin_zhang@hotmail.com,Belmore,"New South Wales",Australia,25-09-2018,Pending
Eric,eric@netspace.net.au,Sydney,"New South Wales",Australia,25-09-2018,Pending
Rod,rtan@cmplus.com.au,Woolloomooloo,"New South Wales",Australia,25-09-2018,Pending
Gailene,gaian1@bigpond.com,"Baulkham Hills","New South Wales",Australia,25-09-2018,Pending
Brigitta,brigittarudnicki@gmail.com,Canberra,"Australian Capital Territory",Australia,25-09-2018,Pending
Branislav,branislavk86@hotmail.com,,"South Australia",Australia,25-09-2018,Pending
Kryst,Krystaljas@icloud.com,Mitchell,Queensland,Australia,25-09-2018,Pending
Josh,0413716489@noemail.com,"Norman Park",Queensland,Australia,25-09-2018,Pending
Cabby,0424082373@noemail.com,Balmain,"New South Wales",Australia,25-09-2018,Pending
Dawn,0438232692@noemail.com,Merrylands,"New South Wales",Australia,25-09-2018,Pending
Mohit,mohit.behl@hotmail.com,Richmond,Victoria,Australia,25-09-2018,Pending
Kate,0427112891@noemail.com,"Neutral Bay","New South Wales",Australia,25-09-2018,Pending
Anne,nevannekratz@westnet.com.au,"New Farm",Queensland,Australia,25-09-2018,Pending
"Kevin ",kevinzcallaghan@hotmail.com,"Seven Hills","New South Wales",Australia,25-09-2018,Pending
Lou,0419299002@noemail.com,Wahroonga,"New South Wales",Australia,25-09-2018,Pending
Neil,kneeld@optusnet.com,Haberfield,"New South Wales",Australia,25-09-2018,Pending
Kathryn,hardman.kathryn@gmail.com,Brisbane,Queensland,Australia,25-09-2018,Pending
Ramzan,zotty_khan@yahoo.com,"Mount Gravatt",Queensland,Australia,25-09-2018,Pending
Jay,Jay@guessdevelopments.com,"New Lambton","New South Wales",Australia,24-09-2018,Pending
"peter ",geyichen@hotmail.com,Lidcombe,"New South Wales",Australia,24-09-2018,Pending
Barbara,barbara@reddingo.com,"Surry Hills","New South Wales",Australia,24-09-2018,Pending
Simon,simon@collectivus.com.au,Brisbane,Queensland,Australia,24-09-2018,Pending
Debbie,debs23@gmail.com,Wollongong,"New South Wales",Australia,24-09-2018,Pending
Mandy,mbussey@bigpond.net.au,Seaforth,"New South Wales",Australia,24-09-2018,Pending
Nick,nick.vincent@avidpm.com.au,Bondi,"New South Wales",Australia,24-09-2018,Pending
Heather,sashbenson@optusnet.com.au,Brisbane,Queensland,Australia,24-09-2018,Pending
Tara,clanren@hotmail.com,Parramatta,"New South Wales",Australia,24-09-2018,Pending
Peter,peterstrattonhandyman@gmail.com,"Lane Cove","New South Wales",Australia,24-09-2018,Pending
Amira,elhusseini.a@gmail.com,Jerrabomberra,"New South Wales",Australia,24-09-2018,Pending
Janet,janetcathers@gmail.com,Collaroy,"New South Wales",Australia,24-09-2018,Pending
Noelene,nakwilson@gmail.com,Kingsgrove,"New South Wales",Australia,24-09-2018,Pending
Craig,csharpe.au@gmail.com,Orange,"New South Wales",Australia,24-09-2018,Pending
Terry,tmire@bigpond.net.au,Richmond,"New South Wales",Australia,24-09-2018,Pending
Greg,bwg060873@gmail.com,"Seven Hills","New South Wales",Australia,24-09-2018,Pending
Michael,0406057757@noemail.com,Campsie,"New South Wales",Australia,24-09-2018,Pending
Jacqui,mjdavies@aapt.net.au,Sydney,"New South Wales",Australia,24-09-2018,Pending
Andy,andy@safeandsoundproperty.com.au,Burwood,"New South Wales",Australia,24-09-2018,Pending
Liz,lizpoy@tpg.com.au,Sydney,"New South Wales",Australia,23-09-2018,Pending
"Kieran ",kieran.hickey@telstrarandwick.com,Allawah,"New South Wales",Australia,23-09-2018,Pending
Rita,0419518558@noemail.com,Kensington,Victoria,Australia,23-09-2018,Pending
Sudha,cooldude427@hotmail.com,Campbelltown,"New South Wales",Australia,23-09-2018,Pending
Simon,0433266239@noemail.com,Alexandria,"New South Wales",Australia,23-09-2018,Pending
Blues,blues@142group.com,Kellyville,"New South Wales",Australia,23-09-2018,Pending
Ken,Kenchewch@gmail.com,Balgowlah,"New South Wales",Australia,23-09-2018,Pending
Terry,terry@sunsetsigns.com.au,"New Farm",Queensland,Australia,23-09-2018,Pending
"Ann ",ann.wallace@det.nsw.edu.au,Auburn,"New South Wales",Australia,23-09-2018,Pending
"Susie ",susie.ristev1@gmail.com,Petersham,"New South Wales",Australia,23-09-2018,Pending
You,nuova_00@hotmail.com,Leichhardt,"New South Wales",Australia,23-09-2018,Pending
You,0402843658@noemail.com,Lidcombe,"New South Wales",Australia,23-09-2018,Pending
Jasna,jasna.pirija@outlook.com,Sydney,"New South Wales",Australia,23-09-2018,Pending
Nestor,0401710767@noemail.com,Canberra,"Australian Capital Territory",Australia,23-09-2018,Pending
Angela,0422237295@noemail.com,Hawthorn,Victoria,Australia,23-09-2018,Pending
Nicholas,john.clark1128@bigpond.com,Narrabri,"New South Wales",Australia,23-09-2018,Pending
James,jamesnsmith@iinet.com.au,Caringbah,"New South Wales",Australia,23-09-2018,Pending
Paul,pholmes1211@gmail.com,Peakhurst,"New South Wales",Australia,23-09-2018,Pending
