Jessica,jessica.reid@galilee.com.au,"Malvern East",Victoria,Australia,11-12-2018,Pending
"Katie ",ksonder@gmail.com,Kensington,"New South Wales",Australia,10-12-2018,Pending
Michael,dinhhoanghai82@gmail.com,Hawthorn,Victoria,Australia,10-12-2018,Pending
Ciara,ciarakhenderson@gmail.com,Raywood,Victoria,Australia,08-12-2018,Pending
robert,rob@daltrovecabinets.com.au,Geelong,Victoria,Australia,07-12-2018,Pending
Clara,Claragivossi@yahoo.com,"South Morang",Victoria,Australia,05-12-2018,Pending
