Drew,drewmagee52@gmail.com,Melbourne,Victoria,Australia,04-03-2019,Approved
"Atak ",Atakngor97@gmail.com,Hobart,Tasmania,Australia,01-03-2019,Approved
Liam,Liam.shearing@hotmail.com,"Surrey Hills",Victoria,Australia,16-02-2019,Approved
