E*,e***********@g*****.com,Moorabbin,Victoria,Australia,08-01-2018,Pending
E*,e***********@g*****.com,Moorabbin,Victoria,Australia,08-01-2018,Pending
Nichola*******,n*******@v****.com.au,Melbourne,Victoria,Australia,08-01-2018,Pending
Da**,d**************@g*****.com,Geelong,Victoria,Australia,08-01-2018,Pending
Ni**,n*********@h*******.com,Abbotsford,Victoria,Australia,07-01-2018,Pending
As**,A********@o*******.com,"South Yarra",Victoria,Australia,07-01-2018,Pending
SNi***,S**********@g*****.com,Chifley,"Australian Capital Territory",Australia,07-01-2018,Pending
Al**,a*********@h*******.com,Fitzroy,Victoria,Australia,06-01-2018,Pending
Sne***,s***********@g*****.com,Wantirna,Victoria,Australia,05-01-2018,Pending
Ta**,t**********@y*****.com,Preston,Victoria,Australia,05-01-2018,Pending
ch**,c**@g*****.com,Melbourne,Victoria,Australia,05-01-2018,Pending
ch**,c**@g*****.com,Melbourne,Victoria,Australia,05-01-2018,Pending
Stephen,Steflahvillaman@hotmail.com,Kew,Victoria,Australia,04-01-2018,Pending
Melody,melodyfred333@gmail.com,"Caulfield North",Victoria,Australia,04-01-2018,Pending
Sarah,Sarah@hotmail.com,"Clayton South",Victoria,Australia,03-01-2018,Pending
"My Le",myhanhle8@gmail.com,Melbourne,Victoria,Australia,02-01-2018,Pending
"Kate Follington",kfollington@gmail.com,Armadale,Victoria,Australia,02-01-2018,Pending
