Eyoel,eyo2007@gmail.com,Melbourne,Victoria,Australia,26-02-2019,Pending
Santosh,kcsantosh@hotmail.com,Corrimal,"New South Wales",Australia,24-02-2019,Pending
"Sabine ",Sabine_tejerina@mckinsey.com,Artarmon,"New South Wales",Australia,24-02-2019,Pending
John,ajv65432@gmail.com,"Mount Gravatt",Queensland,Australia,23-02-2019,Pending
Reshma,Yasmeen14r@yahoo.co.in,Lakemba,"New South Wales",Australia,22-02-2019,Pending
Matías,matiasbaren@hotmail.com,Sydney,"New South Wales",Australia,21-02-2019,Pending
Itay,Kaufman.Itay@gmail.com,Melbourne,Victoria,Australia,21-02-2019,Pending
Sachita,sachitathapa59@gmail.com,Burpengary,Queensland,Australia,20-02-2019,Pending
Sachita,sachitathapa59@gmail.com,Burpengary,Queensland,Australia,20-02-2019,Pending
Laura,julianita12315@gmail.com,"South Yarra",Victoria,Australia,20-02-2019,Pending
"Prabesh ",prabeshbhattarai13@gmail.com,Concord,"New South Wales",Australia,20-02-2019,Pending
Diana,Diana.c.r@hotmail.com,"Port Melbourne",Victoria,Australia,20-02-2019,Pending
Juan,wanmigs@yahoo.com,Annandale,"New South Wales",Australia,19-02-2019,Pending
Ray,Galaa_0612@yahoo.com,Homebush,"New South Wales",Australia,19-02-2019,Pending
Bianca,biancamanny@gmail.com,Maudsland,Queensland,Australia,18-02-2019,Pending
Wendy,wendywangyuqian@gmail.com,Docklands,Victoria,Australia,18-02-2019,Pending
Jenmar,jenmarcrs@hotmail.com,"Bli Bli",Queensland,Australia,17-02-2019,Pending
Cassia,cassiaciccone@gmail.com,Belrose,"New South Wales",Australia,16-02-2019,Pending
Juan,juanpablo.sanchez83@gmail.com,Fairfield,Victoria,Australia,16-02-2019,Pending
Michelle,mip_ferreira@yahoo.com.br,Bexley,"New South Wales",Australia,14-02-2019,Pending
Riccardo,riccardo.colucci1991@gmail.com,"New Farm",Queensland,Australia,13-02-2019,Pending
Subedi,subedibikash773@gmail.com,Wollongong,"New South Wales",Australia,12-02-2019,Pending
Bishal,bishalgupta101@gmail.com,Kirribilli,"New South Wales",Australia,11-02-2019,Pending
Caroline,carolinemueni@yahoo.com,Burwood,"New South Wales",Australia,11-02-2019,Pending
Riccardo,riccardo.colucci1991@gmail.com,Brisbane,Queensland,Australia,10-02-2019,Pending
Farhan,Farhan.islam.fi@gmail.com,Alexandria,"New South Wales",Australia,10-02-2019,Pending
Markus,doebelemarkus@gmail.com,Lidcombe,"New South Wales",Australia,07-02-2019,Pending
ORAYN,Areen3aa@gmail.com,"Crows Nest","New South Wales",Australia,06-02-2019,Pending
Jordana,jordana@srconstruction.com.au,"Seven Hills","New South Wales",Australia,06-02-2019,Pending
Michael,fusion@e.mail.de,Sydney,"New South Wales",Australia,05-02-2019,Pending
Jonathan,correolewis@gmail.com,Brisbane,Queensland,Australia,05-02-2019,Pending
Felicia,felicia.nelzy@orange.fr,Yarrawarrah,"New South Wales",Australia,03-02-2019,Pending
Anahita,anahitarazavi@yahoo.com,Sydney,"New South Wales",Australia,03-02-2019,Pending
"Patricia ",pietrasik.patrycja@gmail.com,Newtown,"New South Wales",Australia,02-02-2019,Pending
"Hakim ",jayhak53@gmail.com,Melbourne,Victoria,Australia,01-02-2019,Pending
Piyush,pyush3291@gmail.com,Cowwarr,Victoria,Australia,31-01-2019,Pending
Martik,mleongz@hotmail.com,Melbourne,Victoria,Australia,30-01-2019,Pending
Rifat,rifat740@yahoo.com,"Mount Druitt","New South Wales",Australia,30-01-2019,Pending
Hibe,hibe_321@yahoo.de,Kempsey,"New South Wales",Australia,30-01-2019,Pending
Kely,Kely.crbarbosa@gmail.com,Melbourne,Victoria,Australia,29-01-2019,Pending
Hakim,jayhak53@gmail.com,Melbourne,Victoria,Australia,29-01-2019,Pending
