"zap in******",z***@a***.com,Mumbai,Maharashtra,India,23-01-2018,Pending
,,Mumbai,Maharashtra,India,22-01-2018,Pending
tes***,t****@2**.com,Mumbai,Maharashtra,India,20-01-2018,Pending
"TEst *****",z******@g*****.com,Mumbai,Maharashtra,India,17-01-2018,Pending
,,Mumbai,Maharashtra,India,15-01-2018,Pending
test****,t********@e*****.com,Mumbai,Maharashtra,India,15-01-2018,Pending
,,Mumbai,Maharashtra,India,13-01-2018,Pending
,,Mumbai,Maharashtra,India,13-01-2018,Pending
,,Mumbai,Maharashtra,India,12-01-2018,Pending
,,Mumbai,Maharashtra,India,12-01-2018,Pending
Nick,nick@gmail.com,Mumbai,Maharashtra,India,11-01-2018,Pending
John,john@gmail.com,Mumbai,Maharashtra,India,11-01-2018,Pending
Sam,sam@gmail.com,Mumbai,Maharashtra,India,11-01-2018,Pending
