"Andy ",0411576635@noemail.com,0411576635,Sydney,"New South Wales",Australia,13-05-2019,Pending
"Rowena ",rowenawilmott@logan.qld.gov.au,"07 3412 5425",Kingston,Queensland,Australia,13-05-2019,Pending
Penny,0439763565@noemail.com,0439763565,Burleigh,Queensland,Australia,13-05-2019,Pending
Tina,tina@citicore.com.au,0422787495,Sydney,"New South Wales",Australia,13-05-2019,Pending
Neetu,neet_28@hotmail.com,0434415208,Auburn,"New South Wales",Australia,13-05-2019,Pending
