Isha,Isatakamara@hotmail.com,Burnley,Victoria,Australia,01-05-2019,Pending
"Niko ",Nikoshrestha3@hotmail.com,Sydney,"New South Wales",Australia,01-05-2019,Pending
"Arup ",smrahmanaru@gmail.com,Brighton,Victoria,Australia,01-05-2019,Pending
Ella,Jovana1@live.com.au,Moorooka,Queensland,Australia,01-05-2019,Pending
"Lynne ",lynne.scott7@bigpond.com,"Surrey Hills",Victoria,Australia,01-05-2019,Pending
Rob,treborr61@yahoo.com.au,Prahran,Victoria,Australia,01-05-2019,Pending
Irene,ireneruby@0gmsil.com,Brisbane,Queensland,Australia,01-05-2019,Pending
mark,md197@hotmail.com,"Lane Cove","New South Wales",Australia,01-05-2019,Pending
Maree,reception@nordonjago.com,"Surry Hills","New South Wales",Australia,01-05-2019,Pending
Samia,Samianaz889@gmail.com,Melbourne,Victoria,Australia,01-05-2019,Pending
Natalee,mws@schutebell.com,Cooma,"New South Wales",Australia,01-05-2019,Pending
"graham ",468644130@noemail.com,Toowong,Queensland,Australia,01-05-2019,Pending
Estelle,estelle.broekhuysen52@gmail.com,Brisbane,Queensland,Australia,01-05-2019,Pending
Lauren,Laurensutton8@bigpond.com,Melbourne,Victoria,Australia,30-04-2019,Pending
" steven",Stdolo068@bigpond.com,Brisbane,Queensland,Australia,30-04-2019,Pending
Lily,lovt67@yahoo.com,Sydney,"New South Wales",Australia,30-04-2019,Pending
"Diane ",wolfching@gmail.com,Dapto,"New South Wales",Australia,30-04-2019,Pending
Jodi,Jodimbrennan@gmail.com,Coorparoo,Queensland,Australia,30-04-2019,Pending
Duncan,dunc_rides@hotmail.com,Sydney,"New South Wales",Australia,30-04-2019,Pending
Elizabeth,bettynaumovska@gmail.com,"Malvern East",Victoria,Australia,30-04-2019,Pending
Atul,renukaandatul@yahoo.com.au,"Clifton Hill",Victoria,Australia,30-04-2019,Pending
Cristina,0481052651@noemail.com,Kippa-ring,Queensland,Australia,30-04-2019,Pending
James,0412932676@noemail.com,Sydney,"New South Wales",Australia,29-04-2019,Pending
Sema,sema_pay@hotmail.com,Murrumbeena,Victoria,Australia,29-04-2019,Pending
Angela,angela@hamptonsathome.com.au,Thornton,"New South Wales",Australia,29-04-2019,Pending
Vivian,sussmanvivian@gmail.com,Umina,"New South Wales",Australia,29-04-2019,Pending
Julie,impossibledragon@outlook.com,Sydney,"New South Wales",Australia,29-04-2019,Pending
Ricky,ricky2081@gmail.com,Sunnybank,Queensland,Australia,29-04-2019,Pending
Tasneem,Tasneem_jahan@hotmail.com,Sydney,"New South Wales",Australia,29-04-2019,Pending
laura,lauracameron82@gmail.com,"Glen Waverley",Victoria,Australia,29-04-2019,Pending
ben,bennymegha@yahoo.co.uk,Lidcombe,"New South Wales",Australia,29-04-2019,Pending
Susan,suzieshing@gmail.com,Sydney,"New South Wales",Australia,29-04-2019,Pending
Faith,faithcwhittaker@gmail.com,Brisbane,Queensland,Australia,29-04-2019,Pending
Kristine,khanhvan_nguyen@yahoo.com.au,Sydney,"New South Wales",Australia,28-04-2019,Pending
Francine,franwaz@bigpond.com,"Macquarie Fields","New South Wales",Australia,28-04-2019,Pending
Melissa,0414600231@noemail.com,Brisbane,Queensland,Australia,28-04-2019,Pending
Karlee,kshortus@gmail.com,Brisbane,Queensland,Australia,28-04-2019,Pending
Gopi,gopi_awasthi@yahoo.com,Armadale,Victoria,Australia,28-04-2019,Pending
Vik,vikash_lal1@bigpond.com,Cleveland,Queensland,Australia,28-04-2019,Pending
Justin,Justingabriele131@gmail.com,Thornbury,Victoria,Australia,28-04-2019,Pending
Kay,kaygoodwin@bigpond.com,Brisbane,Queensland,Australia,28-04-2019,Pending
Harshana,Ish.n.hush@gmail.com,Melbourne,Victoria,Australia,28-04-2019,Pending
Chris,0431973670@noemail.com,Caloundra,Queensland,Australia,28-04-2019,Pending
Chris,cmaralang51@gmail.com,Homebush,"New South Wales",Australia,28-04-2019,Pending
Sunny,0430098025@noemail.com,"Glen Iris",Victoria,Australia,28-04-2019,Pending
Emma,emzy84@live.com.au,Southbank,Victoria,Australia,28-04-2019,Pending
Justine,0417793561@noemail.com,Brisbane,Queensland,Australia,28-04-2019,Pending
Suzanne,0406187905@noemail.com,"North Sydney","New South Wales",Australia,28-04-2019,Pending
Volly,Kosovare16@hotmail.com,Nunawading,Victoria,Australia,27-04-2019,Pending
Peter,Pete.popovski@gmail.com,Footscray,Victoria,Australia,27-04-2019,Pending
" LJ. ",ljmichel@bigpond.com,Cleveland,Queensland,Australia,27-04-2019,Pending
"Janine ",morgs22222@gmail.com,Nedlands,"Western Australia",Australia,27-04-2019,Pending
Sash,dimibella.pty.ltd@gmail.com,Melbourne,Victoria,Australia,27-04-2019,Pending
"Guy (wife is Mandy)",gstleger@bigginscott.com.au,"Bentleigh East",Victoria,Australia,27-04-2019,Pending
Sandy,0421087616@noemail.com,Brisbane,Queensland,Australia,27-04-2019,Pending
Nav,Luvnav@hotmail.com,Lakemba,"New South Wales",Australia,27-04-2019,Pending
Spiro,spiropetroulas@gmail.com,Drummoyne,"New South Wales",Australia,27-04-2019,Pending
Shahid,0416799866@noemail.com,Ryde,"New South Wales",Australia,27-04-2019,Pending
Estelle,estelle.broekhuysen52@gmail.com,"Eight Mile Plains",Queensland,Australia,27-04-2019,Pending
Mohan,mohan70@hotmail.com,Alphington,Victoria,Australia,27-04-2019,Pending
"Margo ",0402755694@noemail.com,Fairfield,"New South Wales",Australia,27-04-2019,Pending
Tuba,tubayalcin6@hotmail.com,Ashfield,"New South Wales",Australia,26-04-2019,Pending
Helen,ghturner77@hotmail.com,Ryde,"New South Wales",Australia,26-04-2019,Pending
Chris,0405534976@noemail.com,Sydney,"New South Wales",Australia,26-04-2019,Pending
Elita,elitamonterio1983@gmail.com,Parramatta,"New South Wales",Australia,26-04-2019,Pending
Cristina,0481052651@noemail.com,Kippa-ring,Queensland,Australia,26-04-2019,Pending
Sue,sue.mclean69@gmail.com,Brisbane,Queensland,Australia,26-04-2019,Pending
Doris,Borgy21@live.com.au,Cardigan,Victoria,Australia,26-04-2019,Pending
Sandra,sandragee@optusnet.com.au,Preston,Victoria,Australia,26-04-2019,Pending
Aimee,aimeescaletti@hotmail.com,"North Melbourne",Victoria,Australia,26-04-2019,Pending
Carla,info@citysider.com.au,,,Australia,26-04-2019,Pending
Peter,pjtennyson@optusnet.com.au,Tarragindi,Queensland,Australia,26-04-2019,Pending
Kevin,Kevinjwilliams1967@gmail.com,Northmead,"New South Wales",Australia,26-04-2019,Pending
Deepti,deepti.hegde@gmail.com,Camden,"New South Wales",Australia,26-04-2019,Pending
Andrea,cagcstevens@gmail.com.au,Hampton,Victoria,Australia,26-04-2019,Pending
MD,kamruzzamantitu@gmail.com,Sydney,"New South Wales",Australia,26-04-2019,Pending
