Carlos,atogrande@outlook.com,Brisbane,Queensland,Australia,14-01-2019,Pending
steban,picover@hotmail.com,Blacktown,"New South Wales",Australia,13-01-2019,Pending
Lakshmi,oeccadmissions@gmail.com,"Malvern East",Victoria,Australia,10-01-2019,Pending
laurig,gvilla.laurig@gmail.com,Melbourne,Victoria,Australia,10-01-2019,Pending
Lucy,lucy.regalado@gmail.com,Melbourne,Victoria,Australia,08-01-2019,Pending
"Brayan Gonzalo Roa ",bryanroah24@gmail.com,Melbourne,Victoria,Australia,08-01-2019,Pending
Vitor,vpaes@australiancentre.com,Mooloolaba,Queensland,Australia,08-01-2019,Pending
"Upendra ",sharmaupendra928@gmail.com,Auburn,"New South Wales",Australia,06-01-2019,Pending
"Jaidarth ",Jaidrathsharma972@gmail.com,Sydney,"New South Wales",Australia,05-01-2019,Pending
Louise,lcasteja@australiancentre.com,Mooloolaba,Queensland,Australia,03-01-2019,Pending
" Enkh-Amgalan ",enkh0000@gmail.com,Ashfield,"New South Wales",Australia,03-01-2019,Pending
"gurpreet ",Gurikamboj2580@gmail.com,Homebush,"New South Wales",Australia,03-01-2019,Pending
Enk,0423853906@noemail.com,Parramatta,"New South Wales",Australia,02-01-2019,Pending
Andrea,0415338611@noemail.com,Blacktown,"New South Wales",Australia,02-01-2019,Pending
"Reema Sharma ",reemajaysee@gmail.com,Marrickville,"New South Wales",Australia,02-01-2019,Pending
Elizaveta,Lizaa_94@bk.ru,Sydney,"New South Wales",Australia,02-01-2019,Pending
"Binita ",adhikarybneeta@gmail.com,Burwood,"New South Wales",Australia,31-12-2018,Pending
Rodrigo,honorato.rob@gmail.com,Melbourne,Victoria,Australia,28-12-2018,Pending
Rusha,0426642423@noemail.com,Terrigal,"New South Wales",Australia,21-12-2018,Pending
"Monika ",Kusmi.monika@gmail.com,Vaucluse,"New South Wales",Australia,21-12-2018,Pending
Doeun,ehdms2980@gmail.com,Sydney,"New South Wales",Australia,19-12-2018,Pending
Neeraj,0450913206@noemail.com,Auburn,"New South Wales",Australia,19-12-2018,Pending
