<?xml version="1.0" encoding="utf-8"?>
<!-- Generator: Adobe Illustrator 16.0.0, SVG Export Plug-In . SVG Version: 6.00 Build 0)  -->
<!DOCTYPE svg PUBLIC "-//W3C//DTD SVG 1.1//EN" "http://www.w3.org/Graphics/SVG/1.1/DTD/svg11.dtd">
<svg version="1.1" id="Layer_1" xmlns="http://www.w3.org/2000/svg" xmlns:xlink="http://www.w3.org/1999/xlink" x="0px" y="0px"
	 width="1218px" height="364px" viewBox="0 0 1218 364" enable-background="new 0 0 1218 364" xml:space="preserve">
<rect x="1933.5" fill="#FFFFFF" width="1308" height="364"/>
<rect x="1956.648" y="774.088" fill="#FFFFFF" width="1308" height="364"/>
<g>
	<g>
		<path fill="#0099F1" d="M291.03,262.615c-0.995,0.005-1.667,0.451-2.416,0.973c-33.801,23.489-70.103,28.457-108.262,12.885
			c-46.151-18.834-75.022-67.85-66.634-119.382c6.106-37.509,26.663-65.034,60.371-82.415c21.646-11.164,44.793-13.799,68.71-9.867
			c16.946,2.786,32.595,8.827,46.374,19.274c0.799,0.604,1.604,0.688,2.51,0.688c12.57-0.004,25.14-0.002,37.708-0.018
			c0.513,0,1.094,0.208,1.554-0.251c-38.438-44.272-97.112-62.253-154.289-42.278c-57.408,20.055-98.233,77.29-92.826,143.747
			c2.224,27.338,12.7,53.271,29.519,74.606l-21.7,52.434c2.431-0.354,3.947-0.549,5.453-0.807
			c22.299-3.774,44.587-7.616,66.896-11.335c9.017,4.259,18.62,7.654,28.753,10.012c54.976,12.785,115.14-15.479,138.045-48.35
			c-0.416-0.055-0.619-0.104-0.822-0.104C316.991,262.499,304.011,262.58,291.03,262.615z"/>
		<g>
			<path fill="#0099F1" d="M176.769,197.949c-9.251,8.838-18.482,18.078-27.438,26.975L148.056,245h28.685l2.282-48.797
				C178.245,196.742,177.479,197.271,176.769,197.949z"/>
			<path fill="#0099F1" d="M241.931,178.152c0.467-0.313,0.937-0.639,1.405-0.992c4.459-3.388,8.972-6.757,13.492-10.106
				c3.04-10.329,5.956-23.052,8.403-31.052h0.611c0,7,0.104,16.294,0.265,24.206c5.275-3.869,10.54-7.71,15.727-11.491
				c3.944-2.873,7.885-6.117,11.824-8.997L291.882,107H251.4l-14.647,45.932c-2.272,7.746-4.598,16.411-6.839,24.96
				C234.033,177.902,238.062,178.109,241.931,178.152z"/>
			<path fill="#0099F1" d="M170.77,182.371c2.146-2.669,6.455-3.615,9.14-3.793c0.623-13.837,1.112-28.578,1.713-42.578h0.406
				c2.534,14,5.933,28.854,9.424,42.367c8.333-0.131,17.268-0.232,26.365-0.278c-1.995-8.315-4.143-16.971-6.292-24.953L198.1,107
				h-41.296l-6.414,100.883C157.092,199.248,163.907,190.898,170.77,182.371z"/>
			<path fill="#0099F1" d="M247.053,197.631l-0.669-1.627c-2.938-0.309-10.967-1.02-20.759-1.42
				c-0.647,2.602-1.282,3.416-1.894,7.416h-0.608c-0.492-4-1.024-4.945-1.574-7.576c-8.356-0.316-17.584-1.257-25.877-1.377
				L209.085,241h24.208l14.101-44.424L247.053,197.631z"/>
			<path fill="#0099F1" d="M266.751,183.525c0.102,3.031,0.207,6.063,0.313,8.91L269.099,245h30.31l-4.487-81.824
				C285.069,170.386,275.714,177.08,266.751,183.525z"/>
		</g>
	</g>
	<path fill="#263D8C" d="M330.541,130.95c-0.081-1.203-1.787-3.291-2.729-3.282c-9.018,0.093-18.029,0.551-27.042,0.901
		c-0.057,0.579-0.11,1.158-0.166,1.737c1.735,1.375,3.468,2.75,5.535,4.388c-2.062,1.602-3.826,3.043-5.66,4.393
		c-18.227,13.377-36.617,26.542-54.619,40.216c-0.552,0.415-1.1,0.797-1.648,1.161c0.034,0.104,0.076,0.205,0.109,0.31
		c-0.366,0.011-0.714,0.039-1.091,0.035c-20.513-0.229-41.029,0.032-61.54,0.392c-2.719,0.047-6.421,0.979-7.955,2.886
		c-12.836,15.956-25.274,32.235-37.835,48.417c0.625,0.467,1.251,0.936,1.875,1.396c12.722-12.572,25.329-25.27,38.261-37.625
		c2.44-2.33,6.159-4.672,9.309-4.695c21.011-0.164,63.593,1.691,63.876,2.415c1.003-0.718,2.002-1.438,3.007-2.155
		c0.242,0,0.485,0.004,0.729,0.004c-0.079-0.119-0.153-0.242-0.231-0.361c19.962-14.255,39.761-28.749,59.468-43.355
		c5.704-4.23,11.123-7.568,18.483-1.98C330.677,140.424,330.862,135.67,330.541,130.95z"/>
</g>
<g>
	<g>
		<path fill="#0099F1" d="M2265.004,267.316c-0.994,0.005-1.667,0.451-2.416,0.973c-33.801,23.489-70.103,28.457-108.262,12.885
			c-46.15-18.834-75.021-67.85-66.635-119.382c6.107-37.509,26.664-65.034,60.371-82.415c21.646-11.164,44.793-13.799,68.711-9.867
			c16.945,2.786,32.595,8.827,46.373,19.274c0.8,0.604,1.604,0.688,2.511,0.688c12.569-0.004,25.14-0.002,37.708-0.018
			c0.513,0,1.094,0.208,1.554-0.251c-38.438-44.272-97.112-62.253-154.288-42.278c-57.408,20.055-98.234,77.29-92.826,143.747
			c2.224,27.338,12.699,53.271,29.519,74.606l-21.7,52.434c2.432-0.354,3.947-0.549,5.453-0.807
			c22.299-3.774,44.587-7.616,66.896-11.335c9.017,4.259,18.619,7.654,28.752,10.012c54.977,12.785,115.141-15.479,138.045-48.35
			c-0.416-0.055-0.618-0.104-0.821-0.104C2290.965,267.2,2277.984,267.281,2265.004,267.316z"/>
		<g>
			<path fill="#0099F1" d="M2150.743,202.65c-9.251,8.838-18.481,18.078-27.438,26.975l-1.274,20.076h28.685l2.282-48.797
				C2152.219,201.443,2151.453,201.973,2150.743,202.65z"/>
			<path fill="#0099F1" d="M2215.905,182.854c0.467-0.313,0.937-0.639,1.405-0.992c4.459-3.388,8.972-6.757,13.492-10.106
				c3.039-10.329,5.955-23.052,8.402-31.052h0.611c0,7,0.104,16.294,0.265,24.206c5.274-3.869,10.54-7.71,15.728-11.491
				c3.943-2.873,7.885-6.117,11.824-8.997l-1.777-32.72h-40.481l-14.647,45.932c-2.271,7.746-4.598,16.411-6.838,24.96
				C2208.008,182.604,2212.036,182.811,2215.905,182.854z"/>
			<path fill="#0099F1" d="M2144.744,187.072c2.146-2.669,6.455-3.615,9.141-3.793c0.623-13.837,1.111-28.578,1.713-42.578h0.405
				c2.534,14,5.933,28.854,9.425,42.367c8.332-0.131,17.268-0.232,26.364-0.278c-1.995-8.315-4.144-16.971-6.292-24.953
				l-13.426-46.136h-41.296l-6.414,100.883C2131.066,203.949,2137.881,195.6,2144.744,187.072z"/>
			<path fill="#0099F1" d="M2221.027,202.332l-0.67-1.627c-2.938-0.309-10.967-1.02-20.758-1.42
				c-0.647,2.602-1.283,3.416-1.895,7.416h-0.607c-0.492-4-1.024-4.945-1.574-7.576c-8.356-0.316-17.584-1.257-25.877-1.377
				l13.412,47.953h24.209l14.101-44.424L2221.027,202.332z"/>
			<path fill="#0099F1" d="M2240.725,188.227c0.103,3.031,0.207,6.063,0.313,8.91l2.035,52.564h30.31l-4.486-81.824
				C2259.043,175.087,2249.688,181.781,2240.725,188.227z"/>
		</g>
	</g>
	<path fill="#263D8C" d="M2304.516,135.651c-0.082-1.203-1.787-3.291-2.729-3.282c-9.019,0.093-18.028,0.551-27.042,0.901
		c-0.057,0.579-0.109,1.158-0.166,1.737c1.734,1.375,3.468,2.75,5.535,4.388c-2.063,1.602-3.826,3.043-5.66,4.393
		c-18.227,13.377-36.617,26.542-54.619,40.216c-0.552,0.415-1.1,0.797-1.648,1.161c0.035,0.104,0.076,0.205,0.109,0.31
		c-0.365,0.012-0.714,0.039-1.091,0.035c-20.513-0.229-41.028,0.032-61.54,0.393c-2.719,0.047-6.421,0.979-7.955,2.886
		c-12.836,15.956-25.273,32.235-37.835,48.417c0.625,0.467,1.251,0.936,1.875,1.396c12.722-12.572,25.329-25.27,38.261-37.625
		c2.44-2.33,6.159-4.672,9.31-4.695c21.011-0.164,63.593,1.691,63.876,2.415c1.003-0.718,2.002-1.438,3.007-2.155
		c0.242,0,0.485,0.004,0.729,0.004c-0.08-0.119-0.153-0.242-0.231-0.361c19.962-14.255,39.761-28.749,59.468-43.355
		c5.704-4.23,11.123-7.568,18.482-1.98C2304.65,145.125,2304.836,140.371,2304.516,135.651z"/>
</g>
<g>
	<path fill="#5B5B5B" d="M458.582,218.277l3.32,6.476c-3.211,1.992-7.277,3.626-12.2,4.896c-4.925,1.271-9.213,1.908-12.863,1.908
		c-11.62,0-20.666-3.927-27.141-11.785c-6.474-7.854-9.71-18.201-9.71-31.039c0-8.077,1.521-15.297,4.565-21.663
		c3.042-6.36,7.44-11.342,13.196-14.938c5.753-3.595,12.504-5.396,20.251-5.396c3.429,0,7.636,0.664,12.614,1.992
		s9.019,2.988,12.117,4.98l-3.32,6.308c-3.982-1.88-7.415-3.292-10.291-4.233c-2.879-0.938-6.696-1.409-11.453-1.409
		c-5.756,0-10.764,1.521-15.021,4.563c-4.264,3.045-7.527,7.166-9.793,12.366c-2.27,5.203-3.46,10.956-3.569,17.263
		c0,10.291,2.407,18.758,7.222,25.396c4.813,6.641,11.591,9.96,20.334,9.96c3.54,0,6.724-0.274,9.544-0.83
		c2.821-0.553,5.42-1.438,7.801-2.655C456.563,219.219,458.027,218.5,458.582,218.277z"/>
	<path fill="#5B5B5B" d="M529.46,153.957c3.982,4.813,5.976,11.313,5.976,19.503v55.938h-9.13v-54.94
		c0-13.279-5.146-19.919-15.438-19.919c-4.428,0-9.24,1.492-14.44,4.48c-5.203,2.988-9.959,6.917-14.272,11.785v58.594h-9.129
		V113.87l9.129-1.66v48.967c3.43-4.093,7.885-7.524,13.359-10.291c5.479-2.765,10.648-4.15,15.521-4.15
		C519.334,146.736,525.477,149.143,529.46,153.957z"/>
	<path fill="#5B5B5B" d="M555.021,160.015l-3.153-6.308c2.876-1.992,6.973-3.652,12.283-4.98c5.312-1.328,9.793-1.992,13.442-1.992
		c9.072,0,16.154,2.383,21.246,7.14c5.089,4.759,7.636,11.121,7.636,19.089V229.4h-7.304l-1.327-8.631
		c-2.769,3.102-6.392,5.672-10.873,7.719c-4.479,2.048-9.046,3.07-13.691,3.07c-8.742,0-15.438-2.295-20.084-6.891
		c-4.647-4.59-6.975-10.54-6.975-17.844c0-7.523,2.655-13.416,7.97-17.682c5.313-4.259,12.227-6.391,20.746-6.391h22.409v-9.13
		c0-5.864-1.636-10.54-4.896-14.026c-3.268-3.486-8.05-5.229-14.356-5.229c-4.979,0-9.047,0.442-12.2,1.326
		C562.74,156.586,559.114,158.023,555.021,160.015z M555.52,206.824c0,4.76,1.577,8.797,4.73,12.115s7.553,4.979,13.195,4.979
		c4.867,0,9.352-1.217,13.442-3.65c4.096-2.436,7.579-5.646,10.458-9.627v-21.414h-22.24c-6.311,0-11.149,1.658-14.524,4.979
		C557.205,197.529,555.52,201.736,555.52,206.824z"/>
	<path fill="#5B5B5B" d="M647.643,151.051l3.485,6.806h-18.094v51.125c0,4.313,0.913,7.856,2.739,10.623
		c1.823,2.77,4.674,4.148,8.548,4.148c2.213,0,4.479-0.498,6.807-1.494l1.991,7.305c-0.332,0-1.825,0.389-4.48,1.162
		c-2.215,0.553-4.373,0.83-6.475,0.83c-5.644,0-10.1-1.854-13.361-5.563c-3.267-3.706-4.896-8.989-4.896-15.854v-52.289h-11.951
		v-6.806h11.951v-21.413l9.129-3.652v25.064h14.604L647.643,151.051L647.643,151.051z"/>
	<path fill="#5B5B5B" d="M794.873,153.874c3.652,4.759,5.479,11.287,5.479,19.586v55.938h-9.129v-54.94
		c0-6.31-0.996-11.204-2.985-14.69c-1.991-3.486-5.589-5.229-10.789-5.229c-3.767,0-8.023,1.354-12.781,4.065
		c-4.76,2.713-9.24,6.282-13.444,10.707c0.108,0.887,0.166,2.271,0.166,4.149v55.938h-9.13v-54.94c0-6.31-0.971-11.204-2.903-14.69
		c-1.938-3.486-5.508-5.229-10.705-5.229c-3.983,0-8.493,1.492-13.527,4.48c-5.037,2.988-9.711,6.917-14.025,11.785v58.594h-9.13
		v-80.504h7.304l1.66,12.449c3.432-3.984,7.854-7.413,13.278-10.292c5.421-2.876,10.291-4.315,14.604-4.315
		c11.064,0,18.036,4.871,20.915,14.607c3.432-3.984,7.855-7.413,13.279-10.292c5.421-2.876,10.292-4.315,14.606-4.315
		C785.467,146.736,791.223,149.117,794.873,153.874z"/>
	<path fill="#5B5B5B" d="M876.871,189.395h-58.76c0.105,10.404,2.544,18.787,7.303,25.148c4.758,6.365,12.007,9.545,21.745,9.545
		c4.868,0,9.185-0.553,12.946-1.66c3.762-1.104,7.637-2.656,11.617-4.646l3.32,6.809c-3.651,2.104-7.886,3.791-12.698,5.063
		s-9.545,1.908-14.189,1.908c-13.171,0-23.021-3.845-29.547-11.537c-6.53-7.688-9.794-18.117-9.794-31.289
		c0-12.502,3.069-22.627,9.214-30.375c6.143-7.745,14.965-11.619,26.476-11.619c10.292,0,18.26,3.931,23.902,11.785
		C874.051,166.38,876.871,176.671,876.871,189.395z M818.444,182.922h48.967c-0.774-8.632-3.045-15.546-6.809-20.749
		c-3.764-5.2-9.404-7.802-16.931-7.802c-7.525,0-13.42,2.654-17.68,7.968C821.735,167.65,819.217,174.514,818.444,182.922z"/>
	<path fill="#5B5B5B" d="M913.722,151.051l3.484,6.806h-18.093v51.125c0,4.313,0.913,7.856,2.736,10.623
		c1.826,2.77,4.677,4.148,8.551,4.148c2.213,0,4.479-0.498,6.806-1.494l1.992,7.305c-0.332,0-1.826,0.389-4.48,1.162
		c-2.216,0.553-4.373,0.83-6.475,0.83c-5.646,0-10.103-1.854-13.361-5.563c-3.267-3.706-4.896-8.989-4.896-15.854v-52.289h-11.951
		v-6.806h11.951v-21.413l9.129-3.652v25.064h14.604L913.722,151.051L913.722,151.051z"/>
	<path fill="#5B5B5B" d="M935.964,229.398h-9.13v-80.505h5.644l2.988,12.781c3.761-3.097,8.158-6.001,13.195-8.714
		c5.034-2.71,9.434-4.067,13.194-4.067l2.82,7.138c-4.759,0-9.876,1.553-15.354,4.646c-5.479,3.1-9.937,6.531-13.361,10.292
		L935.964,229.398L935.964,229.398z"/>
	<path fill="#5B5B5B" d="M973.811,130.469c-2.104,0-3.792-0.664-5.063-1.992c-1.272-1.328-1.907-2.988-1.907-4.979
		c0-1.992,0.635-3.652,1.907-4.979c1.271-1.328,2.96-1.992,5.063-1.992c1.991,0,3.681,0.664,5.063,1.992s2.074,2.988,2.074,4.979
		c0,1.989-0.691,3.65-2.074,4.979C977.488,129.805,975.802,130.469,973.811,130.469z M969.327,229.398v-80.505h9.13v80.505H969.327
		L969.327,229.398z"/>
	<path fill="#5B5B5B" d="M1046.347,218.277l3.319,6.476c-3.212,1.992-7.277,3.626-12.2,4.896c-4.925,1.271-9.212,1.908-12.864,1.908
		c-11.616,0-20.666-3.927-27.14-11.785c-6.474-7.854-9.71-18.201-9.71-31.039c0-8.077,1.521-15.297,4.563-21.663
		c3.043-6.36,7.438-11.342,13.193-14.938c5.753-3.595,12.504-5.396,20.251-5.396c3.432,0,7.639,0.664,12.614,1.992
		c4.979,1.328,9.021,2.988,12.117,4.98l-3.318,6.308c-3.981-1.88-7.415-3.292-10.292-4.233c-2.88-0.938-6.695-1.409-11.453-1.409
		c-5.755,0-10.765,1.521-15.021,4.563c-4.261,3.045-7.525,7.166-9.793,12.366c-2.271,5.203-3.46,10.956-3.567,17.263
		c0,10.291,2.405,18.758,7.22,25.396c4.813,6.641,11.594,9.96,20.334,9.96c3.541,0,6.726-0.274,9.548-0.83
		c2.818-0.553,5.42-1.438,7.802-2.655C1044.325,219.219,1045.791,218.5,1046.347,218.277z"/>
	<path fill="#5B5B5B" d="M1054.813,225.249l2.986-7.14c8.188,3.982,15.491,5.979,21.91,5.979c6.641,0,11.896-1.271,15.771-3.818
		c3.87-2.545,5.811-6.084,5.811-10.623c0-6.524-7.193-12.447-21.578-17.762c-16.379-5.863-24.563-13.5-24.563-22.906
		c0-6.749,2.516-12.143,7.553-16.184c5.034-4.038,12.034-6.061,20.997-6.061c3.649,0,7.802,0.64,12.449,1.909
		c4.646,1.273,8.3,2.853,10.953,4.731l-3.317,6.474c-3.763-1.769-7.11-3.154-10.042-4.148c-2.936-0.996-6.559-1.494-10.872-1.494
		c-5.535,0-10.07,1.355-13.61,4.065c-3.543,2.713-5.313,6.061-5.313,10.042c0,3.433,1.771,6.393,5.313,8.881
		c3.54,2.49,8.573,4.953,15.104,7.389c7.636,2.879,13.804,6.278,18.509,10.208c4.701,3.93,7.055,8.66,7.055,14.189
		c0,7.193-2.569,12.756-7.718,16.685c-5.146,3.927-12.757,5.894-22.823,5.894c-3.766,0-8.078-0.58-12.945-1.742
		C1061.561,228.652,1057.688,227.133,1054.813,225.249z"/>
</g>
<rect x="-70.5" y="518.5" fill="#06B6DE" width="1624" height="512"/>
<g>
	<g>
		<path fill="#FFFFFF" d="M326.933,832.615c-0.996,0.004-1.667,0.452-2.416,0.973c-33.801,23.488-70.103,28.456-108.262,12.884
			c-46.152-18.833-75.023-67.85-66.634-119.381c6.105-37.51,26.663-65.034,60.371-82.415c21.646-11.164,44.793-13.8,68.71-9.867
			c16.945,2.786,32.595,8.827,46.373,19.273c0.8,0.604,1.605,0.689,2.511,0.689c12.569-0.006,25.14-0.003,37.708-0.02
			c0.513,0,1.094,0.208,1.554-0.251c-38.438-44.271-97.113-62.254-154.289-42.278c-57.409,20.057-98.233,77.29-92.827,143.746
			c2.225,27.339,12.701,53.271,29.52,74.606l-21.7,52.435c2.43-0.354,3.947-0.549,5.453-0.807
			c22.299-3.775,44.587-7.616,66.896-11.335c9.018,4.258,18.62,7.655,28.753,10.012c54.977,12.785,115.141-15.478,138.045-48.35
			c-0.416-0.054-0.619-0.104-0.821-0.104C352.895,832.498,339.913,832.579,326.933,832.615z"/>
		<g>
			<path fill="#FFFFFF" d="M212.672,767.948c-9.251,8.838-18.483,18.079-27.438,26.976L183.959,815h28.684l2.283-48.798
				C214.148,766.741,213.382,767.271,212.672,767.948z"/>
			<path fill="#FFFFFF" d="M277.834,748.152c0.467-0.313,0.936-0.641,1.404-0.993c4.46-3.389,8.973-6.756,13.492-10.105
				c3.04-10.329,5.956-23.053,8.404-31.053h0.61c0,7,0.104,16.295,0.266,24.206c5.274-3.868,10.54-7.71,15.726-11.49
				c3.945-2.873,7.885-6.117,11.824-8.997L327.784,677h-40.481l-14.648,45.932c-2.271,7.746-4.597,16.411-6.839,24.96
				C269.936,747.902,273.965,748.109,277.834,748.152z"/>
			<path fill="#FFFFFF" d="M206.673,752.37c2.145-2.669,6.455-3.614,9.139-3.793c0.623-13.837,1.113-28.578,1.713-42.578h0.407
				c2.534,14,5.932,28.854,9.423,42.367c8.333-0.13,17.269-0.231,26.366-0.277c-1.995-8.313-4.143-16.972-6.292-24.953L234.003,677
				h-41.296l-6.414,100.883C192.995,769.247,199.81,760.899,206.673,752.37z"/>
			<path fill="#FFFFFF" d="M282.956,767.631l-0.669-1.627c-2.938-0.309-10.968-1.02-20.76-1.42
				c-0.646,2.602-1.281,3.416-1.893,7.416h-0.609c-0.491-4-1.023-4.945-1.573-7.576c-8.356-0.314-17.584-1.258-25.877-1.377
				L244.988,811h24.208l14.102-44.425L282.956,767.631z"/>
			<path fill="#FFFFFF" d="M302.654,753.525c0.103,3.03,0.207,6.063,0.313,8.908L305.002,815h30.31l-4.488-81.824
				C320.972,740.386,311.616,747.079,302.654,753.525z"/>
		</g>
	</g>
	<path fill="#263D8C" d="M366.445,700.949c-0.082-1.203-1.788-3.291-2.729-3.281c-9.019,0.093-18.029,0.551-27.042,0.901
		c-0.058,0.578-0.11,1.156-0.166,1.735c1.734,1.375,3.468,2.75,5.535,4.39c-2.062,1.602-3.826,3.043-5.66,4.393
		c-18.228,13.377-36.617,26.542-54.619,40.216c-0.552,0.415-1.1,0.797-1.648,1.161c0.033,0.104,0.075,0.205,0.109,0.312
		c-0.367,0.01-0.714,0.038-1.091,0.033c-20.513-0.229-41.03,0.032-61.54,0.393c-2.719,0.047-6.421,0.979-7.955,2.887
		c-12.836,15.955-25.274,32.235-37.835,48.417c0.625,0.467,1.251,0.937,1.875,1.396c12.721-12.573,25.329-25.27,38.26-37.625
		c2.441-2.33,6.16-4.672,9.31-4.696c21.011-0.164,63.593,1.692,63.876,2.415c1.003-0.716,2.002-1.438,3.007-2.154
		c0.242,0,0.485,0.004,0.729,0.004c-0.079-0.12-0.152-0.242-0.23-0.359c19.962-14.258,39.761-28.749,59.468-43.358
		c5.704-4.229,11.123-7.567,18.482-1.979C366.579,710.424,366.765,705.67,366.445,700.949z"/>
</g>
<g>
	<path fill="#FFFFFF" d="M494.486,788.277l3.318,6.476c-3.211,1.991-7.276,3.625-12.198,4.896
		c-4.927,1.271-9.215,1.906-12.864,1.906c-11.62,0-20.666-3.927-27.142-11.783c-6.474-7.854-9.71-18.201-9.71-31.04
		c0-8.077,1.521-15.3,4.564-21.662c3.042-6.361,7.441-11.343,13.196-14.938c5.753-3.596,12.504-5.396,20.251-5.396
		c3.429,0,7.636,0.664,12.613,1.991c4.979,1.327,9.02,2.987,12.117,4.979l-3.318,6.308c-3.982-1.88-7.415-3.292-10.291-4.231
		c-2.88-0.938-6.697-1.41-11.454-1.41c-5.755,0-10.765,1.521-15.021,4.564c-4.263,3.045-7.525,7.166-9.793,12.364
		c-2.271,5.203-3.46,10.956-3.567,17.265c0,10.292,2.405,18.757,7.221,25.396c4.813,6.641,11.592,9.96,20.334,9.96
		c3.54,0,6.723-0.273,9.544-0.83c2.822-0.553,5.421-1.438,7.802-2.655C492.465,789.219,493.93,788.5,494.486,788.277z"/>
	<path fill="#FFFFFF" d="M565.363,723.956c3.981,4.813,5.977,11.313,5.977,19.503v55.938h-9.13v-54.94
		c0-13.278-5.146-19.919-15.438-19.919c-4.428,0-9.239,1.493-14.439,4.479c-5.202,2.988-9.959,6.917-14.273,11.785v58.594h-9.129
		V683.869l9.129-1.659v48.967c3.431-4.093,7.887-7.522,13.361-10.291c5.479-2.766,10.648-4.148,15.521-4.148
		C555.237,716.736,561.379,719.143,565.363,723.956z"/>
	<path fill="#FFFFFF" d="M590.924,730.015l-3.151-6.308c2.875-1.992,6.972-3.652,12.281-4.979c5.313-1.327,9.793-1.991,13.444-1.991
		c9.071,0,16.155,2.382,21.245,7.139c5.091,4.76,7.638,11.121,7.638,19.09V799.4h-7.306l-1.325-8.632
		c-2.769,3.102-6.392,5.673-10.873,7.72c-4.479,2.047-9.047,3.068-13.693,3.068c-8.741,0-15.438-2.295-20.084-6.889
		c-4.647-4.591-6.974-10.54-6.974-17.845c0-7.522,2.654-13.416,7.968-17.68c5.313-4.26,12.229-6.392,20.748-6.392h22.41v-9.131
		c0-5.863-1.636-10.539-4.896-14.025c-3.268-3.484-8.053-5.229-14.356-5.229c-4.979,0-9.048,0.442-12.201,1.327
		C598.643,726.586,595.017,728.023,590.924,730.015z M591.422,776.823c0,4.761,1.576,8.797,4.729,12.116
		c3.152,3.318,7.553,4.979,13.194,4.979c4.868,0,9.352-1.218,13.444-3.652c4.094-2.434,7.579-5.645,10.459-9.627v-21.413h-22.24
		c-6.31,0-11.148,1.659-14.523,4.979C593.109,767.529,591.422,771.736,591.422,776.823z"/>
	<path fill="#FFFFFF" d="M683.545,721.051l3.485,6.808h-18.095v51.125c0,4.313,0.913,7.856,2.739,10.623
		c1.824,2.769,4.674,4.148,8.547,4.148c2.214,0,4.481-0.498,6.809-1.494l1.991,7.305c-0.331,0-1.825,0.388-4.48,1.161
		c-2.216,0.554-4.373,0.829-6.474,0.829c-5.646,0-10.102-1.854-13.363-5.562c-3.267-3.705-4.896-8.988-4.896-15.854v-52.288h-11.949
		v-6.806h11.949v-21.413l9.13-3.651v25.063h14.604L683.545,721.051L683.545,721.051z"/>
	<path fill="#FFFFFF" d="M830.777,723.873c3.65,4.76,5.478,11.287,5.478,19.587v55.938h-9.13v-54.939
		c0-6.311-0.995-11.204-2.985-14.69c-1.991-3.484-5.59-5.229-10.789-5.229c-3.767,0-8.023,1.354-12.779,4.064
		c-4.762,2.715-9.242,6.282-13.445,10.707c0.108,0.889,0.166,2.271,0.166,4.148v55.938h-9.131v-54.939
		c0-6.311-0.97-11.203-2.903-14.689c-1.938-3.484-5.507-5.229-10.705-5.229c-3.982,0-8.494,1.493-13.525,4.479
		c-5.037,2.988-9.712,6.917-14.027,11.785v58.594h-9.129v-80.505h7.304l1.659,12.449c3.431-3.984,7.854-7.413,13.279-10.292
		c5.42-2.876,10.291-4.314,14.604-4.314c11.063,0,18.036,4.87,20.916,14.606c3.43-3.984,7.854-7.413,13.278-10.292
		c5.42-2.876,10.291-4.314,14.605-4.314C821.368,716.736,827.125,719.116,830.777,723.873z"/>
	<path fill="#FFFFFF" d="M912.775,759.396h-58.762c0.106,10.403,2.543,18.785,7.305,25.147c4.756,6.364,12.006,9.545,21.744,9.545
		c4.867,0,9.185-0.554,12.945-1.66c3.764-1.104,7.639-2.654,11.619-4.646l3.319,6.809c-3.651,2.104-7.886,3.791-12.698,5.063
		c-4.813,1.271-9.545,1.908-14.19,1.908c-13.171,0-23.021-3.846-29.548-11.536c-6.527-7.688-9.793-18.119-9.793-31.289
		c0-12.504,3.07-22.629,9.213-30.376c6.145-7.745,14.967-11.619,26.477-11.619c10.293,0,18.261,3.931,23.904,11.785
		C909.952,736.38,912.775,746.671,912.775,759.396z M854.348,752.922h48.969c-0.774-8.633-3.047-15.547-6.809-20.749
		c-3.765-5.2-9.406-7.803-16.933-7.803c-7.527,0-13.42,2.655-17.678,7.969C857.639,737.65,855.118,744.514,854.348,752.922z"/>
	<path fill="#FFFFFF" d="M949.625,721.051l3.483,6.808h-18.094v51.125c0,4.313,0.912,7.856,2.738,10.623
		c1.825,2.769,4.674,4.148,8.549,4.148c2.213,0,4.479-0.498,6.807-1.494l1.99,7.305c-0.331,0-1.824,0.388-4.479,1.161
		c-2.215,0.554-4.372,0.829-6.476,0.829c-5.646,0-10.101-1.854-13.36-5.562c-3.267-3.705-4.896-8.988-4.896-15.854v-52.288h-11.95
		v-6.806h11.95v-21.413l9.129-3.651v25.063h14.607L949.625,721.051L949.625,721.051z"/>
	<path fill="#FFFFFF" d="M971.866,799.398h-9.131v-80.507h5.646l2.987,12.781c3.761-3.098,8.158-6.001,13.195-8.714
		c5.033-2.71,9.435-4.067,13.193-4.067l2.822,7.14c-4.761,0-9.878,1.552-15.354,4.646c-5.479,3.102-9.936,6.531-13.361,10.292v58.43
		H971.866L971.866,799.398z"/>
	<path fill="#FFFFFF" d="M1009.713,700.469c-2.104,0-3.791-0.664-5.063-1.992c-1.272-1.326-1.908-2.986-1.908-4.979
		s0.636-3.651,1.908-4.979c1.271-1.326,2.961-1.99,5.063-1.99c1.991,0,3.68,0.664,5.063,1.99c1.381,1.328,2.072,2.988,2.072,4.979
		s-0.691,3.651-2.072,4.979C1013.391,699.805,1011.704,700.469,1009.713,700.469z M1005.23,799.398v-80.507h9.131v80.507H1005.23z"
		/>
	<path fill="#FFFFFF" d="M1082.25,788.277l3.317,6.476c-3.212,1.991-7.276,3.625-12.199,4.896
		c-4.926,1.271-9.213,1.906-12.864,1.906c-11.617,0-20.666-3.927-27.14-11.783c-6.475-7.854-9.711-18.201-9.711-31.04
		c0-8.077,1.521-15.3,4.563-21.662c3.043-6.361,7.44-11.343,13.194-14.938s12.505-5.396,20.252-5.396
		c3.431,0,7.638,0.664,12.615,1.991c4.979,1.327,9.019,2.987,12.115,4.979l-3.318,6.308c-3.981-1.88-7.414-3.292-10.291-4.231
		c-2.879-0.938-6.696-1.41-11.453-1.41c-5.756,0-10.766,1.521-15.021,4.564c-4.262,3.045-7.525,7.166-9.793,12.364
		c-2.271,5.203-3.461,10.956-3.566,17.265c0,10.292,2.406,18.757,7.22,25.396c4.813,6.641,11.592,9.96,20.334,9.96
		c3.541,0,6.725-0.273,9.547-0.83c2.819-0.553,5.42-1.438,7.801-2.655C1080.229,789.219,1081.695,788.5,1082.25,788.277z"/>
	<path fill="#FFFFFF" d="M1090.715,795.248l2.985-7.139c8.188,3.982,15.491,5.979,21.912,5.979c6.64,0,11.896-1.271,15.771-3.817
		c3.871-2.546,5.813-6.084,5.813-10.622c0-6.527-7.194-12.449-21.58-17.764c-16.379-5.861-24.563-13.5-24.563-22.905
		c0-6.748,2.518-12.144,7.554-16.185c5.032-4.038,12.032-6.061,20.995-6.061c3.652,0,7.805,0.639,12.449,1.907
		c4.647,1.273,8.301,2.854,10.955,4.731l-3.318,6.474c-3.764-1.769-7.109-3.152-10.043-4.147c-2.934-0.996-6.557-1.494-10.87-1.494
		c-5.534,0-10.071,1.354-13.61,4.065c-3.543,2.714-5.313,6.062-5.313,10.041c0,3.434,1.771,6.394,5.313,8.883
		c3.539,2.488,8.574,4.952,15.104,7.388c7.639,2.88,13.807,6.28,18.51,10.209c4.702,3.929,7.056,8.659,7.056,14.189
		c0,7.193-2.57,12.756-7.718,16.684c-5.146,3.928-12.756,5.894-22.823,5.894c-3.765,0-8.078-0.58-12.947-1.74
		C1097.463,798.652,1093.59,797.133,1090.715,795.248z"/>
</g>
<rect x="-70.5" y="1176.5" fill="#191919" width="1624" height="512"/>
<g>
	<g>
		<path fill="#06B6DE" d="M326.933,1490.615c-0.996,0.004-1.667,0.452-2.416,0.973c-33.801,23.488-70.103,28.456-108.262,12.884
			c-46.152-18.833-75.023-67.85-66.634-119.381c6.105-37.51,26.663-65.033,60.371-82.415c21.646-11.164,44.793-13.8,68.71-9.866
			c16.945,2.785,32.595,8.826,46.373,19.272c0.8,0.604,1.605,0.688,2.511,0.688c12.569-0.005,25.14-0.002,37.708-0.019
			c0.513,0,1.094,0.208,1.554-0.251c-38.438-44.271-97.113-62.254-154.289-42.277c-57.409,20.056-98.233,77.289-92.827,143.745
			c2.225,27.339,12.701,53.271,29.52,74.606l-21.7,52.435c2.43-0.354,3.947-0.549,5.453-0.807
			c22.299-3.775,44.587-7.616,66.896-11.335c9.018,4.258,18.62,7.655,28.753,10.012c54.977,12.785,115.141-15.478,138.045-48.35
			c-0.416-0.055-0.619-0.104-0.821-0.104C352.895,1490.498,339.913,1490.579,326.933,1490.615z"/>
		<g>
			<path fill="#06B6DE" d="M212.672,1425.948c-9.251,8.838-18.483,18.079-27.438,26.976L183.959,1473h28.684l2.283-48.798
				C214.148,1424.741,213.382,1425.271,212.672,1425.948z"/>
			<path fill="#06B6DE" d="M277.834,1406.152c0.467-0.313,0.936-0.641,1.404-0.993c4.46-3.389,8.973-6.756,13.492-10.105
				c3.04-10.329,5.956-23.053,8.404-31.053h0.61c0,7,0.104,16.295,0.266,24.206c5.274-3.868,10.54-7.71,15.726-11.49
				c3.945-2.873,7.885-6.116,11.824-8.997l-1.776-32.72h-40.481l-14.648,45.933c-2.271,7.745-4.597,16.41-6.839,24.959
				C269.936,1405.902,273.965,1406.109,277.834,1406.152z"/>
			<path fill="#06B6DE" d="M206.673,1410.37c2.145-2.669,6.455-3.614,9.139-3.793c0.623-13.837,1.113-28.578,1.713-42.578h0.407
				c2.534,14,5.932,28.854,9.423,42.367c8.333-0.13,17.269-0.231,26.366-0.277c-1.995-8.313-4.143-16.972-6.292-24.953L234.003,1335
				h-41.296l-6.414,100.883C192.995,1427.247,199.81,1418.899,206.673,1410.37z"/>
			<path fill="#06B6DE" d="M282.956,1425.631l-0.669-1.627c-2.938-0.309-10.968-1.02-20.76-1.42
				c-0.646,2.603-1.281,3.416-1.893,7.416h-0.609c-0.491-4-1.023-4.945-1.573-7.576c-8.356-0.315-17.584-1.258-25.877-1.377
				L244.988,1469h24.208l14.102-44.425L282.956,1425.631z"/>
			<path fill="#06B6DE" d="M302.654,1411.525c0.103,3.03,0.207,6.063,0.313,8.909l2.035,52.564h30.31l-4.488-81.824
				C320.972,1398.386,311.616,1405.079,302.654,1411.525z"/>
		</g>
	</g>
	<path fill="#FFFFFF" d="M366.445,1358.949c-0.082-1.203-1.788-3.291-2.729-3.281c-9.019,0.093-18.029,0.551-27.042,0.901
		c-0.058,0.578-0.11,1.156-0.166,1.735c1.734,1.375,3.468,2.75,5.535,4.39c-2.062,1.602-3.826,3.043-5.66,4.393
		c-18.228,13.377-36.617,26.542-54.619,40.216c-0.552,0.415-1.1,0.797-1.648,1.161c0.033,0.104,0.075,0.205,0.109,0.311
		c-0.367,0.011-0.714,0.038-1.091,0.034c-20.513-0.229-41.03,0.032-61.54,0.393c-2.719,0.047-6.421,0.979-7.955,2.887
		c-12.836,15.955-25.274,32.235-37.835,48.417c0.625,0.467,1.251,0.936,1.875,1.396c12.721-12.573,25.329-25.27,38.26-37.625
		c2.441-2.33,6.16-4.673,9.31-4.696c21.011-0.164,63.593,1.69,63.876,2.415c1.003-0.716,2.002-1.438,3.007-2.154
		c0.242,0,0.485,0.004,0.729,0.004c-0.079-0.12-0.152-0.242-0.23-0.361c19.962-14.257,39.761-28.748,59.468-43.356
		c5.704-4.229,11.123-7.567,18.482-1.979C366.579,1368.424,366.765,1363.67,366.445,1358.949z"/>
</g>
<g>
	<path fill="#FFFFFF" d="M494.486,1446.277l3.318,6.476c-3.211,1.991-7.276,3.625-12.198,4.896
		c-4.927,1.271-9.215,1.907-12.864,1.907c-11.62,0-20.666-3.927-27.142-11.785c-6.474-7.854-9.71-18.2-9.71-31.04
		c0-8.076,1.521-15.298,4.564-21.66c3.042-6.361,7.441-11.344,13.196-14.938c5.753-3.596,12.504-5.396,20.251-5.396
		c3.429,0,7.636,0.662,12.613,1.99c4.979,1.328,9.02,2.988,12.117,4.98l-3.318,6.308c-3.982-1.88-7.415-3.292-10.291-4.231
		c-2.88-0.938-6.697-1.41-11.454-1.41c-5.755,0-10.765,1.521-15.021,4.563c-4.263,3.045-7.525,7.166-9.793,12.366
		c-2.271,5.203-3.46,10.956-3.567,17.263c0,10.292,2.405,18.757,7.221,25.396c4.813,6.64,11.592,9.96,20.334,9.96
		c3.54,0,6.723-0.275,9.544-0.83c2.822-0.553,5.421-1.438,7.802-2.656C492.465,1447.219,493.93,1446.5,494.486,1446.277z"/>
	<path fill="#FFFFFF" d="M565.363,1381.956c3.981,4.813,5.977,11.313,5.977,19.503v55.938h-9.13v-54.941
		c0-13.278-5.146-19.919-15.438-19.919c-4.428,0-9.239,1.493-14.439,4.479c-5.202,2.988-9.959,6.918-14.273,11.785v58.596h-9.129
		v-115.528l9.129-1.659v48.967c3.431-4.093,7.887-7.522,13.361-10.291c5.479-2.766,10.648-4.148,15.521-4.148
		C555.237,1374.736,561.379,1377.143,565.363,1381.956z"/>
	<path fill="#FFFFFF" d="M590.924,1388.015l-3.151-6.308c2.875-1.992,6.972-3.652,12.281-4.979
		c5.313-1.327,9.793-1.991,13.444-1.991c9.071,0,16.155,2.382,21.245,7.139c5.091,4.76,7.638,11.121,7.638,19.09v56.438h-7.306
		l-1.325-8.631c-2.769,3.101-6.392,5.672-10.873,7.719c-4.479,2.047-9.047,3.069-13.693,3.069c-8.741,0-15.438-2.296-20.084-6.89
		c-4.647-4.591-6.974-10.54-6.974-17.845c0-7.522,2.654-13.416,7.968-17.679c5.313-4.261,12.229-6.393,20.748-6.393h22.41v-9.131
		c0-5.863-1.636-10.539-4.896-14.024c-3.268-3.485-8.053-5.229-14.356-5.229c-4.979,0-9.048,0.443-12.201,1.327
		C598.643,1384.586,595.017,1386.022,590.924,1388.015z M591.422,1434.823c0,4.761,1.576,8.797,4.729,12.115
		c3.152,3.319,7.553,4.979,13.194,4.979c4.868,0,9.352-1.218,13.444-3.652c4.094-2.434,7.579-5.645,10.459-9.627v-21.413h-22.24
		c-6.31,0-11.148,1.659-14.523,4.979C593.109,1425.529,591.422,1429.736,591.422,1434.823z"/>
	<path fill="#FFFFFF" d="M683.545,1379.051l3.485,6.808h-18.095v51.125c0,4.313,0.913,7.856,2.739,10.623
		c1.824,2.769,4.674,4.148,8.547,4.148c2.214,0,4.481-0.498,6.809-1.494l1.991,7.305c-0.331,0-1.825,0.388-4.48,1.162
		c-2.216,0.553-4.373,0.828-6.474,0.828c-5.646,0-10.102-1.854-13.363-5.562c-3.267-3.705-4.896-8.988-4.896-15.854v-52.287h-11.949
		v-6.807h11.949v-21.413l9.13-3.65v25.063h14.604L683.545,1379.051L683.545,1379.051z"/>
	<path fill="#FFFFFF" d="M830.777,1381.873c3.65,4.76,5.478,11.287,5.478,19.587v55.938h-9.13v-54.94
		c0-6.31-0.995-11.204-2.985-14.688c-1.991-3.486-5.59-5.229-10.789-5.229c-3.767,0-8.023,1.355-12.779,4.066
		c-4.762,2.713-9.242,6.281-13.445,10.707c0.108,0.887,0.166,2.27,0.166,4.146v55.938h-9.131v-54.941
		c0-6.309-0.97-11.203-2.903-14.688c-1.938-3.486-5.507-5.229-10.705-5.229c-3.982,0-8.494,1.493-13.525,4.481
		c-5.037,2.986-9.712,6.917-14.027,11.784v58.595h-9.129v-80.505h7.304l1.659,12.447c3.431-3.982,7.854-7.412,13.279-10.292
		c5.42-2.876,10.291-4.313,14.604-4.313c11.063,0,18.036,4.871,20.916,14.607c3.43-3.984,7.854-7.413,13.278-10.293
		c5.42-2.875,10.291-4.314,14.605-4.314C821.368,1374.736,827.125,1377.116,830.777,1381.873z"/>
	<path fill="#FFFFFF" d="M912.775,1417.396h-58.762c0.106,10.403,2.543,18.785,7.305,25.147c4.756,6.364,12.006,9.545,21.744,9.545
		c4.867,0,9.185-0.554,12.945-1.66c3.764-1.104,7.639-2.655,11.619-4.646l3.319,6.809c-3.651,2.104-7.886,3.791-12.698,5.063
		c-4.813,1.271-9.545,1.906-14.19,1.906c-13.171,0-23.021-3.844-29.548-11.535c-6.527-7.688-9.793-18.118-9.793-31.288
		c0-12.505,3.07-22.63,9.213-30.376c6.145-7.745,14.967-11.619,26.477-11.619c10.293,0,18.261,3.931,23.904,11.785
		C909.952,1394.38,912.775,1404.671,912.775,1417.396z M854.348,1410.922h48.969c-0.774-8.633-3.047-15.547-6.809-20.749
		c-3.765-5.2-9.406-7.803-16.933-7.803c-7.527,0-13.42,2.655-17.678,7.969C857.639,1395.65,855.118,1402.514,854.348,1410.922z"/>
	<path fill="#FFFFFF" d="M949.625,1379.051l3.483,6.808h-18.094v51.125c0,4.313,0.912,7.856,2.738,10.623
		c1.825,2.769,4.674,4.148,8.549,4.148c2.213,0,4.479-0.498,6.807-1.494l1.99,7.305c-0.331,0-1.824,0.388-4.479,1.162
		c-2.215,0.553-4.372,0.828-6.476,0.828c-5.646,0-10.101-1.854-13.36-5.562c-3.267-3.705-4.896-8.988-4.896-15.854v-52.287h-11.95
		v-6.807h11.95v-21.413l9.129-3.65v25.063h14.607L949.625,1379.051L949.625,1379.051z"/>
	<path fill="#FFFFFF" d="M971.866,1457.397h-9.131v-80.506h5.646l2.987,12.781c3.761-3.098,8.158-6.001,13.195-8.714
		c5.033-2.71,9.435-4.067,13.193-4.067l2.822,7.14c-4.761,0-9.878,1.552-15.354,4.646c-5.479,3.101-9.936,6.531-13.361,10.292
		v58.429H971.866L971.866,1457.397z"/>
	<path fill="#FFFFFF" d="M1009.713,1358.469c-2.104,0-3.791-0.664-5.063-1.991c-1.272-1.327-1.908-2.987-1.908-4.979
		s0.636-3.651,1.908-4.979c1.271-1.327,2.961-1.991,5.063-1.991c1.991,0,3.68,0.664,5.063,1.991
		c1.381,1.327,2.072,2.987,2.072,4.979s-0.691,3.651-2.072,4.979C1013.391,1357.805,1011.704,1358.469,1009.713,1358.469z
		 M1005.23,1457.397v-80.506h9.131v80.506H1005.23z"/>
	<path fill="#FFFFFF" d="M1082.25,1446.277l3.317,6.476c-3.212,1.991-7.276,3.625-12.199,4.896
		c-4.926,1.271-9.213,1.907-12.864,1.907c-11.617,0-20.666-3.927-27.14-11.785c-6.475-7.854-9.711-18.2-9.711-31.04
		c0-8.076,1.521-15.298,4.563-21.66c3.043-6.361,7.44-11.344,13.194-14.938s12.505-5.396,20.252-5.396
		c3.431,0,7.638,0.662,12.615,1.99c4.979,1.328,9.019,2.988,12.115,4.98l-3.318,6.308c-3.981-1.88-7.414-3.292-10.291-4.231
		c-2.879-0.938-6.696-1.41-11.453-1.41c-5.756,0-10.766,1.521-15.021,4.563c-4.262,3.045-7.525,7.166-9.793,12.366
		c-2.271,5.203-3.461,10.956-3.566,17.263c0,10.292,2.406,18.757,7.22,25.396c4.813,6.639,11.592,9.96,20.334,9.96
		c3.541,0,6.725-0.275,9.547-0.83c2.819-0.553,5.42-1.438,7.801-2.656C1080.229,1447.219,1081.695,1446.5,1082.25,1446.277z"/>
	<path fill="#FFFFFF" d="M1090.715,1453.248l2.985-7.139c8.188,3.982,15.491,5.979,21.912,5.979c6.64,0,11.896-1.271,15.771-3.817
		c3.871-2.546,5.813-6.084,5.813-10.623c0-6.526-7.194-12.448-21.58-17.763c-16.379-5.862-24.563-13.5-24.563-22.905
		c0-6.748,2.518-12.144,7.554-16.185c5.032-4.038,12.032-6.061,20.995-6.061c3.652,0,7.805,0.639,12.449,1.907
		c4.647,1.273,8.301,2.854,10.955,4.731l-3.318,6.474c-3.764-1.769-7.109-3.152-10.043-4.147c-2.934-0.996-6.557-1.494-10.87-1.494
		c-5.534,0-10.071,1.354-13.61,4.065c-3.543,2.714-5.313,6.062-5.313,10.041c0,3.434,1.771,6.394,5.313,8.883
		c3.539,2.488,8.574,4.951,15.104,7.388c7.639,2.88,13.807,6.28,18.51,10.209c4.702,3.929,7.056,8.659,7.056,14.188
		c0,7.194-2.57,12.756-7.718,16.685c-5.146,3.928-12.756,5.894-22.823,5.894c-3.765,0-8.078-0.58-12.947-1.74
		C1097.463,1456.652,1093.59,1455.133,1090.715,1453.248z"/>
</g>
<g>
	<path fill="#0099F1" d="M2436.693,214.27l3.32,6.476c-3.211,1.992-7.277,3.626-12.2,4.896c-4.925,1.271-9.213,1.908-12.863,1.908
		c-11.62,0-20.666-3.927-27.141-11.785c-6.474-7.854-9.71-18.201-9.71-31.039c0-8.076,1.521-15.297,4.564-21.662
		c3.043-6.36,7.44-11.342,13.196-14.938c5.753-3.595,12.504-5.396,20.251-5.396c3.429,0,7.636,0.664,12.614,1.992
		s9.019,2.987,12.117,4.979l-3.32,6.308c-3.982-1.88-7.415-3.291-10.291-4.232c-2.879-0.938-6.696-1.409-11.453-1.409
		c-5.756,0-10.764,1.521-15.021,4.563c-4.264,3.045-7.527,7.166-9.793,12.365c-2.271,5.203-3.461,10.956-3.569,17.264
		c0,10.291,2.407,18.758,7.222,25.396c4.813,6.641,11.591,9.96,20.334,9.96c3.54,0,6.724-0.274,9.544-0.83
		c2.821-0.553,5.42-1.438,7.801-2.655C2434.674,215.211,2436.139,214.492,2436.693,214.27z"/>
	<path fill="#0099F1" d="M2507.571,149.949c3.982,4.813,5.976,11.313,5.976,19.503v55.938h-9.13v-54.94
		c0-13.278-5.146-19.919-15.438-19.919c-4.428,0-9.24,1.492-14.44,4.48c-5.203,2.987-9.959,6.916-14.272,11.785v58.594h-9.129
		V109.862l9.129-1.66v48.967c3.43-4.093,7.885-7.524,13.359-10.29c5.479-2.766,10.648-4.15,15.521-4.15
		C2497.445,142.729,2503.588,145.135,2507.571,149.949z"/>
	<path fill="#0099F1" d="M2533.133,156.008l-3.153-6.309c2.876-1.992,6.973-3.652,12.283-4.98c5.312-1.328,9.793-1.992,13.442-1.992
		c9.072,0,16.154,2.384,21.246,7.141c5.089,4.759,7.636,11.121,7.636,19.089v56.437h-7.304l-1.327-8.631
		c-2.769,3.102-6.392,5.672-10.873,7.719c-4.479,2.048-9.046,3.07-13.691,3.07c-8.742,0-15.438-2.295-20.084-6.891
		c-4.647-4.59-6.975-10.54-6.975-17.844c0-7.523,2.655-13.416,7.97-17.682c5.313-4.259,12.227-6.391,20.746-6.391h22.409v-9.13
		c0-5.864-1.636-10.54-4.896-14.026c-3.268-3.486-8.05-5.229-14.356-5.229c-4.979,0-9.047,0.441-12.2,1.326
		C2540.852,152.578,2537.226,154.016,2533.133,156.008z M2533.631,202.816c0,4.76,1.577,8.797,4.73,12.115s7.553,4.979,13.195,4.979
		c4.867,0,9.352-1.217,13.442-3.65c4.096-2.436,7.579-5.646,10.458-9.627v-21.414h-22.24c-6.311,0-11.149,1.658-14.524,4.979
		C2535.316,193.521,2533.631,197.729,2533.631,202.816z"/>
	<path fill="#0099F1" d="M2625.754,147.043l3.485,6.807h-18.094v51.125c0,4.313,0.913,7.856,2.739,10.623
		c1.823,2.77,4.674,4.148,8.548,4.148c2.213,0,4.479-0.498,6.807-1.494l1.991,7.305c-0.332,0-1.825,0.389-4.48,1.162
		c-2.215,0.553-4.373,0.83-6.475,0.83c-5.644,0-10.1-1.854-13.361-5.563c-3.267-3.706-4.896-8.989-4.896-15.854v-52.289h-11.951
		v-6.806h11.951v-21.413l9.129-3.652v25.064h14.604L2625.754,147.043L2625.754,147.043z"/>
	<path fill="#0099F1" d="M2772.984,149.866c3.652,4.759,5.479,11.287,5.479,19.586v55.938h-9.129v-54.94
		c0-6.31-0.996-11.204-2.985-14.69c-1.991-3.485-5.589-5.229-10.789-5.229c-3.767,0-8.023,1.354-12.781,4.064
		c-4.76,2.713-9.24,6.282-13.444,10.707c0.108,0.887,0.166,2.271,0.166,4.149v55.938h-9.13v-54.94c0-6.31-0.971-11.204-2.903-14.69
		c-1.938-3.485-5.508-5.229-10.705-5.229c-3.983,0-8.493,1.492-13.527,4.48c-5.037,2.987-9.711,6.916-14.025,11.785v58.594h-9.13
		v-80.504h7.304l1.66,12.448c3.432-3.983,7.854-7.413,13.278-10.292c5.421-2.876,10.291-4.314,14.604-4.314
		c11.064,0,18.036,4.871,20.915,14.606c3.432-3.983,7.855-7.413,13.279-10.292c5.421-2.876,10.292-4.314,14.606-4.314
		C2763.578,142.729,2769.334,145.109,2772.984,149.866z"/>
	<path fill="#0099F1" d="M2854.982,185.387h-58.76c0.105,10.404,2.544,18.787,7.303,25.148c4.758,6.365,12.007,9.545,21.745,9.545
		c4.868,0,9.185-0.553,12.946-1.66c3.762-1.104,7.637-2.656,11.617-4.646l3.32,6.809c-3.651,2.104-7.886,3.791-12.698,5.063
		s-9.545,1.908-14.189,1.908c-13.171,0-23.021-3.845-29.547-11.537c-6.53-7.688-9.794-18.117-9.794-31.289
		c0-12.502,3.069-22.627,9.214-30.375c6.143-7.744,14.965-11.618,26.476-11.618c10.292,0,18.26,3.931,23.902,11.784
		C2852.162,162.372,2854.982,172.663,2854.982,185.387z M2796.556,178.914h48.967c-0.774-8.632-3.045-15.546-6.809-20.749
		c-3.764-5.2-9.404-7.802-16.931-7.802c-7.525,0-13.42,2.654-17.68,7.968C2799.847,163.643,2797.328,170.506,2796.556,178.914z"/>
	<path fill="#0099F1" d="M2891.833,147.043l3.484,6.807h-18.093v51.125c0,4.313,0.913,7.856,2.736,10.623
		c1.826,2.77,4.677,4.148,8.551,4.148c2.213,0,4.479-0.498,6.806-1.494l1.992,7.305c-0.332,0-1.826,0.389-4.48,1.162
		c-2.216,0.553-4.373,0.83-6.475,0.83c-5.646,0-10.103-1.854-13.361-5.563c-3.267-3.706-4.896-8.989-4.896-15.854v-52.289h-11.951
		v-6.806h11.951v-21.413l9.129-3.652v25.064h14.604L2891.833,147.043L2891.833,147.043z"/>
	<path fill="#0099F1" d="M2914.075,225.391h-9.13v-80.506h5.644l2.988,12.781c3.761-3.097,8.158-6.001,13.195-8.714
		c5.034-2.71,9.434-4.067,13.194-4.067l2.82,7.139c-4.759,0-9.876,1.553-15.354,4.646c-5.479,3.101-9.937,6.531-13.361,10.292
		L2914.075,225.391L2914.075,225.391z"/>
	<path fill="#0099F1" d="M2951.922,126.461c-2.104,0-3.792-0.664-5.063-1.992c-1.272-1.328-1.907-2.988-1.907-4.979
		c0-1.992,0.635-3.652,1.907-4.979c1.271-1.328,2.96-1.992,5.063-1.992c1.991,0,3.681,0.664,5.063,1.992s2.074,2.987,2.074,4.979
		c0,1.988-0.691,3.65-2.074,4.979C2955.6,125.797,2953.913,126.461,2951.922,126.461z M2947.438,225.391v-80.506h9.13v80.506
		H2947.438L2947.438,225.391z"/>
	<path fill="#0099F1" d="M3024.458,214.27l3.319,6.476c-3.212,1.992-7.277,3.626-12.2,4.896c-4.925,1.271-9.212,1.908-12.864,1.908
		c-11.616,0-20.666-3.927-27.14-11.785c-6.474-7.854-9.71-18.201-9.71-31.039c0-8.076,1.521-15.297,4.563-21.662
		c3.043-6.36,7.438-11.342,13.193-14.938c5.753-3.595,12.504-5.396,20.251-5.396c3.432,0,7.639,0.664,12.614,1.992
		c4.979,1.328,9.021,2.987,12.117,4.979l-3.318,6.308c-3.981-1.88-7.415-3.291-10.292-4.232c-2.88-0.938-6.695-1.409-11.453-1.409
		c-5.755,0-10.765,1.521-15.021,4.563c-4.261,3.045-7.525,7.166-9.793,12.365c-2.271,5.203-3.46,10.956-3.567,17.264
		c0,10.291,2.405,18.758,7.22,25.396c4.813,6.641,11.594,9.96,20.334,9.96c3.541,0,6.726-0.274,9.548-0.83
		c2.818-0.553,5.42-1.438,7.802-2.655C3022.437,215.211,3023.902,214.492,3024.458,214.27z"/>
	<path fill="#0099F1" d="M3032.924,221.241l2.986-7.14c8.188,3.982,15.491,5.979,21.91,5.979c6.641,0,11.896-1.271,15.771-3.818
		c3.87-2.545,5.811-6.084,5.811-10.623c0-6.524-7.193-12.447-21.578-17.762c-16.379-5.863-24.563-13.5-24.563-22.906
		c0-6.748,2.516-12.143,7.553-16.184c5.034-4.038,12.034-6.061,20.997-6.061c3.649,0,7.802,0.64,12.449,1.908
		c4.646,1.273,8.3,2.854,10.953,4.731l-3.317,6.474c-3.763-1.769-7.11-3.154-10.042-4.147c-2.936-0.996-6.559-1.494-10.872-1.494
		c-5.535,0-10.07,1.354-13.61,4.065c-3.543,2.713-5.313,6.061-5.313,10.041c0,3.434,1.771,6.394,5.313,8.881
		c3.54,2.49,8.573,4.953,15.104,7.39c7.636,2.879,13.804,6.278,18.509,10.208c4.701,3.93,7.055,8.66,7.055,14.189
		c0,7.193-2.569,12.756-7.718,16.685c-5.146,3.927-12.757,5.894-22.823,5.894c-3.766,0-8.078-0.58-12.945-1.742
		C3039.672,224.645,3035.799,223.125,3032.924,221.241z"/>
</g>
<g>
	<g>
		<path fill="#0099F1" d="M2245.141,1050.729c-0.891,0.003-1.497,0.405-2.168,0.875c-30.345,21.089-62.938,25.549-97.197,11.567
			c-41.43-16.906-67.35-60.913-59.817-107.178c5.481-33.672,23.937-58.385,54.198-73.991c19.432-10.019,40.211-12.385,61.687-8.856
			c15.21,2.503,29.259,7.925,41.631,17.305c0.719,0.543,1.44,0.62,2.251,0.62c11.287-0.007,22.574-0.004,33.857-0.02
			c0.46,0,0.98,0.186,1.393-0.224c-34.509-39.744-87.185-55.888-138.513-37.957c-51.539,18.008-88.19,69.391-83.334,129.049
			c1.992,24.547,11.398,47.826,26.498,66.983l-19.479,47.072c2.184-0.319,3.544-0.491,4.897-0.728
			c20.016-3.385,40.025-6.836,60.051-10.173c8.098,3.822,16.718,6.868,25.817,8.988c49.353,11.481,103.366-13.898,123.928-43.407
			c-0.373-0.048-0.556-0.096-0.734-0.096C2268.448,1050.628,2256.795,1050.701,2245.141,1050.729z"/>
		<g>
			<path fill="#0099F1" d="M2142.563,992.677c-8.308,7.935-16.597,16.229-24.636,24.215l-1.143,18.023h25.753l2.044-43.809
				C2143.889,991.592,2143.199,992.067,2142.563,992.677z"/>
			<path fill="#0099F1" d="M2201.063,974.902c0.421-0.281,0.84-0.574,1.258-0.888c4.004-3.046,8.059-6.069,12.113-9.074
				c2.733-9.271,5.349-20.695,7.542-27.88h0.549c0,6.287,0.096,14.63,0.24,21.73c4.734-3.474,9.46-6.919,14.121-10.313
				c3.538-2.58,7.076-5.492,10.613-8.078l-1.596-29.374h-36.342l-13.148,41.235c-2.04,6.951-4.128,14.735-6.143,22.404
				C2193.976,974.679,2197.59,974.864,2201.063,974.902z"/>
			<path fill="#0099F1" d="M2137.174,978.689c1.929-2.395,5.799-3.247,8.206-3.404c0.562-12.423,1.003-25.657,1.539-38.225h0.364
				c2.273,12.567,5.328,25.904,8.461,38.033c7.48-0.114,15.504-0.204,23.668-0.249c-1.787-7.465-3.719-15.236-5.647-22.4
				l-12.054-41.418h-37.072l-5.76,90.568C2124.895,993.843,2131.016,986.346,2137.174,978.689z"/>
			<path fill="#0099F1" d="M2205.658,992.39l-0.601-1.459c-2.634-0.277-9.844-0.913-18.637-1.277
				c-0.575,2.337-1.149,3.065-1.698,6.66h-0.547c-0.44-3.595-0.919-4.44-1.414-6.804c-7.5-0.284-15.782-1.127-23.231-1.235
				l12.044,43.053h21.733l12.66-39.883L2205.658,992.39z"/>
			<path fill="#0099F1" d="M2223.343,979.727c0.096,2.724,0.186,5.444,0.281,7.998l1.826,47.19h27.216l-4.029-73.454
				C2239.789,967.93,2231.389,973.941,2223.343,979.727z"/>
		</g>
	</g>
	<path fill="#263D8C" d="M2280.61,932.527c-0.07-1.08-1.603-2.957-2.446-2.947c-8.097,0.086-16.188,0.495-24.278,0.811
		c-0.051,0.521-0.102,1.038-0.153,1.559c1.562,1.235,3.116,2.468,4.975,3.939c-1.852,1.438-3.438,2.73-5.083,3.943
		c-16.363,12.009-32.874,23.828-49.032,36.105c-0.498,0.37-0.99,0.715-1.481,1.04c0.028,0.096,0.066,0.186,0.099,0.278
		c-0.329,0.01-0.642,0.035-0.983,0.031c-18.413-0.207-36.833,0.029-55.243,0.354c-2.442,0.039-5.766,0.875-7.146,2.587
		c-11.522,14.329-22.688,28.939-33.966,43.467c0.563,0.422,1.124,0.844,1.687,1.255c11.417-11.286,22.736-22.685,34.349-33.776
		c2.19-2.092,5.529-4.196,8.355-4.215c18.86-0.147,57.092,1.52,57.347,2.168c0.9-0.646,1.795-1.293,2.695-1.938
		c0.22,0,0.44,0.007,0.657,0.007c-0.07-0.105-0.137-0.218-0.207-0.326c17.918-12.797,35.692-25.811,53.388-38.921
		c5.121-3.8,9.983-6.794,16.59-1.781C2280.731,941.033,2280.9,936.764,2280.61,932.527z"/>
</g>
<text transform="matrix(1 0 0 1 2393.3506 1029.8311)"><tspan x="0" y="0" fill="#0099F1" font-family="'Catamaran-Regular'" font-size="152.8928" letter-spacing="-7">chat</tspan><tspan x="247.833" y="0" font-family="'Catamaran-Regular'" font-size="152.8928" letter-spacing="-7"> </tspan><tspan x="276.422" y="0" fill="#263D8C" font-family="'Catamaran-Regular'" font-size="152.8928" letter-spacing="-7">metrics</tspan></text>
</svg>
